"_Symbol","consensusEstimate","highEstimate","lowEstimate","LongTradeDate","TimeOfAnnouncement","EarningsDate","ShortTrade","ClosePrice","CloseDate","dispersionScore","delta"
"AAL",0.92,0.95,0.89,"2018-01-14","premarket","2018-Jan-25","2018-01-24","54.35","2018-01-24",0.07,0.06
"AAPL",3.78,3.88,3.68,"2018-01-15","after_hours","2018-Feb-01","2018-01-25","177.25","2018-01-24",0.05,0.2
"ABBV",1.44,1.51,1.42,"2018-01-14","premarket","2018-Jan-26","2018-01-24","105.26","2018-01-24",0.06,0.09
"ABC",1.35,1.39,1.23,"2018-01-14","premarket","2018-Feb-06","2018-01-24","103.29","2018-01-24",0.12,0.16
"ABX",0.22,0.25,0.2,"2018-01-15","after_hours","2018-Feb-14","2018-01-25","N/A","N/A",0.23,0.05
"ADM",0.7,0.74,0.68,"2018-01-14","premarket","2018-Feb-06","2018-01-24","42.69","2018-01-24",0.09,0.06
"ADP",0.89,0.92,0.86,"2018-01-14","premarket","2018-Jan-31","2018-01-24","122.7","2018-01-24",0.07,0.06
"AET",1.18,1.29,1.12,"2018-01-14","premarket","2018-Jan-30","2018-01-24","120.31","2016-08-23",0.14,0.17
"AFL",1.55,1.6,1.5,"2018-01-15","after_hours","2018-Jan-31","2018-01-25","88.49","2018-01-24",0.06,0.1
"AGN",4.73,4.86,4.51,"2018-01-14","premarket","2018-Feb-06","2018-01-24","188.39","2018-01-24",0.07,0.35
"AGNC",0.62,0.64,0.6,"2018-01-15","after_hours","2018-Jan-31","2018-01-25","19.74","2018-01-24",0.06,0.04
"AIG",0.87,1.22,0.6,"2018-01-15","after_hours","2018-Feb-08","2018-01-25","62.47","2018-01-24",0.71,0.62
"AKAM",0.45,0.47,0.43,"2018-01-15","after_hours","2018-Feb-06","2018-01-25","66.28","2018-01-24",0.09,0.04
"AKS",-0.14,-0.07,-0.19,"2018-01-14","premarket","2018-Jan-30","2018-01-24","6.33","2018-01-24",0.86,0.12
"ALGN",0.96,1.1,0.93,"2018-01-15","after_hours","2018-Jan-30","2018-01-25","273.52","2018-01-24",0.18,0.17
"ALXN",1.09,1.34,1,"2018-01-14","premarket","2018-Feb-08","2018-01-24","126.04","2018-01-24",0.31,0.34
"AMD",0.02,0.04,0.01,"2018-01-15","after_hours","2018-Jan-30","2018-01-25","13.02","2018-01-24",1.5,0.03
"AMGN",3.04,3.23,2.9,"2018-01-15","after_hours","2018-Feb-01","2018-01-25","192.75","2018-01-24",0.11,0.33
"AMZN",1.85,2.33,1.21,"2018-01-15","after_hours","2018-Feb-01","2018-01-25","1374.82","2018-01-24",0.61,1.12
"ANTM",1.25,1.3,1.16,"2018-01-14","premarket","2018-Jan-31","2018-01-24","251.09","2018-01-24",0.11,0.14
"APC",-0.01,0.37,-0.17,"2018-01-15","after_hours","2018-Feb-06","2018-01-25","61.25","2018-01-24",54.0,0.54
"APRN",-0.27,-0.25,-0.28,"2018-01-14","premarket","2018-Feb-13","2018-01-24","N/A","N/A",0.11,0.03
"ATHN",0.46,0.6,0.41,"2018-01-15","after_hours","2018-Feb-01","2018-01-25","129.42","2018-01-24",0.41,0.19
"ATVI",0.88,0.97,0.76,"2018-01-15","after_hours","2018-Feb-08","2018-01-25","71.66","2018-01-24",0.24,0.21
"AZN",0.44,0.53,0.38,"2018-01-14","premarket","2018-Feb-02","2018-01-24","N/A","N/A",0.34,0.15
"BA",2.91,3.06,2.79,"2018-01-14","premarket","2018-Jan-31","2018-01-24","30.3","2001-09-21",0.09,0.27
"BABA",1.45,1.64,1.26,"2018-01-14","premarket","2018-Feb-01","2018-01-24","N/A","N/A",0.26,0.38
"BAX",0.58,0.6,0.57,"2018-01-14","premarket","2018-Feb-01","2018-01-24","69.9","2018-01-24",0.05,0.03
"BIIB",5.44,6.08,4.82,"2018-01-14","premarket","2018-Jan-25","2018-01-24","348.89","2018-01-24",0.23,1.26
"BMY",0.67,0.7,0.63,"2018-01-14","premarket","2018-Feb-05","2018-01-24","33.73","2012-01-18",0.1,0.07
"BP",0.66,0.66,0.66,"2018-01-14","premarket","2018-Feb-06","2018-01-24","34.08","2016-08-23",0.0,0.0
"BSX",0.34,0.36,0.31,"2018-01-14","premarket","2018-Feb-01","2018-01-24","27.98","2018-01-24",0.15,0.05
"BX",0.69,0.78,0.65,"2018-01-14","premarket","2018-Feb-01","2018-01-24","N/A","N/A",0.19,0.13
"CAH",1.14,1.21,1.1,"2018-01-14","premarket","2018-Feb-08","2018-01-24","73.98","2018-01-24",0.1,0.11
"CAT",1.77,1.92,1.53,"2018-01-14","premarket","2018-Jan-25","2018-01-24","44.1","2001-09-21",0.22,0.39
"CC",0.92,1.01,0.82,"2018-01-15","after_hours","2018-Feb-14","2018-01-25","N/A","N/A",0.21,0.19
"CELG",1.78,1.85,1.72,"2018-01-14","premarket","2018-Jan-25","2018-01-24","104.97","2018-01-24",0.07,0.13
"CHTR",0.85,1.3,0.37,"2018-01-14","premarket","2018-Feb-02","2018-01-24","370.45","2018-01-24",1.09,0.93
"CI",1.87,1.9,1.79,"2018-01-14","premarket","2018-Feb-01","2018-01-24","221.16","2018-01-24",0.06,0.11
"CL",0.75,0.76,0.74,"2018-01-14","premarket","2018-Jan-26","2018-01-24","74.48","2016-08-23",0.03,0.02
"CLF",0.15,0.17,0.14,"2018-01-14","premarket","2018-Jan-25","2018-01-24","8.49","2018-01-24",0.2,0.03
"CLX",1.22,1.24,1.19,"2018-01-14","premarket","2018-Feb-02","2018-01-24","143.56","2018-01-24",0.04,0.05
"CME",1.1,1.11,1.09,"2018-01-14","premarket","2018-Feb-01","2018-01-24","154.3","2018-01-24",0.02,0.02
"CMG",1.35,1.53,1.05,"2018-01-15","after_hours","2018-Feb-06","2018-01-25","329.92","2018-01-24",0.36,0.48
"CMI",2.64,3,2.47,"2018-01-14","premarket","2018-Feb-06","2018-01-24","189.22","2018-01-24",0.2,0.53
"COP",0.45,0.77,0.21,"2018-01-14","premarket","2018-Feb-01","2018-01-24","60.54","2018-01-24",1.24,0.56
"COTY",0.24,0.26,0.21,"2018-01-14","premarket","2018-Feb-08","2018-01-24","20.85","2018-01-24",0.21,0.05
"CRUS",1.63,1.63,1.61,"2018-01-15","after_hours","2018-Feb-05","2018-01-25","51.75","2018-01-24",0.01,0.02
"CSCO",0.53,0.54,0.52,"2018-01-15","after_hours","2018-Feb-14","2018-01-25","42.2","2018-01-24",0.04,0.02
"CTL",0.22,0.31,0.12,"2018-01-15","after_hours","2018-Feb-14","2018-01-25","17.45","2018-01-24",0.86,0.19
"CTSH",0.88,0.94,0.86,"2018-01-14","premarket","2018-Feb-07","2018-01-24","78.54","2018-01-24",0.09,0.08
"CVX",1.33,1.58,1.13,"2018-01-14","premarket","2018-Feb-02","2018-01-24","69.06","2009-08-13",0.34,0.45
"DATA",-0.45,-0.35,-0.5,"2018-01-15","after_hours","2018-Feb-01","2018-01-25","73.65","2018-01-24",0.33,0.15
"DECK",3.84,4.05,3.7,"2018-01-15","after_hours","2018-Feb-01","2018-01-25","88.41","2018-01-24",0.09,0.35
"DHI",0.63,0.78,0.58,"2018-01-14","premarket","2018-Jan-31","2018-01-24","52.4","2018-01-24",0.32,0.2
"DIS",1.62,1.68,1.54,"2018-01-15","after_hours","2018-Feb-06","2018-01-25","18.2","2001-09-21",0.09,0.14
"DOV",1.04,1.06,1.02,"2018-01-14","premarket","2018-Jan-30","2018-01-24","106.0","2018-01-24",0.04,0.04
"DWDP",0.67,0.69,0.58,"2018-01-14","premarket","2018-Feb-01","2018-01-24","76.28","2018-01-24",0.16,0.11
"EA",2.07,2.17,1.98,"2018-01-15","after_hours","2018-Jan-30","2018-01-25","118.41","2018-01-24",0.09,0.19
"EBAY",0.5,0.51,0.48,"2018-01-15","after_hours","2018-Jan-31","2018-01-25","39.97","2018-01-24",0.06,0.03
"EMR",0.54,0.58,0.51,"2018-01-14","premarket","2018-Feb-06","2018-01-24","49.25","2012-01-18",0.13,0.07
"EPD",0.35,0.37,0.32,"2018-01-14","premarket","2018-Jan-31","2018-01-24","N/A","N/A",0.14,0.05
"ETFC",0.62,0.64,0.6,"2018-01-15","after_hours","2018-Jan-25","2018-01-25","55.32","2018-01-24",0.06,0.04
"ETN",1.25,1.26,1.22,"2018-01-14","premarket","2018-Feb-01","2018-01-24","48.85","2012-01-18",0.03,0.04
"EW",0.9,0.93,0.89,"2018-01-15","after_hours","2018-Feb-01","2018-01-25","124.89","2018-01-24",0.04,0.04
"EXPE",0.94,1.03,0.79,"2018-01-15","after_hours","2018-Feb-08","2018-01-25","130.37","2018-01-24",0.26,0.24
"FB",1.94,2.1,1.66,"2018-01-15","after_hours","2018-Jan-31","2018-01-25","189.89","2018-01-24",0.23,0.44
"FCX",0.49,0.57,0.41,"2018-01-14","premarket","2018-Jan-25","2018-01-24","19.89","2018-01-24",0.33,0.16
"FEYE",-0.2,-0.15,-0.24,"2018-01-15","after_hours","2018-Feb-08","2018-01-25","N/A","N/A",0.45,0.09
"FLEX",0.23,0.24,0.23,"2018-01-15","after_hours","2018-Jan-25","2018-01-25","N/A","N/A",0.04,0.01
"FOXA",0.45,0.53,0.36,"2018-01-15","after_hours","2018-Feb-07","2018-01-25","37.69","2018-01-24",0.38,0.17
"GG",0.13,0.18,0.09,"2018-01-15","after_hours","2018-Feb-14","2018-01-25","N/A","N/A",0.69,0.09
"GILD",1.65,1.94,1.22,"2018-01-15","after_hours","2018-Feb-06","2018-01-25","81.29","2018-01-24",0.44,0.72
"GLW",0.47,0.48,0.45,"2018-01-14","premarket","2018-Jan-30","2018-01-24","34.67","2018-01-24",0.06,0.03
"GM",1.32,1.52,1.11,"2018-01-14","premarket","2018-Feb-06","2018-01-24","43.5","2018-01-24",0.31,0.41
"GOOGL",10.12,10.92,9.14,"2018-01-15","after_hours","2018-Feb-01","2018-01-25","1184.98","2018-01-24",0.18,1.78
"GPRO",-0.13,0.07,-0.33,"2018-01-15","after_hours","2018-Feb-01","2018-01-25","N/A","N/A",3.08,0.4
"GRUB",0.24,0.3,0.19,"2018-01-14","premarket","2018-Feb-08","2018-01-24","71.63","2018-01-24",0.46,0.11
"HCA",1.86,1.95,1.8,"2018-01-14","premarket","2018-Jan-30","2018-01-24","92.06","2018-01-24",0.08,0.15
"HES",-0.93,-0.78,-1.07,"2018-01-14","premarket","2018-Feb-05","2018-01-24","53.55","2018-01-24",0.31,0.29
"HIG",0.74,0.84,0.66,"2018-01-15","after_hours","2018-Feb-08","2018-01-25","56.82","2018-01-24",0.24,0.18
"HOG",0.46,0.54,0.34,"2018-01-14","premarket","2018-Jan-30","2018-01-24","54.25","2018-01-24",0.43,0.2
"HON",1.84,1.85,1.84,"2018-01-14","premarket","2018-Jan-26","2018-01-24","36.71","2009-08-13",0.01,0.01
"HSY",1.06,1.08,1.03,"2018-01-14","premarket","2018-Feb-01","2018-01-24","110.4","2018-01-24",0.05,0.05
"HUM",2,2.06,1.95,"2018-01-14","premarket","2018-Feb-07","2018-01-24","283.89","2018-01-24",0.06,0.11
"ILMN",1.22,1.33,1.18,"2018-01-15","after_hours","2018-Jan-30","2018-01-25","243.12","2018-01-24",0.12,0.15
"INFN",-0.21,-0.2,-0.22,"2018-01-15","after_hours","2018-Feb-07","2018-01-25","6.81","2018-01-24",0.1,0.02
"INTC",0.86,0.89,0.86,"2018-01-15","after_hours","2018-Jan-25","2018-01-25","45.9","2018-01-24",0.03,0.03
"IP",1.19,1.22,1.17,"2018-01-14","premarket","2018-Feb-01","2018-01-24","20.349998","2009-08-13",0.04,0.05
"IRBT",0.25,0.3,0.21,"2018-01-15","after_hours","2018-Feb-07","2018-01-25","91.64","2018-01-24",0.36,0.09
"ISRG",1.95,1.99,1.9,"2018-01-15","after_hours","2018-Jan-25","2018-01-25","441.74","2018-01-24",0.05,0.09
"JNPR",0.42,0.45,0.38,"2018-01-15","after_hours","2018-Jan-30","2018-01-25","28.3","2018-01-24",0.17,0.07
"KGC",0.04,0.06,0.03,"2018-01-15","after_hours","2018-Feb-14","2018-01-25","N/A","N/A",0.75,0.03
"LITE",1,1.11,0.93,"2018-01-14","premarket","2018-Feb-06","2018-01-24","N/A","N/A",0.18,0.18
"LLY",1.08,1.11,1.06,"2018-01-14","premarket","2018-Jan-31","2018-01-24","40.06","2012-01-18",0.05,0.05
"LMT",4.06,4.17,3.93,"2018-01-14","premarket","2018-Jan-29","2018-01-24","255.24","2016-08-23",0.06,0.24
"LUV",0.76,0.86,0.72,"2018-01-14","premarket","2018-Jan-25","2018-01-24","62.63","2018-01-24",0.18,0.14
"LYB",2.5,2.7,2.3,"2018-01-14","premarket","2018-Feb-02","2018-01-24","119.18","2018-01-24",0.16,0.4
"MA",1.12,1.17,1.05,"2018-01-14","premarket","2018-Feb-01","2018-01-24","167.94","2018-01-24",0.11,0.12
"MAR",1,1.03,0.99,"2018-01-15","after_hours","2018-Feb-14","2018-01-25","146.12","2018-01-24",0.04,0.04
"MAT",0.2,0.26,0.12,"2018-01-15","after_hours","2018-Feb-01","2018-01-25","17.59","2018-01-24",0.7,0.14
"MCD",1.59,1.64,1.53,"2018-01-14","premarket","2018-Jan-30","2018-01-24","56.45","2009-08-13",0.07,0.11
"MCK",2.91,3.05,2.8,"2018-01-14","premarket","2018-Feb-01","2018-01-24","173.14","2018-01-24",0.09,0.25
"MDLZ",0.56,0.59,0.52,"2018-01-15","after_hours","2018-Jan-31","2018-01-25","44.59","2018-01-24",0.12,0.07
"MET",1.1,1.12,1.07,"2018-01-15","after_hours","2018-Jan-31","2018-01-25","54.12","2018-01-24",0.05,0.05
"MMM",2.03,2.11,1.97,"2018-01-14","premarket","2018-Jan-25","2018-01-24","72.28","2009-08-13",0.07,0.14
"MO",0.8,0.82,0.79,"2018-01-14","premarket","2018-Feb-01","2018-01-24","17.66","2009-08-13",0.04,0.03
"MPC",1,1.24,0.92,"2018-01-14","premarket","2018-Feb-01","2018-01-24","73.37","2018-01-24",0.32,0.32
"MRK",0.94,0.96,0.92,"2018-01-14","premarket","2018-Feb-02","2018-01-24","30.73","2009-08-13",0.04,0.04
"MRO",0.02,0.15,-0.07,"2018-01-15","after_hours","2018-Feb-14","2018-01-25","30.77","2009-08-13",11.0,0.22
"MSFT",0.86,0.91,0.84,"2018-01-15","after_hours","2018-Jan-31","2018-01-25","92.55","2018-01-24",0.08,0.07
"NOC",2.75,2.9,2.52,"2018-01-14","premarket","2018-Jan-25","2018-01-24","313.45","2018-01-24",0.14,0.38
"NOK",0.11,0.14,0.08,"2018-01-14","premarket","2018-Feb-01","2018-01-24","N/A","N/A",0.55,0.06
"NOV",-0.04,-0.02,-0.07,"2018-01-15","after_hours","2018-Feb-05","2018-01-25","38.69","2018-01-24",1.25,0.05
"NOW",-0.06,-0.01,-0.11,"2018-01-15","after_hours","2018-Jan-31","2018-01-25","144.42","2018-01-24",1.67,0.1
"NTES",1.52,1.55,1.49,"2018-01-15","after_hours","2018-Feb-07","2018-01-25","N/A","N/A",0.04,0.06
"NTR",0.42,0.42,0.42,"2018-01-15","after_hours","2018-Feb-05","2018-01-25","N/A","N/A",0.0,0.0
"NUE",0.55,0.56,0.53,"2018-01-14","premarket","2018-Jan-30","2018-01-24","69.47","2018-01-24",0.05,0.03
"NXPI",1.61,1.71,1.59,"2018-01-15","after_hours","2018-Feb-07","2018-01-25","N/A","N/A",0.07,0.12
"OCLR",0.11,0.16,0.09,"2018-01-15","after_hours","2018-Feb-05","2018-01-25","6.29","2018-01-24",0.64,0.07
"OLN",0.42,0.45,0.38,"2018-01-15","after_hours","2018-Feb-06","2018-01-25","36.94","2018-01-24",0.17,0.07
"OXY",0.38,0.49,0.21,"2018-01-15","after_hours","2018-Feb-13","2018-01-25","77.76","2018-01-24",0.74,0.28
"PAA",0.41,0.51,0.32,"2018-01-15","after_hours","2018-Feb-06","2018-01-25","N/A","N/A",0.46,0.19
"PCG",0.72,0.8,0.67,"2018-01-14","premarket","2018-Feb-09","2018-01-24","41.58","2012-01-18",0.18,0.13
"PEP",1.3,1.31,1.29,"2018-01-14","premarket","2018-Feb-13","2018-01-24","64.67","2012-01-18",0.02,0.02
"PFE",0.56,0.57,0.53,"2018-01-14","premarket","2018-Jan-30","2018-01-24","21.95","2012-01-18",0.07,0.04
"PHM",0.84,0.9,0.79,"2018-01-14","premarket","2018-Jan-30","2018-01-24","34.95","2018-01-24",0.13,0.11
"PM",1.36,1.39,1.32,"2018-01-14","premarket","2018-Feb-08","2018-01-24","109.56","2018-01-24",0.05,0.07
"PSX",0.96,1.63,0.8,"2018-01-14","premarket","2018-Feb-02","2018-01-24","107.22","2018-01-24",0.86,0.83
"PXD",0.76,1.16,0.49,"2018-01-15","after_hours","2018-Feb-06","2018-01-25","184.88","2018-01-24",0.88,0.67
"PYPL",0.38,0.42,0.37,"2018-01-15","after_hours","2018-Jan-31","2018-01-25","84.52","2018-01-24",0.13,0.05
"QCOM",0.77,0.78,0.76,"2018-01-15","after_hours","2018-Jan-31","2018-01-25","68.2","2018-01-24",0.03,0.02
"RACE",0.67,0.74,0.6,"2018-01-14","premarket","2018-Feb-01","2018-01-24","N/A","N/A",0.21,0.14
"REGN",4.18,4.38,3.97,"2018-01-14","premarket","2018-Feb-08","2018-01-24","383.1","2018-01-24",0.1,0.41
"RL",1.84,1.95,1.74,"2018-01-14","premarket","2018-Feb-01","2018-01-24","116.18","2018-01-24",0.11,0.21
"S",-0.04,0.02,-0.12,"2018-01-14","premarket","2018-Feb-02","2018-01-24","5.31","2018-01-24",3.5,0.14
"SBUX",0.57,0.58,0.55,"2018-01-15","after_hours","2018-Jan-25","2018-01-25","61.51","2018-01-24",0.05,0.03
"SHPG",3.86,3.99,3.72,"2018-01-14","premarket","2018-Feb-14","2018-01-24","N/A","N/A",0.07,0.27
"SIRI",0.05,0.05,0.04,"2018-01-14","premarket","2018-Jan-31","2018-01-24","5.73","2018-01-24",0.2,0.01
"SNAP",-0.33,-0.3,-0.39,"2018-01-15","after_hours","2018-Feb-06","2018-01-25","N/A","N/A",0.27,0.09
"SNE",0.89,0.89,0.89,"2018-01-14","premarket","2018-Feb-02","2018-01-24","N/A","N/A",0.0,0.0
"SPGI",1.63,1.75,1.54,"2018-01-14","premarket","2018-Feb-06","2018-01-24","183.16","2018-01-24",0.13,0.21
"SPWR",-0.09,-0.09,-0.09,"2018-01-15","after_hours","2018-Feb-14","2018-01-25","8.17","2018-01-24",0.0,0.0
"STX",1.39,1.5,1.32,"2018-01-14","premarket","2018-Jan-29","2018-01-24","54.04","2018-01-24",0.13,0.18
"SU",0.54,0.65,0.35,"2018-01-15","after_hours","2018-Feb-07","2018-01-25","N/A","N/A",0.56,0.3
"SWKS",1.78,1.8,1.74,"2018-01-15","after_hours","2018-Feb-05","2018-01-25","99.13","2018-01-24",0.03,0.06
"SYMC",0.29,0.37,0.22,"2018-01-15","after_hours","2018-Jan-31","2018-01-25","26.74","2018-01-24",0.52,0.15
"SYNA",0.69,0.7,0.68,"2018-01-15","after_hours","2018-Feb-07","2018-01-25","43.8","2018-01-24",0.03,0.02
"SYY",0.65,0.66,0.63,"2018-01-14","premarket","2018-Feb-05","2018-01-24","32.03","2012-12-20",0.05,0.03
"T",0.65,0.68,0.62,"2018-01-15","after_hours","2018-Jan-31","2018-01-25","37.29","2018-01-24",0.09,0.06
"TAP",0.57,0.63,0.5,"2018-01-14","premarket","2018-Feb-14","2018-01-24","83.58","2018-01-24",0.23,0.13
"TECK",1.02,1.26,0.81,"2018-01-14","premarket","2018-Feb-14","2018-01-24","N/A","N/A",0.44,0.45
"TEVA",0.77,0.81,0.74,"2018-01-14","premarket","2018-Feb-08","2018-01-24","N/A","N/A",0.09,0.07
"TPR",0.86,0.9,0.85,"2018-01-14","premarket","2018-Feb-06","2018-01-24","47.73","2018-01-24",0.06,0.05
"TSCO",0.87,0.92,0.84,"2018-01-15","after_hours","2018-Jan-31","2018-01-25","81.0","2018-01-24",0.09,0.08
"TSN",1.51,1.54,1.48,"2018-01-14","premarket","2018-Feb-08","2018-01-24","81.45","2018-01-24",0.04,0.06
"TTWO",0.84,1.07,0.67,"2018-01-15","after_hours","2018-Feb-07","2018-01-25","117.34","2018-01-24",0.48,0.4
"TWLO",-0.18,-0.16,-0.21,"2018-01-15","after_hours","2018-Feb-13","2018-01-25","N/A","N/A",0.28,0.05
"TWTR",0.06,0.15,0,"2018-01-14","premarket","2018-Feb-08","2018-01-24","22.84","2018-01-24",2.5,0.15
"TWX",1.45,1.49,1.37,"2018-01-14","premarket","2018-Feb-01","2018-01-24","93.89","2018-01-24",0.08,0.12
"UA",0,0,0,"2018-01-14","premarket","2018-Feb-13","2018-01-24","13.61","2018-01-24",NaN,0.0
"UAA",0.01,0.03,-0.01,"2018-01-14","premarket","2018-Feb-13","2018-01-24","14.89","2018-01-24",4.0,0.04
"UNP",1.54,1.56,1.5,"2018-01-14","premarket","2018-Jan-25","2018-01-24","141.42","2018-01-24",0.04,0.06
"UPS",1.65,1.72,1.62,"2018-01-14","premarket","2018-Feb-01","2018-01-24","132.51","2018-01-24",0.06,0.1
"V",0.98,1.04,0.97,"2018-01-15","after_hours","2018-Feb-01","2018-01-25","125.05","2018-01-24",0.07,0.07
"VIAB",0.97,1.08,0.91,"2018-01-14","premarket","2018-Feb-08","2018-01-24","33.48","2018-01-24",0.18,0.17
"VLO",1.12,1.53,0.94,"2018-01-14","premarket","2018-Feb-01","2018-01-24","99.93","2018-01-24",0.53,0.59
"VRTX",0.29,0.62,0.17,"2018-01-15","after_hours","2018-Jan-31","2018-01-25","167.08","2018-01-24",1.55,0.45
"WDC",3.44,3.51,3.33,"2018-01-15","after_hours","2018-Jan-25","2018-01-25","87.7","2018-01-24",0.05,0.18
"WFT",-0.21,-0.2,-0.23,"2018-01-14","premarket","2018-Feb-02","2018-01-24","N/A","N/A",0.14,0.03
"WY",0.35,0.37,0.33,"2018-01-14","premarket","2018-Feb-02","2018-01-24","27.42","2012-12-17",0.11,0.04
"X",0.68,0.88,0.52,"2018-01-15","after_hours","2018-Jan-31","2018-01-25","40.4","2018-01-24",0.53,0.36
"XOM",1.06,1.17,0.99,"2018-01-14","premarket","2018-Feb-02","2018-01-24","69.22","2009-08-13",0.17,0.18
"YUM",0.8,0.85,0.74,"2018-01-14","premarket","2018-Feb-08","2018-01-24","85.97","2018-01-24",0.14,0.11
"ZNGA",0.01,0.02,0,"2018-01-15","after_hours","2018-Feb-07","2018-01-25","3.74","2018-01-24",2.0,0.02
