"_Symbol","consensusEstimate","highEstimate","lowEstimate","LongTradeDate","TimeOfAnnouncement","EarningsDate","ShortTrade","ClosePrice","CloseDate","dispersionScore","delta"
"AA",1.23,1.49,0.98,"2018-01-06","after_hours","2018-Jan-17","2018-01-16","57.05","2018-01-12",0.41,0.51
"AAL",0.89,0.95,0.64,"2018-01-05","premarket","2018-Jan-25","2018-01-15","56.56","2018-01-12",0.35,0.31
"AAPL",3.75,3.83,3.68,"2018-01-06","after_hours","2018-Feb-01","2018-01-16","176.18","2018-01-12",0.04,0.15
"ABBV",1.43,1.46,1.42,"2018-01-05","premarket","2018-Jan-26","2018-01-15","99.34","2018-01-12",0.03,0.04
"ABT",0.73,0.74,0.71,"2018-01-05","premarket","2018-Jan-24","2018-01-15","58.96","2018-01-12",0.04,0.03
"ADP",0.89,0.92,0.86,"2018-01-05","premarket","2018-Jan-31","2018-01-15","117.81","2018-01-12",0.07,0.06
"AET",1.18,1.29,1.12,"2018-01-05","premarket","2018-Jan-30","2018-01-15","120.31","2016-08-23",0.14,0.17
"AFL",1.55,1.6,1.5,"2018-01-06","after_hours","2018-Jan-31","2018-01-16","91.0","2018-01-12",0.06,0.1
"AGNC",0.62,0.64,0.6,"2018-01-06","after_hours","2018-Jan-31","2018-01-16","19.78","2018-01-12",0.06,0.04
"AKS",-0.14,-0.09,-0.19,"2018-01-05","premarket","2018-Jan-30","2018-01-15","6.46","2018-01-12",0.71,0.1
"ALGN",0.96,1.1,0.93,"2018-01-06","after_hours","2018-Jan-30","2018-01-16","254.1","2018-01-12",0.18,0.17
"AMD",0.02,0.04,0.01,"2018-01-06","after_hours","2018-Jan-30","2018-01-16","11.82","2018-01-12",1.5,0.03
"AMGN",3.04,3.18,2.92,"2018-01-06","after_hours","2018-Feb-01","2018-01-16","182.34","2018-01-12",0.09,0.26
"AMTD",0.51,0.53,0.48,"2018-01-06","after_hours","2018-Jan-22","2018-01-16","54.1","2018-01-12",0.1,0.05
"ANTM",1.25,1.3,1.16,"2018-01-05","premarket","2018-Jan-31","2018-01-15","239.13","2018-01-12",0.11,0.14
"ATHN",0.46,0.6,0.41,"2018-01-06","after_hours","2018-Feb-01","2018-01-16","132.57","2018-01-12",0.41,0.19
"AXP",1.54,1.56,1.47,"2018-01-06","after_hours","2018-Jan-18","2018-01-16","50.13","2012-01-18",0.06,0.09
"AZN",0.42,0.53,0.34,"2018-01-05","premarket","2018-Feb-02","2018-01-15","N/A","N/A",0.45,0.19
"BA",2.89,3.06,2.79,"2018-01-05","premarket","2018-Jan-31","2018-01-15","30.3","2001-09-21",0.09,0.27
"BABA",1.45,1.64,1.26,"2018-01-05","premarket","2018-Feb-01","2018-01-15","N/A","N/A",0.26,0.38
"BAC",0.44,0.48,0.41,"2018-01-05","premarket","2018-Jan-17","2018-01-15","30.88","2018-01-12",0.16,0.07
"BAX",0.58,0.6,0.57,"2018-01-05","premarket","2018-Feb-01","2018-01-15","68.62","2018-01-12",0.05,0.03
"BIIB",5.45,6.06,4.8,"2018-01-05","premarket","2018-Jan-25","2018-01-15","333.31","2018-01-12",0.23,1.26
"BK",0.91,0.93,0.89,"2018-01-05","premarket","2018-Jan-18","2018-01-15","24.87","2012-12-17",0.04,0.04
"BMY",0.67,0.7,0.63,"2018-01-05","premarket","2018-Feb-05","2018-01-15","33.73","2012-01-18",0.1,0.07
"BSX",0.34,0.35,0.31,"2018-01-05","premarket","2018-Feb-01","2018-01-15","27.46","2018-01-12",0.12,0.04
"BX",0.69,0.78,0.65,"2018-01-05","premarket","2018-Feb-01","2018-01-15","N/A","N/A",0.19,0.13
"C",1.19,1.24,1.15,"2018-01-05","premarket","2018-Jan-16","2018-01-15","46.9","2016-08-23",0.08,0.09
"CAT",1.75,1.92,1.53,"2018-01-05","premarket","2018-Jan-25","2018-01-15","44.1","2001-09-21",0.22,0.39
"CELG",1.75,1.84,1.71,"2018-01-05","premarket","2018-Jan-25","2018-01-15","104.76","2018-01-12",0.07,0.13
"CHTR",0.89,1.3,0.48,"2018-01-05","premarket","2018-Feb-02","2018-01-15","357.39","2018-01-12",0.92,0.82
"CI",1.87,1.9,1.79,"2018-01-05","premarket","2018-Feb-01","2018-01-15","212.96","2018-01-12",0.06,0.11
"CL",0.75,0.76,0.74,"2018-01-05","premarket","2018-Jan-26","2018-01-15","74.48","2016-08-23",0.03,0.02
"CLF",0.17,0.23,0.14,"2018-01-05","premarket","2018-Jan-25","2018-01-15","8.63","2018-01-12",0.53,0.09
"CMCSA",0.47,0.53,0.45,"2018-01-05","premarket","2018-Jan-24","2018-01-15","42.57","2018-01-12",0.17,0.08
"CME",1.11,1.16,1.09,"2018-01-05","premarket","2018-Feb-01","2018-01-15","153.02","2018-01-12",0.06,0.07
"COF",1.85,1.95,1.77,"2018-01-06","after_hours","2018-Jan-23","2018-01-16","104.92","2018-01-12",0.1,0.18
"COP",0.42,0.77,0.17,"2018-01-05","premarket","2018-Feb-01","2018-01-15","59.39","2018-01-12",1.43,0.6
"CREE",-0.1,-0.1,-0.1,"2018-01-06","after_hours","2018-Jan-23","2018-01-16","36.63","2018-01-12",0.0,0.0
"CRUS",1.63,1.63,1.61,"2018-01-06","after_hours","2018-Feb-05","2018-01-16","52.21","2018-01-12",0.01,0.02
"CSX",0.56,0.58,0.54,"2018-01-06","after_hours","2018-Jan-16","2018-01-16","58.63","2018-01-12",0.07,0.04
"CVX",1.27,1.58,1.13,"2018-01-05","premarket","2018-Feb-02","2018-01-15","69.06","2009-08-13",0.35,0.45
"DATA",-0.44,-0.35,-0.49,"2018-01-06","after_hours","2018-Feb-01","2018-01-16","73.8","2018-01-12",0.32,0.14
"DFS",1.53,1.57,1.46,"2018-01-06","after_hours","2018-Jan-24","2018-01-16","80.86","2018-01-12",0.07,0.11
"DHI",0.63,0.78,0.58,"2018-01-05","premarket","2018-Jan-31","2018-01-15","52.24","2018-01-12",0.32,0.2
"DWDP",0.67,0.69,0.58,"2018-01-05","premarket","2018-Feb-01","2018-01-15","75.57","2018-01-12",0.16,0.11
"EA",2.07,2.17,1.98,"2018-01-06","after_hours","2018-Jan-30","2018-01-16","110.49","2018-01-12",0.09,0.19
"EBAY",0.5,0.51,0.48,"2018-01-06","after_hours","2018-Jan-31","2018-01-16","38.0","2018-01-12",0.06,0.03
"EPD",0.35,0.37,0.32,"2018-01-05","premarket","2018-Jan-31","2018-01-15","N/A","N/A",0.14,0.05
"ETFC",0.62,0.64,0.6,"2018-01-06","after_hours","2018-Jan-25","2018-01-16","53.35","2018-01-12",0.06,0.04
"ETN",1.24,1.26,1.21,"2018-01-05","premarket","2018-Feb-01","2018-01-15","48.85","2012-01-18",0.04,0.05
"EW",0.9,0.93,0.89,"2018-01-06","after_hours","2018-Feb-01","2018-01-16","120.0","2018-01-12",0.04,0.04
"F",0.44,0.46,0.41,"2018-01-06","after_hours","2018-Jan-24","2018-01-16","N/A","N/A",0.11,0.05
"FB",1.94,2.1,1.66,"2018-01-06","after_hours","2018-Jan-31","2018-01-16","178.06","2018-01-12",0.23,0.44
"FCX",0.44,0.5,0.33,"2018-01-05","premarket","2018-Jan-25","2018-01-15","19.94","2018-01-12",0.39,0.17
"FFIV",1.56,1.65,1.48,"2018-01-06","after_hours","2018-Jan-24","2018-01-16","140.07","2018-01-12",0.11,0.17
"FLEX",0.23,0.24,0.23,"2018-01-06","after_hours","2018-Jan-25","2018-01-16","N/A","N/A",0.04,0.01
"GD",2.38,2.53,2.32,"2018-01-05","premarket","2018-Jan-24","2018-01-15","153.0","2016-08-23",0.09,0.21
"GE",0.29,0.32,0.27,"2018-01-05","premarket","2018-Jan-24","2018-01-15","29.0","2001-09-21",0.17,0.05
"GLW",0.47,0.48,0.45,"2018-01-05","premarket","2018-Jan-30","2018-01-15","33.8","2018-01-12",0.06,0.03
"GOOGL",10.12,10.92,9.14,"2018-01-06","after_hours","2018-Feb-01","2018-01-16","1110.1","2018-01-12",0.18,1.78
"GS",4.9,5,4.71,"2018-01-05","premarket","2018-Jan-17","2018-01-15","255.75","2018-01-12",0.06,0.29
"GWW",2.18,2.33,2.04,"2018-01-05","premarket","2018-Jan-24","2018-01-15","238.51","2018-01-12",0.13,0.29
"HAL",0.46,0.48,0.45,"2018-01-05","premarket","2018-Jan-22","2018-01-15","33.91","2012-01-18",0.07,0.03
"HES",-1.02,-0.86,-1.49,"2018-01-05","premarket","2018-Feb-05","2018-01-15","54.6","2018-01-12",0.62,0.63
"HOG",0.48,0.53,0.38,"2018-01-05","premarket","2018-Jan-30","2018-01-15","53.63","2018-01-12",0.31,0.15
"HON",1.84,1.85,1.84,"2018-01-05","premarket","2018-Jan-26","2018-01-15","36.71","2009-08-13",0.01,0.01
"IBM",5.17,5.23,5.11,"2018-01-06","after_hours","2018-Jan-18","2018-01-16","90.6","2001-09-21",0.02,0.12
"INTC",0.86,0.87,0.86,"2018-01-06","after_hours","2018-Jan-25","2018-01-16","43.45","2018-01-12",0.01,0.01
"IP",1.19,1.22,1.17,"2018-01-05","premarket","2018-Feb-01","2018-01-15","20.349998","2009-08-13",0.04,0.05
"ISRG",1.91,1.97,1.85,"2018-01-06","after_hours","2018-Jan-25","2018-01-16","419.13","2018-01-12",0.06,0.12
"ITW",1.62,1.65,1.58,"2018-01-05","premarket","2018-Jan-24","2018-01-15","169.41","2018-01-12",0.04,0.07
"JNJ",1.72,1.74,1.69,"2018-01-05","premarket","2018-Jan-23","2018-01-15","60.69","2009-08-13",0.03,0.05
"JNPR",0.42,0.45,0.38,"2018-01-06","after_hours","2018-Jan-30","2018-01-16","28.86","2018-01-12",0.17,0.07
"KEY",0.36,0.38,0.34,"2018-01-05","premarket","2018-Jan-18","2018-01-15","21.36","2018-01-12",0.11,0.04
"KMB",1.55,1.57,1.53,"2018-01-05","premarket","2018-Jan-23","2018-01-15","112.88","2018-01-12",0.03,0.04
"KMI",0.18,0.2,0.14,"2018-01-06","after_hours","2018-Jan-17","2018-01-16","19.24","2018-01-12",0.33,0.06
"KSU",1.36,1.41,1.32,"2018-01-05","premarket","2018-Jan-19","2018-01-15","107.53","2018-01-12",0.07,0.09
"LLY",1.08,1.11,1.06,"2018-01-05","premarket","2018-Jan-31","2018-01-15","40.06","2012-01-18",0.05,0.05
"LMT",4.06,4.17,3.93,"2018-01-05","premarket","2018-Jan-29","2018-01-15","255.24","2016-08-23",0.06,0.24
"LRCX",3.67,3.75,3.65,"2018-01-06","after_hours","2018-Jan-24","2018-01-16","189.12","2018-01-12",0.03,0.1
"LUV",0.76,0.86,0.72,"2018-01-05","premarket","2018-Jan-25","2018-01-15","65.21","2018-01-12",0.18,0.14
"LYB",2.49,2.7,2.3,"2018-01-05","premarket","2018-Feb-02","2018-01-15","117.65","2018-01-12",0.16,0.4
"MA",1.12,1.17,1.05,"2018-01-05","premarket","2018-Feb-01","2018-01-15","161.5","2018-01-12",0.11,0.12
"MCD",1.59,1.64,1.53,"2018-01-05","premarket","2018-Jan-30","2018-01-15","56.45","2009-08-13",0.07,0.11
"MCK",2.89,3.05,2.77,"2018-01-05","premarket","2018-Feb-01","2018-01-15","163.37","2018-01-12",0.1,0.28
"MET",1.09,1.12,0.98,"2018-01-06","after_hours","2018-Jan-31","2018-01-16","53.71","2018-01-12",0.13,0.14
"MMM",2.02,2.11,1.97,"2018-01-05","premarket","2018-Jan-25","2018-01-15","72.28","2009-08-13",0.07,0.14
"MPC",1.04,1.27,0.93,"2018-01-05","premarket","2018-Feb-01","2018-01-15","70.47","2018-01-12",0.33,0.34
"MRK",0.94,0.95,0.92,"2018-01-05","premarket","2018-Feb-02","2018-01-15","30.73","2009-08-13",0.03,0.03
"MS",0.77,0.79,0.72,"2018-01-05","premarket","2018-Jan-18","2018-01-15","54.57","2018-01-12",0.09,0.07
"MSFT",0.86,0.91,0.84,"2018-01-06","after_hours","2018-Jan-31","2018-01-16","88.67","2018-01-12",0.08,0.07
"NFLX",0.41,0.43,0.39,"2018-01-06","after_hours","2018-Jan-22","2018-01-16","217.18","2018-01-12",0.1,0.04
"NOC",2.75,2.9,2.52,"2018-01-05","premarket","2018-Jan-25","2018-01-15","310.0","2018-01-12",0.14,0.38
"NOK",0.11,0.14,0.08,"2018-01-05","premarket","2018-Feb-01","2018-01-15","N/A","N/A",0.55,0.06
"NOV",-0.04,-0.02,-0.07,"2018-01-06","after_hours","2018-Feb-05","2018-01-16","38.95","2018-01-12",1.25,0.05
"NOW",-0.06,-0.01,-0.11,"2018-01-06","after_hours","2018-Jan-31","2018-01-16","137.64","2018-01-12",1.67,0.1
"NSC",1.56,1.62,1.44,"2018-01-05","premarket","2018-Jan-24","2018-01-15","155.28","2018-01-12",0.12,0.18
"NTR",0.42,0.42,0.42,"2018-01-06","after_hours","2018-Feb-05","2018-01-16","N/A","N/A",0.0,0.0
"NUE",0.58,0.76,0.53,"2018-01-05","premarket","2018-Jan-30","2018-01-15","70.15","2018-01-12",0.4,0.23
"PFE",0.56,0.57,0.53,"2018-01-05","premarket","2018-Jan-30","2018-01-15","21.95","2012-01-18",0.07,0.04
"PG",1.14,1.16,1.12,"2018-01-05","premarket","2018-Jan-23","2018-01-15","52.29","2009-08-13",0.04,0.04
"PHM",0.84,0.9,0.79,"2018-01-05","premarket","2018-Jan-30","2018-01-15","34.6","2018-01-12",0.13,0.11
"PSX",1.14,1.63,0.8,"2018-01-05","premarket","2018-Feb-02","2018-01-15","102.54","2018-01-12",0.73,0.83
"QCOM",0.77,0.78,0.76,"2018-01-06","after_hours","2018-Jan-31","2018-01-16","65.61","2018-01-12",0.03,0.02
"RL",1.82,1.85,1.74,"2018-01-05","premarket","2018-Feb-01","2018-01-15","105.93","2018-01-12",0.06,0.11
"SBUX",0.57,0.58,0.55,"2018-01-06","after_hours","2018-Jan-25","2018-01-16","60.4","2018-01-12",0.05,0.03
"SCHW",0.41,0.43,0.39,"2018-01-05","premarket","2018-Jan-17","2018-01-15","54.66","2018-01-12",0.1,0.04
"SLB",0.44,0.46,0.42,"2018-01-05","premarket","2018-Jan-19","2018-01-15","77.37","2018-01-12",0.09,0.04
"STX",1.32,1.5,1.09,"2018-01-05","premarket","2018-Jan-29","2018-01-15","49.12","2018-01-12",0.31,0.41
"SWKS",1.78,1.8,1.74,"2018-01-06","after_hours","2018-Feb-05","2018-01-16","100.2","2018-01-12",0.03,0.06
"SYF",0.63,0.66,0.61,"2018-01-05","premarket","2018-Jan-19","2018-01-15","40.04","2018-01-12",0.08,0.05
"SYMC",0.29,0.37,0.22,"2018-01-06","after_hours","2018-Jan-31","2018-01-16","29.46","2018-01-12",0.52,0.15
"T",0.65,0.68,0.62,"2018-01-06","after_hours","2018-Jan-31","2018-01-16","36.48","2018-01-12",0.09,0.06
"TSCO",0.87,0.91,0.84,"2018-01-06","after_hours","2018-Jan-31","2018-01-16","78.54","2018-01-12",0.08,0.07
"TWX",1.45,1.49,1.37,"2018-01-05","premarket","2018-Feb-01","2018-01-15","91.81","2018-01-12",0.08,0.12
"TXN",1.09,1.12,1.07,"2018-01-06","after_hours","2018-Jan-23","2018-01-16","31.97","2012-01-18",0.05,0.05
"UAL",1.34,1.4,1.29,"2018-01-06","after_hours","2018-Jan-23","2018-01-16","76.74","2018-01-12",0.08,0.11
"UNH",2.5,2.54,2.46,"2018-01-05","premarket","2018-Jan-16","2018-01-15","227.45","2018-01-12",0.03,0.08
"UNP",1.54,1.56,1.5,"2018-01-05","premarket","2018-Jan-25","2018-01-15","140.8","2018-01-12",0.04,0.06
"UPS",1.65,1.72,1.62,"2018-01-05","premarket","2018-Feb-01","2018-01-15","133.45","2018-01-12",0.06,0.1
"URI",3.28,3.54,3.13,"2018-01-06","after_hours","2018-Jan-24","2018-01-16","180.6","2018-01-12",0.13,0.41
"USB",0.87,0.89,0.84,"2018-01-05","premarket","2018-Jan-17","2018-01-15","56.96","2018-01-12",0.06,0.05
"UTX",1.56,1.62,1.54,"2018-01-05","premarket","2018-Jan-24","2018-01-15","58.08","2009-08-13",0.05,0.08
"V",0.97,0.99,0.92,"2018-01-06","after_hours","2018-Feb-01","2018-01-16","120.12","2018-01-12",0.07,0.07
"VLO",1.22,1.53,1.02,"2018-01-05","premarket","2018-Feb-01","2018-01-15","94.91","2018-01-12",0.42,0.51
"VRTX",0.28,0.62,0.17,"2018-01-06","after_hours","2018-Jan-31","2018-01-16","157.16","2018-01-12",1.61,0.45
"VZ",0.88,0.97,0.81,"2018-01-05","premarket","2018-Jan-23","2018-01-15","51.94","2018-01-12",0.18,0.16
"WDC",3.44,3.51,3.33,"2018-01-06","after_hours","2018-Jan-25","2018-01-16","82.68","2018-01-12",0.05,0.18
"WFT",-0.21,-0.19,-0.23,"2018-01-05","premarket","2018-Feb-02","2018-01-15","N/A","N/A",0.19,0.04
"WHR",4.01,4.13,3.95,"2018-01-06","after_hours","2018-Jan-24","2018-01-16","169.81","2018-01-12",0.04,0.18
"WY",0.35,0.37,0.33,"2018-01-05","premarket","2018-Feb-02","2018-01-15","27.42","2012-12-17",0.11,0.04
"X",0.67,0.88,0.52,"2018-01-06","after_hours","2018-Jan-31","2018-01-16","39.5","2018-01-12",0.54,0.36
"XLNX",0.63,0.65,0.63,"2018-01-06","after_hours","2018-Jan-24","2018-01-16","74.61","2018-01-12",0.03,0.02
"XOM",1.04,1.17,0.9,"2018-01-05","premarket","2018-Feb-02","2018-01-15","69.22","2009-08-13",0.26,0.27
