"Date","VIX / VXV","VIX / CM45","Front Month Roll","Daily Roll","VIX / VXV (smoothed)","VIX / CM45 (smoothed)","Front Month Roll (smoothed)","Daily Roll (smoothed)"
"2017-09-29","0.761","0.764","0.9","-0.115","0.765","0.774","0.929","-0.099"
"2017-10-02","0.765","0.743","0.894","-0.119","0.765","0.774","0.923","-0.11"
"2017-10-03","0.773","0.744","0.894","-0.126","0.765","0.774","0.919","-0.11"
"2017-10-04","0.778","0.75","0.887","-0.123","0.765","0.764","0.908","-0.115"
"2017-10-05","0.755","0.735","0.867","-0.124","0.765","0.76","0.9","-0.117"
"2017-10-06","0.776","0.768","0.868","-0.1","0.765","0.75","0.894","-0.119"
"2017-10-09","0.811","0.813","0.955","-0.061","0.765","0.75","0.894","-0.123"
"2017-10-10","0.808","0.81","0.946","-0.062","0.773","0.75","0.887","-0.123"
"2017-10-11","0.805","0.799","0.948","-0.067","0.776","0.75","0.887","-0.123"
"2017-10-12","0.808","0.809","0.944","-0.064","0.778","0.768","0.887","-0.1"
"2017-10-13","0.802","0.798","0.94","-0.068","0.805","0.799","0.946","-0.067"
"2017-10-16","0.83","0.832","0.944","-0.059","0.808","0.809","0.946","-0.064"
"2017-10-17","0.856","0.864","0.947","-0.048","0.808","0.809","0.946","-0.064"
"2017-10-18","0.845","0.849","0.943","-0.055","0.808","0.809","0.944","-0.064"
"2017-10-19","0.84","0.853","0.943","-0.054","0.808","0.809","0.944","-0.064"
"2017-10-20","0.841","0.853","0.934","-0.053","0.83","0.832","0.944","-0.059"
"2017-10-23","0.882","0.912","0.944","-0.032","0.84","0.849","0.943","-0.055"
"2017-10-24","0.881","0.911","0.951","-0.035","0.841","0.853","0.943","-0.054"
"2017-10-25","0.867","0.912","0.952","-0.037","0.845","0.853","0.943","-0.053"
"2017-10-26","0.874","0.909","0.954","-0.04","0.845","0.853","0.943","-0.053"
"2017-10-27","0.801","0.824","0.936","-0.086","0.867","0.911","0.944","-0.037"
