"Date","VIX / VXV","VIX / CM45","Front Month Roll","Daily Roll","VIX / VXV (smoothed)","VIX / CM45 (smoothed)","Front Month Roll (smoothed)","Daily Roll (smoothed)"
"2017-12-19","0.802","0.863","0.926","-0.044","0.795","0.816","0.92","-0.056"
"2017-12-20","0.786","0.826","0.927","-0.061","0.795","0.819","0.922","-0.056"
"2017-12-21","0.779","0.828","0.914","-0.059","0.795","0.826","0.925","-0.056"
"2017-12-22","0.793","0.839","0.923","-0.058","0.79","0.826","0.925","-0.059"
"2017-12-26","0.812","0.866","0.92","-0.049","0.79","0.828","0.925","-0.059"
"2017-12-27","0.828","0.883","0.92","-0.041","0.79","0.828","0.925","-0.059"
"2017-12-28","0.798","0.862","0.916","-0.053","0.793","0.839","0.923","-0.058"
"2017-12-29","0.843","0.916","0.917","-0.022","0.793","0.839","0.92","-0.058"
"2018-01-02","0.775","0.812","0.908","-0.075","0.798","0.862","0.92","-0.053"
"2018-01-03","0.743","0.769","0.903","-0.111","0.798","0.862","0.92","-0.053"
"2018-01-04","0.753","0.773","0.895","-0.106","0.798","0.862","0.917","-0.053"
"2018-01-05","0.765","0.779","0.894","-0.107","0.798","0.862","0.916","-0.053"
"2018-01-08","0.784","0.806","0.933","-0.058","0.775","0.812","0.908","-0.075"
"2018-01-09","0.812","0.846","0.938","-0.047","0.765","0.779","0.903","-0.106"
"2018-01-10","0.794","0.837","0.931","-0.049","0.765","0.779","0.903","-0.106"
"2018-01-11","0.812","0.841","0.94","-0.049","0.765","0.779","0.903","-0.106"
"2018-01-12","0.833","0.856","0.941","-0.046","0.784","0.806","0.931","-0.058"
"2018-01-16","0.881","0.947","0.952","-0.015","0.794","0.837","0.933","-0.049"
"2018-01-17","0.899","0.97","0.963","-0.007","0.812","0.841","0.938","-0.049"
"2018-01-18","0.9","0.989","0.947","0.005","0.812","0.846","0.94","-0.047"
"2018-01-19","0.864","0.925","0.951","-0.025","0.833","0.856","0.941","-0.046"
