"_Symbol","consensusEstimate","highEstimate","lowEstimate","LongTradeDate","TimeOfAnnouncement","EarningsDate","ShortTrade","ClosePrice","CloseDate","dispersionScore","delta"
"CALM",0.5,0.5,0.5,"2017-12-15","premarket","2018-Jan-05","2017-12-25","44.9","2017-12-22",0.0,0.0
"JPM",1.7,1.75,1.66,"2017-12-15","premarket","2018-Jan-12","2017-12-25","108.13","2017-12-22",0.05,0.09
"MON",0.38,0.46,0.31,"2017-12-15","premarket","2018-Jan-04","2017-12-25","115.47","2017-12-22",0.39,0.15
"RAD",-0.02,-0.02,-0.02,"2017-12-16","after_hours","2018-Jan-03","2017-12-26","2.025","2017-12-22",0.0,0.0
"WBA",1.27,1.36,1.2,"2017-12-15","premarket","2018-Jan-04","2017-12-25","73.11","2017-12-22",0.13,0.16
"WFC",1.05,1.17,1.01,"2017-12-15","premarket","2018-Jan-12","2017-12-25","29.61","2012-01-18",0.15,0.16
