"FCX",0.49,0.57,0.41,"2018-01-13","premarket","2018-01-25","2018-01-23","19.6","2018-01-23",0.33,0.16
"HOG",0.46,0.54,0.34,"2018-01-13","premarket","2018-01-30","2018-01-23","54.0","2018-01-23",0.43,0.2
"DHI",0.63,0.78,0.58,"2018-01-13","premarket","2018-01-31","2018-01-23","52.52","2018-01-23",0.32,0.2
"NOW",-0.06,-0.01,-0.11,"2018-01-14","after_hours","2018-01-31","2018-01-24","144.59","2018-01-23",1.67,0.1
"SYMC",0.29,0.37,0.22,"2018-01-14","after_hours","2018-01-31","2018-01-24","26.54","2018-01-23",0.52,0.15
"VRTX",0.29,0.62,0.17,"2018-01-14","after_hours","2018-01-31","2018-01-24","163.7","2018-01-23",1.55,0.45
"X",0.68,0.88,0.52,"2018-01-14","after_hours","2018-01-31","2018-01-24","39.31","2018-01-23",0.53,0.36
"COP",0.45,0.77,0.21,"2018-01-13","premarket","2018-02-01","2018-01-23","60.61","2018-01-23",1.24,0.56
"MPC",1,1.24,0.92,"2018-01-13","premarket","2018-02-01","2018-01-23","73.31","2018-01-23",0.32,0.32
"VLO",1.12,1.53,0.94,"2018-01-13","premarket","2018-02-01","2018-01-23","99.31","2018-01-23",0.53,0.59
"AMZN",1.85,2.33,1.21,"2018-01-14","after_hours","2018-02-01","2018-01-24","1338.09","2018-01-23",0.61,1.12
"ATHN",0.46,0.6,0.41,"2018-01-14","after_hours","2018-02-01","2018-01-24","128.64","2018-01-23",0.41,0.19
"DATA",-0.45,-0.35,-0.5,"2018-01-14","after_hours","2018-02-01","2018-01-24","74.11","2018-01-23",0.33,0.15
"MAT",0.2,0.26,0.12,"2018-01-14","after_hours","2018-02-01","2018-01-24","16.09","2018-01-23",0.7,0.14
"CHTR",0.85,1.3,0.37,"2018-01-13","premarket","2018-02-02","2018-01-23","367.81","2018-01-23",1.09,0.93
"CVX",1.33,1.58,1.13,"2018-01-13","premarket","2018-02-02","2018-01-23","69.06","2009-08-13",0.34,0.45
"PSX",0.96,1.63,0.8,"2018-01-13","premarket","2018-02-02","2018-01-23","106.9","2018-01-23",0.86,0.83
"HES",-0.93,-0.78,-1.07,"2018-01-13","premarket","2018-02-05","2018-01-23","53.92","2018-01-23",0.31,0.29
"NOV",-0.04,-0.02,-0.07,"2018-01-14","after_hours","2018-02-05","2018-01-24","38.82","2018-01-23",1.25,0.05
"GM",1.32,1.52,1.11,"2018-01-13","premarket","2018-02-06","2018-01-23","43.34","2018-01-23",0.31,0.41
"APC",-0.01,0.37,-0.17,"2018-01-14","after_hours","2018-02-06","2018-01-24","60.85","2018-01-23",54.0,0.54
"CMG",1.35,1.53,1.05,"2018-01-14","after_hours","2018-02-06","2018-01-24","330.0","2018-01-23",0.36,0.48
"GILD",1.65,1.94,1.22,"2018-01-14","after_hours","2018-02-06","2018-01-24","81.23","2018-01-23",0.44,0.72
"PXD",0.76,1.16,0.49,"2018-01-14","after_hours","2018-02-06","2018-01-24","186.79","2018-01-23",0.88,0.67
"FOXA",0.45,0.53,0.36,"2018-01-14","after_hours","2018-02-07","2018-01-24","37.0","2018-01-23",0.38,0.17
"IRBT",0.25,0.3,0.21,"2018-01-14","after_hours","2018-02-07","2018-01-24","90.0","2018-01-23",0.36,0.09
"TTWO",0.84,1.07,0.67,"2018-01-14","after_hours","2018-02-07","2018-01-24","118.33","2018-01-23",0.48,0.4
"ALXN",1.09,1.34,1,"2018-01-13","premarket","2018-02-08","2018-01-23","123.43","2018-01-23",0.31,0.34
"GRUB",0.24,0.3,0.19,"2018-01-13","premarket","2018-02-08","2018-01-23","71.85","2018-01-23",0.46,0.11
"TWTR",0.06,0.15,0,"2018-01-13","premarket","2018-02-08","2018-01-23","22.51","2018-01-23",2.5,0.15
"AIG",0.87,1.22,0.6,"2018-01-14","after_hours","2018-02-08","2018-01-24","60.85","2018-01-23",0.71,0.62
"EXPE",0.94,1.03,0.79,"2018-01-14","after_hours","2018-02-08","2018-01-24","128.19","2018-01-23",0.26,0.24
"OXY",0.38,0.49,0.21,"2018-01-14","after_hours","2018-02-13","2018-01-24","77.45","2018-01-23",0.74,0.28
