"Date","VIX / VXV","VIX / CM45","Front Month Roll","Daily Roll","VIX / VXV (smoothed)","VIX / CM45 (smoothed)","Front Month Roll (smoothed)","Daily Roll (smoothed)"
"2017-10-10","0.808","0.81","0.946","-0.062","0.773","0.75","0.887","-0.123"
"2017-10-11","0.805","0.799","0.948","-0.067","0.776","0.75","0.887","-0.123"
"2017-10-12","0.808","0.809","0.944","-0.064","0.778","0.768","0.887","-0.1"
"2017-10-13","0.802","0.798","0.94","-0.068","0.805","0.799","0.946","-0.067"
"2017-10-16","0.83","0.832","0.944","-0.059","0.808","0.809","0.946","-0.064"
"2017-10-17","0.856","0.864","0.947","-0.048","0.808","0.809","0.946","-0.064"
"2017-10-18","0.845","0.849","0.943","-0.055","0.808","0.809","0.944","-0.064"
"2017-10-19","0.84","0.853","0.943","-0.054","0.808","0.809","0.944","-0.064"
"2017-10-20","0.841","0.853","0.934","-0.053","0.83","0.832","0.944","-0.059"
"2017-10-23","0.882","0.912","0.944","-0.032","0.84","0.849","0.943","-0.055"
"2017-10-24","0.881","0.911","0.951","-0.035","0.841","0.853","0.943","-0.054"
"2017-10-25","0.867","0.912","0.952","-0.037","0.845","0.853","0.943","-0.053"
"2017-10-26","0.874","0.909","0.954","-0.04","0.845","0.853","0.943","-0.053"
"2017-10-27","0.801","0.824","0.937","-0.087","0.867","0.911","0.944","-0.037"
"2017-10-30","0.835","0.872","0.942","-0.068","0.867","0.911","0.951","-0.037"
"2017-10-31","0.822","0.857","0.925","-0.073","0.867","0.911","0.951","-0.037"
"2017-11-01","0.811","0.851","0.931","-0.086","0.867","0.909","0.951","-0.04"
"2017-11-02","0.783","0.832","0.91","-0.094","0.835","0.872","0.942","-0.068"
"2017-11-03","0.736","0.765","0.89","-0.151","0.822","0.857","0.937","-0.073"
"2017-11-06","0.748","0.772","0.91","-0.062","0.811","0.851","0.931","-0.086"
"2017-11-07","0.775","0.799","0.912","-0.057","0.811","0.851","0.925","-0.086"
