"AA",1.23,1.49,0.98,"2018-01-06","after_hours","2018-Jan-17","2018-01-16","57.05","2018-01-12",0.41,0.51
"AAL",0.89,0.95,0.64,"2018-01-05","premarket","2018-Jan-25","2018-01-15","56.56","2018-01-12",0.35,0.31
"ATHN",0.46,0.6,0.41,"2018-01-06","after_hours","2018-Feb-01","2018-01-16","132.57","2018-01-12",0.41,0.19
"CHTR",0.89,1.3,0.48,"2018-01-05","premarket","2018-Feb-02","2018-01-15","357.39","2018-01-12",0.92,0.82
"COP",0.42,0.77,0.17,"2018-01-05","premarket","2018-Feb-01","2018-01-15","59.39","2018-01-12",1.43,0.6
"CVX",1.27,1.58,1.13,"2018-01-05","premarket","2018-Feb-02","2018-01-15","69.06","2009-08-13",0.35,0.45
"DATA",-0.44,-0.35,-0.49,"2018-01-06","after_hours","2018-Feb-01","2018-01-16","73.8","2018-01-12",0.32,0.14
"DHI",0.63,0.78,0.58,"2018-01-05","premarket","2018-Jan-31","2018-01-15","52.24","2018-01-12",0.32,0.2
"FCX",0.44,0.5,0.33,"2018-01-05","premarket","2018-Jan-25","2018-01-15","19.94","2018-01-12",0.39,0.17
"HES",-1.02,-0.86,-1.49,"2018-01-05","premarket","2018-Feb-05","2018-01-15","54.6","2018-01-12",0.62,0.63
"HOG",0.48,0.53,0.38,"2018-01-05","premarket","2018-Jan-30","2018-01-15","53.63","2018-01-12",0.31,0.15
"KMI",0.18,0.2,0.14,"2018-01-06","after_hours","2018-Jan-17","2018-01-16","19.24","2018-01-12",0.33,0.06
"MPC",1.04,1.27,0.93,"2018-01-05","premarket","2018-Feb-01","2018-01-15","70.47","2018-01-12",0.33,0.34
"NOV",-0.04,-0.02,-0.07,"2018-01-06","after_hours","2018-Feb-05","2018-01-16","38.95","2018-01-12",1.25,0.05
"NOW",-0.06,-0.01,-0.11,"2018-01-06","after_hours","2018-Jan-31","2018-01-16","137.64","2018-01-12",1.67,0.1
"NUE",0.58,0.76,0.53,"2018-01-05","premarket","2018-Jan-30","2018-01-15","70.15","2018-01-12",0.4,0.23
"PSX",1.14,1.63,0.8,"2018-01-05","premarket","2018-Feb-02","2018-01-15","102.54","2018-01-12",0.73,0.83
"STX",1.32,1.5,1.09,"2018-01-05","premarket","2018-Jan-29","2018-01-15","49.12","2018-01-12",0.31,0.41
"SYMC",0.29,0.37,0.22,"2018-01-06","after_hours","2018-Jan-31","2018-01-16","29.46","2018-01-12",0.52,0.15
"VLO",1.22,1.53,1.02,"2018-01-05","premarket","2018-Feb-01","2018-01-15","94.91","2018-01-12",0.42,0.51
"VRTX",0.28,0.62,0.17,"2018-01-06","after_hours","2018-Jan-31","2018-01-16","157.16","2018-01-12",1.61,0.45
"X",0.67,0.88,0.52,"2018-01-06","after_hours","2018-Jan-31","2018-01-16","39.5","2018-01-12",0.54,0.36
"XOM",1.04,1.17,0.9,"2018-01-05","premarket","2018-Feb-02","2018-01-15","69.22","2009-08-13",0.26,0.27
