"_Symbol","consensusEstimate","highEstimate","lowEstimate","LongTradeDate","TimeOfAnnouncement","EarningsDate","ShortTrade","ClosePrice","CloseDate","dispersionScore","delta"
"AA",1.23,1.49,0.98,"2018-01-07","after_hours","2018-Jan-17","2018-01-17","56.09","2018-01-16",0.41,0.51
"AAL",0.89,0.95,0.64,"2018-01-06","premarket","2018-Jan-25","2018-01-16","58.79","2018-01-16",0.35,0.31
"AAPL",3.75,3.83,3.68,"2018-01-07","after_hours","2018-Feb-01","2018-01-17","177.9","2018-01-16",0.04,0.15
"ABBV",1.43,1.46,1.42,"2018-01-06","premarket","2018-Jan-26","2018-01-16","100.26","2018-01-16",0.03,0.04
"ABC",1.35,1.39,1.23,"2018-01-06","premarket","2018-Feb-06","2018-01-16","99.1","2018-01-16",0.12,0.16
"ABT",0.73,0.74,0.71,"2018-01-06","premarket","2018-Jan-24","2018-01-16","58.891","2018-01-16",0.04,0.03
"ADM",0.71,0.75,0.68,"2018-01-06","premarket","2018-Feb-06","2018-01-16","40.58","2018-01-16",0.1,0.07
"ADP",0.89,0.92,0.86,"2018-01-06","premarket","2018-Jan-31","2018-01-16","118.52","2018-01-16",0.07,0.06
"AET",1.18,1.29,1.12,"2018-01-06","premarket","2018-Jan-30","2018-01-16","120.31","2016-08-23",0.14,0.17
"AFL",1.55,1.6,1.5,"2018-01-07","after_hours","2018-Jan-31","2018-01-17","84.99","2018-01-16",0.06,0.1
"AGN",4.73,4.86,4.51,"2018-01-06","premarket","2018-Feb-06","2018-01-16","176.96","2018-01-16",0.07,0.35
"AGNC",0.62,0.64,0.6,"2018-01-07","after_hours","2018-Jan-31","2018-01-17","19.6","2018-01-16",0.06,0.04
"AKAM",0.45,0.47,0.43,"2018-01-07","after_hours","2018-Feb-06","2018-01-17","65.53","2018-01-16",0.09,0.04
"AKS",-0.14,-0.09,-0.19,"2018-01-06","premarket","2018-Jan-30","2018-01-16","6.22","2018-01-16",0.71,0.1
"ALGN",0.96,1.1,0.93,"2018-01-07","after_hours","2018-Jan-30","2018-01-17","262.12","2018-01-16",0.18,0.17
"AMD",0.02,0.04,0.01,"2018-01-07","after_hours","2018-Jan-30","2018-01-17","12.05","2018-01-16",1.5,0.03
"AMGN",3.04,3.18,2.92,"2018-01-07","after_hours","2018-Feb-01","2018-01-17","185.62","2018-01-16",0.09,0.26
"AMTD",0.51,0.53,0.48,"2018-01-07","after_hours","2018-Jan-22","2018-01-17","54.8","2018-01-16",0.1,0.05
"ANTM",1.25,1.3,1.16,"2018-01-06","premarket","2018-Jan-31","2018-01-16","241.2","2018-01-16",0.11,0.14
"APC",-0.05,0.37,-0.21,"2018-01-07","after_hours","2018-Feb-06","2018-01-17","58.94","2018-01-16",11.6,0.58
"ATHN",0.46,0.6,0.41,"2018-01-07","after_hours","2018-Feb-01","2018-01-17","129.94","2018-01-16",0.41,0.19
"AXP",1.54,1.56,1.47,"2018-01-07","after_hours","2018-Jan-18","2018-01-17","50.13","2012-01-18",0.06,0.09
"AZN",0.42,0.53,0.34,"2018-01-06","premarket","2018-Feb-02","2018-01-16","N/A","N/A",0.45,0.19
"BA",2.89,3.06,2.79,"2018-01-06","premarket","2018-Jan-31","2018-01-16","30.3","2001-09-21",0.09,0.27
"BABA",1.45,1.64,1.26,"2018-01-06","premarket","2018-Feb-01","2018-01-16","N/A","N/A",0.26,0.38
"BAC",0.44,0.48,0.41,"2018-01-06","premarket","2018-Jan-17","2018-01-16","31.74","2018-01-16",0.16,0.07
"BAX",0.58,0.6,0.57,"2018-01-06","premarket","2018-Feb-01","2018-01-16","68.5","2018-01-16",0.05,0.03
"BIIB",5.44,6.06,4.8,"2018-01-06","premarket","2018-Jan-25","2018-01-16","337.63","2018-01-16",0.23,1.26
"BK",0.91,0.93,0.89,"2018-01-06","premarket","2018-Jan-18","2018-01-16","24.87","2012-12-17",0.04,0.04
"BMY",0.67,0.7,0.63,"2018-01-06","premarket","2018-Feb-05","2018-01-16","33.73","2012-01-18",0.1,0.07
"BP",0,0,0,"2018-01-06","premarket","2018-Feb-06","2018-01-16","34.08","2016-08-23",NaN,0.0
"BSX",0.34,0.35,0.31,"2018-01-06","premarket","2018-Feb-01","2018-01-16","27.48","2018-01-16",0.12,0.04
"BX",0.69,0.78,0.65,"2018-01-06","premarket","2018-Feb-01","2018-01-16","N/A","N/A",0.19,0.13
"CAT",1.73,1.89,1.53,"2018-01-06","premarket","2018-Jan-25","2018-01-16","44.1","2001-09-21",0.21,0.36
"CELG",1.77,1.84,1.72,"2018-01-06","premarket","2018-Jan-25","2018-01-16","106.72","2018-01-16",0.07,0.12
"CHTR",0.89,1.3,0.48,"2018-01-06","premarket","2018-Feb-02","2018-01-16","352.18","2018-01-16",0.92,0.82
"CI",1.87,1.9,1.79,"2018-01-06","premarket","2018-Feb-01","2018-01-16","215.07","2018-01-16",0.06,0.11
"CL",0.75,0.76,0.74,"2018-01-06","premarket","2018-Jan-26","2018-01-16","74.48","2016-08-23",0.03,0.02
"CLF",0.17,0.23,0.14,"2018-01-06","premarket","2018-Jan-25","2018-01-16","8.54","2018-01-16",0.53,0.09
"CMCSA",0.47,0.53,0.45,"2018-01-06","premarket","2018-Jan-24","2018-01-16","42.59","2018-01-16",0.17,0.08
"CME",1.1,1.11,1.09,"2018-01-06","premarket","2018-Feb-01","2018-01-16","154.14","2018-01-16",0.02,0.02
"CMG",1.35,1.53,1.05,"2018-01-07","after_hours","2018-Feb-06","2018-01-17","329.33","2018-01-16",0.36,0.48
"CMI",2.62,3,2.47,"2018-01-06","premarket","2018-Feb-06","2018-01-16","184.81","2018-01-16",0.2,0.53
"COF",1.85,1.96,1.77,"2018-01-07","after_hours","2018-Jan-23","2018-01-17","106.0","2018-01-16",0.1,0.19
"COP",0.42,0.77,0.17,"2018-01-06","premarket","2018-Feb-01","2018-01-16","60.0","2018-01-16",1.43,0.6
"CREE",-0.1,-0.1,-0.1,"2018-01-07","after_hours","2018-Jan-23","2018-01-17","37.24","2018-01-16",0.0,0.0
"CRUS",1.63,1.63,1.61,"2018-01-07","after_hours","2018-Feb-05","2018-01-17","53.41","2018-01-16",0.01,0.02
"CVX",1.27,1.58,1.13,"2018-01-06","premarket","2018-Feb-02","2018-01-16","69.06","2009-08-13",0.35,0.45
"DATA",-0.44,-0.35,-0.49,"2018-01-07","after_hours","2018-Feb-01","2018-01-17","75.19","2018-01-16",0.32,0.14
"DFS",1.53,1.57,1.46,"2018-01-07","after_hours","2018-Jan-24","2018-01-17","81.0","2018-01-16",0.07,0.11
"DHI",0.63,0.78,0.58,"2018-01-06","premarket","2018-Jan-31","2018-01-16","52.0","2018-01-16",0.32,0.2
"DIS",1.59,1.68,1.5,"2018-01-07","after_hours","2018-Feb-06","2018-01-17","18.2","2001-09-21",0.11,0.18
"DWDP",0.67,0.69,0.58,"2018-01-06","premarket","2018-Feb-01","2018-01-16","75.76","2018-01-16",0.16,0.11
"EA",2.07,2.17,1.98,"2018-01-07","after_hours","2018-Jan-30","2018-01-17","114.0","2018-01-16",0.09,0.19
"EBAY",0.5,0.51,0.48,"2018-01-07","after_hours","2018-Jan-31","2018-01-17","38.07","2018-01-16",0.06,0.03
"EMR",0.54,0.58,0.51,"2018-01-06","premarket","2018-Feb-06","2018-01-16","49.25","2012-01-18",0.13,0.07
"EPD",0.35,0.37,0.32,"2018-01-06","premarket","2018-Jan-31","2018-01-16","N/A","N/A",0.14,0.05
"ETFC",0.62,0.64,0.6,"2018-01-07","after_hours","2018-Jan-25","2018-01-17","54.41","2018-01-16",0.06,0.04
"ETN",1.24,1.26,1.21,"2018-01-06","premarket","2018-Feb-01","2018-01-16","48.85","2012-01-18",0.04,0.05
"EW",0.9,0.93,0.89,"2018-01-07","after_hours","2018-Feb-01","2018-01-17","121.36","2018-01-16",0.04,0.04
"F",0.44,0.46,0.41,"2018-01-07","after_hours","2018-Jan-24","2018-01-17","12.03","2012-01-18",0.11,0.05
"FB",1.94,2.1,1.66,"2018-01-07","after_hours","2018-Jan-31","2018-01-17","181.5","2018-01-16",0.23,0.44
"FCX",0.45,0.51,0.33,"2018-01-06","premarket","2018-Jan-25","2018-01-16","19.5","2018-01-16",0.4,0.18
"FFIV",1.56,1.65,1.48,"2018-01-07","after_hours","2018-Jan-24","2018-01-17","141.79","2018-01-16",0.11,0.17
"FLEX",0.23,0.24,0.23,"2018-01-07","after_hours","2018-Jan-25","2018-01-17","N/A","N/A",0.04,0.01
"GD",2.38,2.53,2.32,"2018-01-06","premarket","2018-Jan-24","2018-01-16","153.0","2016-08-23",0.09,0.21
"GE",0.29,0.32,0.27,"2018-01-06","premarket","2018-Jan-24","2018-01-16","29.0","2001-09-21",0.17,0.05
"GILD",1.67,2.04,1.22,"2018-01-07","after_hours","2018-Feb-06","2018-01-17","79.75","2018-01-16",0.49,0.82
"GLW",0.47,0.48,0.45,"2018-01-06","premarket","2018-Jan-30","2018-01-16","34.7","2018-01-16",0.06,0.03
"GM",1.29,1.41,1.11,"2018-01-06","premarket","2018-Feb-06","2018-01-16","45.1","2018-01-16",0.23,0.3
"GOOGL",10.12,10.92,9.14,"2018-01-07","after_hours","2018-Feb-01","2018-01-17","1140.31","2018-01-16",0.18,1.78
"GS",4.9,5,4.71,"2018-01-06","premarket","2018-Jan-17","2018-01-16","259.25","2018-01-16",0.06,0.29
"GWW",2.18,2.33,2.04,"2018-01-06","premarket","2018-Jan-24","2018-01-16","237.17","2018-01-16",0.13,0.29
"HAL",0.46,0.48,0.45,"2018-01-06","premarket","2018-Jan-22","2018-01-16","33.91","2012-01-18",0.07,0.03
"HES",-1.02,-0.86,-1.49,"2018-01-06","premarket","2018-Feb-05","2018-01-16","54.67","2018-01-16",0.62,0.63
"HOG",0.48,0.53,0.38,"2018-01-06","premarket","2018-Jan-30","2018-01-16","53.81","2018-01-16",0.31,0.15
"HON",1.84,1.85,1.84,"2018-01-06","premarket","2018-Jan-26","2018-01-16","36.71","2009-08-13",0.01,0.01
"IBM",5.17,5.23,5.11,"2018-01-07","after_hours","2018-Jan-18","2018-01-17","90.6","2001-09-21",0.02,0.12
"ILMN",1.19,1.25,1.16,"2018-01-07","after_hours","2018-Jan-30","2018-01-17","247.33","2018-01-16",0.08,0.09
"INTC",0.86,0.87,0.86,"2018-01-07","after_hours","2018-Jan-25","2018-01-17","43.55","2018-01-16",0.01,0.01
"IP",1.19,1.22,1.17,"2018-01-06","premarket","2018-Feb-01","2018-01-16","20.349998","2009-08-13",0.04,0.05
"ISRG",1.95,1.99,1.9,"2018-01-07","after_hours","2018-Jan-25","2018-01-17","422.0","2018-01-16",0.05,0.09
"ITW",1.62,1.65,1.58,"2018-01-06","premarket","2018-Jan-24","2018-01-16","171.42","2018-01-16",0.04,0.07
"JNJ",1.72,1.74,1.69,"2018-01-06","premarket","2018-Jan-23","2018-01-16","60.69","2009-08-13",0.03,0.05
"JNPR",0.42,0.45,0.38,"2018-01-07","after_hours","2018-Jan-30","2018-01-17","28.98","2018-01-16",0.17,0.07
"KEY",0.36,0.38,0.34,"2018-01-06","premarket","2018-Jan-18","2018-01-16","21.54","2018-01-16",0.11,0.04
"KMB",1.55,1.56,1.53,"2018-01-06","premarket","2018-Jan-23","2018-01-16","113.66","2018-01-16",0.02,0.03
"KMI",0.18,0.2,0.14,"2018-01-07","after_hours","2018-Jan-17","2018-01-17","19.67","2018-01-16",0.33,0.06
"KSU",1.36,1.41,1.32,"2018-01-06","premarket","2018-Jan-19","2018-01-16","111.02","2018-01-16",0.07,0.09
"LITE",1,1.06,0.93,"2018-01-06","premarket","2018-Feb-06","2018-01-16","N/A","N/A",0.13,0.13
"LLY",1.08,1.11,1.06,"2018-01-06","premarket","2018-Jan-31","2018-01-16","40.06","2012-01-18",0.05,0.05
"LMT",4.06,4.17,3.93,"2018-01-06","premarket","2018-Jan-29","2018-01-16","255.24","2016-08-23",0.06,0.24
"LRCX",3.67,3.75,3.65,"2018-01-07","after_hours","2018-Jan-24","2018-01-17","192.18","2018-01-16",0.03,0.1
"LUV",0.76,0.86,0.72,"2018-01-06","premarket","2018-Jan-25","2018-01-16","65.51","2018-01-16",0.18,0.14
"LYB",2.49,2.7,2.3,"2018-01-06","premarket","2018-Feb-02","2018-01-16","117.97","2018-01-16",0.16,0.4
"MA",1.12,1.17,1.05,"2018-01-06","premarket","2018-Feb-01","2018-01-16","163.64","2018-01-16",0.11,0.12
"MCD",1.59,1.64,1.53,"2018-01-06","premarket","2018-Jan-30","2018-01-16","56.45","2009-08-13",0.07,0.11
"MCK",2.89,3.05,2.77,"2018-01-06","premarket","2018-Feb-01","2018-01-16","166.9","2018-01-16",0.1,0.28
"MET",1.08,1.12,0.98,"2018-01-07","after_hours","2018-Jan-31","2018-01-17","53.34","2018-01-16",0.13,0.14
"MMM",2.02,2.11,1.97,"2018-01-06","premarket","2018-Jan-25","2018-01-16","72.28","2009-08-13",0.07,0.14
"MPC",1,1.24,0.93,"2018-01-06","premarket","2018-Feb-01","2018-01-16","71.6","2018-01-16",0.31,0.31
"MRK",0.94,0.95,0.92,"2018-01-06","premarket","2018-Feb-02","2018-01-16","30.73","2009-08-13",0.03,0.03
"MS",0.77,0.79,0.72,"2018-01-06","premarket","2018-Jan-18","2018-01-16","55.65","2018-01-16",0.09,0.07
"MSFT",0.86,0.91,0.84,"2018-01-07","after_hours","2018-Jan-31","2018-01-17","90.1","2018-01-16",0.08,0.07
"NFLX",0.41,0.43,0.39,"2018-01-07","after_hours","2018-Jan-22","2018-01-17","224.24","2018-01-16",0.1,0.04
"NOC",2.75,2.9,2.52,"2018-01-06","premarket","2018-Jan-25","2018-01-16","317.42","2018-01-16",0.14,0.38
"NOK",0.11,0.14,0.08,"2018-01-06","premarket","2018-Feb-01","2018-01-16","N/A","N/A",0.55,0.06
"NOV",-0.04,-0.02,-0.07,"2018-01-07","after_hours","2018-Feb-05","2018-01-17","39.15","2018-01-16",1.25,0.05
"NOW",-0.06,-0.01,-0.11,"2018-01-07","after_hours","2018-Jan-31","2018-01-17","141.32","2018-01-16",1.67,0.1
"NSC",1.56,1.62,1.44,"2018-01-06","premarket","2018-Jan-24","2018-01-16","154.88","2018-01-16",0.12,0.18
"NTR",0.42,0.42,0.42,"2018-01-07","after_hours","2018-Feb-05","2018-01-17","N/A","N/A",0.0,0.0
"NUE",0.58,0.76,0.53,"2018-01-06","premarket","2018-Jan-30","2018-01-16","69.07","2018-01-16",0.4,0.23
"PAA",0.41,0.51,0.32,"2018-01-07","after_hours","2018-Feb-06","2018-01-17","N/A","N/A",0.46,0.19
"PFE",0.56,0.57,0.53,"2018-01-06","premarket","2018-Jan-30","2018-01-16","21.95","2012-01-18",0.07,0.04
"PG",1.14,1.16,1.12,"2018-01-06","premarket","2018-Jan-23","2018-01-16","52.29","2009-08-13",0.04,0.04
"PHM",0.84,0.9,0.79,"2018-01-06","premarket","2018-Jan-30","2018-01-16","34.6","2018-01-16",0.13,0.11
"PSX",1.08,1.63,0.8,"2018-01-06","premarket","2018-Feb-02","2018-01-16","104.54","2018-01-16",0.77,0.83
"PXD",0.75,1.16,0.49,"2018-01-07","after_hours","2018-Feb-06","2018-01-17","186.5","2018-01-16",0.89,0.67
"QCOM",0.77,0.78,0.76,"2018-01-07","after_hours","2018-Jan-31","2018-01-17","66.23","2018-01-16",0.03,0.02
"RL",1.82,1.85,1.74,"2018-01-06","premarket","2018-Feb-01","2018-01-16","107.03","2018-01-16",0.06,0.11
"SBUX",0.57,0.58,0.55,"2018-01-07","after_hours","2018-Jan-25","2018-01-17","60.33","2018-01-16",0.05,0.03
"SCHW",0.41,0.43,0.39,"2018-01-06","premarket","2018-Jan-17","2018-01-16","55.73","2018-01-16",0.1,0.04
"SLB",0.44,0.46,0.42,"2018-01-06","premarket","2018-Jan-19","2018-01-16","77.75","2018-01-16",0.09,0.04
"SNAP",-0.32,-0.2,-0.39,"2018-01-07","after_hours","2018-Feb-06","2018-01-17","N/A","N/A",0.59,0.19
"STX",1.32,1.5,1.09,"2018-01-06","premarket","2018-Jan-29","2018-01-16","50.77","2018-01-16",0.31,0.41
"SWKS",1.78,1.8,1.74,"2018-01-07","after_hours","2018-Feb-05","2018-01-17","102.2","2018-01-16",0.03,0.06
"SYF",0.63,0.66,0.61,"2018-01-06","premarket","2018-Jan-19","2018-01-16","39.46","2018-01-16",0.08,0.05
"SYMC",0.29,0.37,0.22,"2018-01-07","after_hours","2018-Jan-31","2018-01-17","28.93","2018-01-16",0.52,0.15
"T",0.65,0.68,0.62,"2018-01-07","after_hours","2018-Jan-31","2018-01-17","36.9","2018-01-16",0.09,0.06
"TPR",0.86,0.9,0.85,"2018-01-06","premarket","2018-Feb-06","2018-01-16","45.75","2018-01-16",0.06,0.05
"TSCO",0.87,0.91,0.84,"2018-01-07","after_hours","2018-Jan-31","2018-01-17","79.97","2018-01-16",0.08,0.07
"TWX",1.45,1.49,1.37,"2018-01-06","premarket","2018-Feb-01","2018-01-16","92.4","2018-01-16",0.08,0.12
"TXN",1.09,1.12,1.07,"2018-01-07","after_hours","2018-Jan-23","2018-01-17","31.97","2012-01-18",0.05,0.05
"UAL",1.34,1.4,1.29,"2018-01-07","after_hours","2018-Jan-23","2018-01-17","78.35","2018-01-16",0.08,0.11
"UNP",1.54,1.56,1.5,"2018-01-06","premarket","2018-Jan-25","2018-01-16","142.07","2018-01-16",0.04,0.06
"UPS",1.65,1.72,1.62,"2018-01-06","premarket","2018-Feb-01","2018-01-16","134.41","2018-01-16",0.06,0.1
"URI",3.28,3.54,3.13,"2018-01-07","after_hours","2018-Jan-24","2018-01-17","181.95","2018-01-16",0.13,0.41
"USB",0.87,0.89,0.84,"2018-01-06","premarket","2018-Jan-17","2018-01-16","57.54","2018-01-16",0.06,0.05
"UTX",1.56,1.62,1.54,"2018-01-06","premarket","2018-Jan-24","2018-01-16","58.08","2009-08-13",0.05,0.08
"V",0.97,0.99,0.92,"2018-01-07","after_hours","2018-Feb-01","2018-01-17","121.18","2018-01-16",0.07,0.07
"VLO",1.17,1.53,1.02,"2018-01-06","premarket","2018-Feb-01","2018-01-16","96.85","2018-01-16",0.44,0.51
"VRTX",0.28,0.62,0.17,"2018-01-07","after_hours","2018-Jan-31","2018-01-17","158.28","2018-01-16",1.61,0.45
"VZ",0.88,0.97,0.81,"2018-01-06","premarket","2018-Jan-23","2018-01-16","51.68","2018-01-16",0.18,0.16
"WDC",3.44,3.51,3.33,"2018-01-07","after_hours","2018-Jan-25","2018-01-17","83.7","2018-01-16",0.05,0.18
"WFT",-0.21,-0.19,-0.23,"2018-01-06","premarket","2018-Feb-02","2018-01-16","N/A","N/A",0.19,0.04
"WHR",4.01,4.13,3.95,"2018-01-07","after_hours","2018-Jan-24","2018-01-17","173.0","2018-01-16",0.04,0.18
"WY",0.35,0.37,0.33,"2018-01-06","premarket","2018-Feb-02","2018-01-16","27.42","2012-12-17",0.11,0.04
"X",0.68,0.88,0.52,"2018-01-07","after_hours","2018-Jan-31","2018-01-17","38.97","2018-01-16",0.53,0.36
"XLNX",0.63,0.65,0.63,"2018-01-07","after_hours","2018-Jan-24","2018-01-17","74.98","2018-01-16",0.03,0.02
"XOM",1.04,1.17,0.9,"2018-01-06","premarket","2018-Feb-02","2018-01-16","69.22","2009-08-13",0.26,0.27
