"AA",1.23,1.49,0.98,"2018-01-07","after_hours","2018-Jan-17","2018-01-17","56.09","2018-01-16",0.41,0.51
"AAL",0.89,0.95,0.64,"2018-01-06","premarket","2018-Jan-25","2018-01-16","58.79","2018-01-16",0.35,0.31
"APC",-0.05,0.37,-0.21,"2018-01-07","after_hours","2018-Feb-06","2018-01-17","58.94","2018-01-16",11.6,0.58
"ATHN",0.46,0.6,0.41,"2018-01-07","after_hours","2018-Feb-01","2018-01-17","129.94","2018-01-16",0.41,0.19
"CHTR",0.89,1.3,0.48,"2018-01-06","premarket","2018-Feb-02","2018-01-16","352.18","2018-01-16",0.92,0.82
"CMG",1.35,1.53,1.05,"2018-01-07","after_hours","2018-Feb-06","2018-01-17","329.33","2018-01-16",0.36,0.48
"COP",0.42,0.77,0.17,"2018-01-06","premarket","2018-Feb-01","2018-01-16","60.0","2018-01-16",1.43,0.6
"CVX",1.27,1.58,1.13,"2018-01-06","premarket","2018-Feb-02","2018-01-16","69.06","2009-08-13",0.35,0.45
"DATA",-0.44,-0.35,-0.49,"2018-01-07","after_hours","2018-Feb-01","2018-01-17","75.19","2018-01-16",0.32,0.14
"DHI",0.63,0.78,0.58,"2018-01-06","premarket","2018-Jan-31","2018-01-16","52.0","2018-01-16",0.32,0.2
"FCX",0.45,0.51,0.33,"2018-01-06","premarket","2018-Jan-25","2018-01-16","19.5","2018-01-16",0.4,0.18
"GILD",1.67,2.04,1.22,"2018-01-07","after_hours","2018-Feb-06","2018-01-17","79.75","2018-01-16",0.49,0.82
"HES",-1.02,-0.86,-1.49,"2018-01-06","premarket","2018-Feb-05","2018-01-16","54.67","2018-01-16",0.62,0.63
"HOG",0.48,0.53,0.38,"2018-01-06","premarket","2018-Jan-30","2018-01-16","53.81","2018-01-16",0.31,0.15
"KMI",0.18,0.2,0.14,"2018-01-07","after_hours","2018-Jan-17","2018-01-17","19.67","2018-01-16",0.33,0.06
"MPC",1,1.24,0.93,"2018-01-06","premarket","2018-Feb-01","2018-01-16","71.6","2018-01-16",0.31,0.31
"NOV",-0.04,-0.02,-0.07,"2018-01-07","after_hours","2018-Feb-05","2018-01-17","39.15","2018-01-16",1.25,0.05
"NOW",-0.06,-0.01,-0.11,"2018-01-07","after_hours","2018-Jan-31","2018-01-17","141.32","2018-01-16",1.67,0.1
"NUE",0.58,0.76,0.53,"2018-01-06","premarket","2018-Jan-30","2018-01-16","69.07","2018-01-16",0.4,0.23
"PSX",1.08,1.63,0.8,"2018-01-06","premarket","2018-Feb-02","2018-01-16","104.54","2018-01-16",0.77,0.83
"PXD",0.75,1.16,0.49,"2018-01-07","after_hours","2018-Feb-06","2018-01-17","186.5","2018-01-16",0.89,0.67
"STX",1.32,1.5,1.09,"2018-01-06","premarket","2018-Jan-29","2018-01-16","50.77","2018-01-16",0.31,0.41
"SYMC",0.29,0.37,0.22,"2018-01-07","after_hours","2018-Jan-31","2018-01-17","28.93","2018-01-16",0.52,0.15
"VLO",1.17,1.53,1.02,"2018-01-06","premarket","2018-Feb-01","2018-01-16","96.85","2018-01-16",0.44,0.51
"VRTX",0.28,0.62,0.17,"2018-01-07","after_hours","2018-Jan-31","2018-01-17","158.28","2018-01-16",1.61,0.45
"X",0.68,0.88,0.52,"2018-01-07","after_hours","2018-Jan-31","2018-01-17","38.97","2018-01-16",0.53,0.36
"XOM",1.04,1.17,0.9,"2018-01-06","premarket","2018-Feb-02","2018-01-16","69.22","2009-08-13",0.26,0.27
