"_Symbol","consensusEstimate","highEstimate","lowEstimate","LongTradeDate","TimeOfAnnouncement","EarningsDate","ShortTrade","ClosePrice","CloseDate","dispersionScore","delta"
"ACN",1.66,1.76,1.61,"2017-11-27","premarket","2017-Dec-21","2017-12-07","148.0","2017-12-07",0.09,0.15
"BB",-0.03,-0.03,-0.04,"2017-11-27","premarket","2017-Dec-20","2017-12-07","N/A","N/A",0.33,0.01
"BBBY",0.37,0.39,0.35,"2017-11-28","after_hours","2017-Dec-20","2017-12-08","28.3","2017-07-25",0.11,0.04
"COST",1.35,1.42,1.24,"2017-11-28","after_hours","2017-Dec-14","2017-12-08","186.51","2017-12-07",0.13,0.18
"FDX",2.86,3.04,2.65,"2017-11-28","after_hours","2017-Dec-19","2017-12-08","231.72","2017-12-01",0.14,0.39
"JBL",0.73,0.73,0.73,"2017-11-28","after_hours","2017-Dec-14","2017-12-08","27.66","2017-12-07",0.0,0.0
"KMX",0.82,0.85,0.78,"2017-11-27","premarket","2017-Dec-21","2017-12-07","66.58","2017-12-07",0.09,0.07
"MU",2.12,2.15,2.05,"2017-11-28","after_hours","2017-Dec-19","2017-12-08","42.18","2017-12-07",0.05,0.1
"NKE",0.39,0.43,0.36,"2017-11-28","after_hours","2017-Dec-21","2017-12-08","59.86","2017-12-07",0.18,0.07
"ORCL",0.62,0.66,0.61,"2017-11-28","after_hours","2017-Dec-14","2017-12-08","48.37","2017-12-07",0.08,0.05
"RAD",-0.02,-0.02,-0.02,"2017-11-27","premarket","2017-Dec-21","2017-12-07","1.79","2017-12-07",0.0,0.0
"RHT",0.5,0.51,0.48,"2017-11-28","after_hours","2017-Dec-19","2017-12-08","122.0","2017-12-07",0.06,0.03
