"Date","VIX / VXV","VIX / CM45","Front Month Roll","Daily Roll","VIX / VXV (smoothed)","VIX / CM45 (smoothed)","Front Month Roll (smoothed)","Daily Roll (smoothed)"
"2017-11-08","0.759","0.791","0.911","-0.06","0.783","0.832","0.91","-0.086"
"2017-11-09","0.799","0.843","0.915","-0.045","0.775","0.802","0.91","-0.086"
"2017-11-10","0.83","0.887","0.912","-0.033","0.775","0.802","0.91","-0.062"
"2017-11-13","0.836","0.886","0.918","-0.035","0.775","0.802","0.911","-0.06"
"2017-11-14","0.832","0.894","0.908","-0.031","0.775","0.802","0.911","-0.056"
"2017-11-15","0.896","0.978","0.919","-0.001","0.799","0.843","0.912","-0.045"
"2017-11-16","0.842","0.904","0.91","-0.028","0.83","0.886","0.912","-0.035"
"2017-11-17","0.828","0.881","0.913","-0.037","0.832","0.887","0.912","-0.033"
"2017-11-20","0.802","0.852","0.899","-0.047","0.832","0.894","0.912","-0.031"
"2017-11-21","0.775","0.803","0.9","-0.066","0.832","0.894","0.912","-0.031"
"2017-11-22","0.794","0.823","0.895","-0.058","0.832","0.894","0.91","-0.031"
"2017-11-24","0.779","0.806","0.889","-0.067","0.828","0.881","0.91","-0.037"
"2017-11-27","0.785","0.818","0.879","-0.062","0.802","0.852","0.9","-0.047"
"2017-11-28","0.817","0.836","0.886","-0.055","0.794","0.823","0.899","-0.058"
"2017-11-29","0.835","0.874","0.886","-0.036","0.794","0.823","0.895","-0.058"
"2017-11-30","0.865","0.907","0.895","-0.02","0.794","0.823","0.889","-0.058"
"2017-12-01","0.861","0.901","0.891","-0.022","0.794","0.823","0.886","-0.058"
"2017-12-04","0.862","0.884","0.905","-0.017","0.817","0.836","0.886","-0.055"
"2017-12-05","0.837","0.858","0.904","-0.038","0.835","0.874","0.886","-0.036"
"2017-12-06","0.819","0.84","0.9","-0.052","0.861","0.884","0.891","-0.022"
"2017-12-07","0.786","0.798","0.884","-0.079","0.861","0.884","0.895","-0.022"
