"HES",-0.93,-0.78,-1.05,"2018-01-25","premarket","2018-02-05","2018-02-04","49.94","2018-02-02",0.29,0.27
"NOV",-0.04,-0.02,-0.07,"2018-01-26","after_hours","2018-02-05","2018-02-05","36.92","2018-02-02",1.25,0.05
"GM",1.34,1.52,1.11,"2018-01-25","premarket","2018-02-06","2018-02-04","42.22","2018-02-02",0.31,0.41
"APC",0.03,0.13,-0.13,"2018-01-26","after_hours","2018-02-06","2018-02-05","60.59","2018-02-02",8.67,0.26
"CMG",1.33,1.53,1.04,"2018-01-26","after_hours","2018-02-06","2018-02-05","313.81","2018-02-02",0.37,0.49
"GILD",1.65,1.94,1.22,"2018-01-26","after_hours","2018-02-06","2018-02-05","82.65","2018-02-02",0.44,0.72
"PXD",0.75,0.91,0.49,"2018-01-26","after_hours","2018-02-06","2018-02-05","184.29","2018-02-02",0.56,0.42
"FOXA",0.41,0.5,0.34,"2018-01-26","after_hours","2018-02-07","2018-02-05","36.78","2018-02-02",0.39,0.16
"IRBT",0.25,0.3,0.21,"2018-01-26","after_hours","2018-02-07","2018-02-05","89.08","2018-02-02",0.36,0.09
"TTWO",0.84,1.07,0.67,"2018-01-26","after_hours","2018-02-07","2018-02-05","123.13","2018-02-02",0.48,0.4
"YELP",0.05,0.09,0.01,"2018-01-26","after_hours","2018-02-07","2018-02-05","45.38","2018-02-02",1.6,0.08
"ALXN",1.09,1.34,1,"2018-01-25","premarket","2018-02-08","2018-02-04","117.42","2018-02-02",0.31,0.34
"GRUB",0.24,0.3,0.19,"2018-01-25","premarket","2018-02-08","2018-02-04","72.05","2018-02-02",0.46,0.11
"TWTR",0.06,0.15,0,"2018-01-25","premarket","2018-02-08","2018-02-04","26.56","2018-02-02",2.5,0.15
"AIG",0.87,1.22,0.6,"2018-01-26","after_hours","2018-02-08","2018-02-05","63.88","2018-02-02",0.71,0.62
"ATVI",0.91,1.01,0.76,"2018-01-26","after_hours","2018-02-08","2018-02-05","72.66","2018-02-02",0.27,0.25
"EXPE",0.93,1.03,0.79,"2018-01-26","after_hours","2018-02-08","2018-02-05","128.35","2018-02-02",0.26,0.24
"PCG",0.69,0.8,0.61,"2018-01-25","premarket","2018-02-09","2018-02-04","41.58","2012-01-18",0.28,0.19
"OXY",0.38,0.49,0.31,"2018-01-26","after_hours","2018-02-13","2018-02-05","75.2","2018-02-02",0.47,0.18
"CTL",0.22,0.31,0.12,"2018-01-26","after_hours","2018-02-14","2018-02-05","17.81","2018-02-02",0.86,0.19
"MRO",0.02,0.09,-0.07,"2018-01-26","after_hours","2018-02-14","2018-02-05","30.77","2009-08-13",8.0,0.16
"WMB",0.2,0.24,0.16,"2018-01-26","after_hours","2018-02-14","2018-02-05","31.38","2018-02-02",0.4,0.08
"AVP",0.06,0.09,0.03,"2018-01-25","premarket","2018-02-15","2018-02-04","17.8","2012-01-18",1.0,0.06
"DE",1.13,1.31,0.88,"2018-01-25","premarket","2018-02-16","2018-02-04","84.89","2012-01-18",0.38,0.43
"MOS",0.27,0.31,0.17,"2018-01-26","after_hours","2018-02-19","2018-02-05","26.72","2018-02-02",0.52,0.14
"MGM",0.07,0.13,-0.05,"2018-01-25","premarket","2018-02-20","2018-02-04","36.32","2018-02-02",2.57,0.18
"DVN",0.62,0.79,0.52,"2018-01-26","after_hours","2018-02-20","2018-02-05","41.62","2018-02-02",0.44,0.27
"HFC",0.86,1.14,0.73,"2018-01-25","premarket","2018-02-21","2018-02-04","47.01","2018-02-02",0.48,0.41
"CLR",0.26,0.34,0.07,"2018-01-26","after_hours","2018-02-21","2018-02-05","55.54","2018-02-02",1.04,0.27
"WLL",-0.34,-0.04,-0.67,"2018-01-26","after_hours","2018-02-21","2018-02-05","28.11","2018-02-02",1.85,0.63
"APA",0.2,0.39,0,"2018-01-25","premarket","2018-02-22","2018-02-04","44.0","2018-02-02",1.95,0.39
