"CHTR",0.85,1.3,0.37,"2018-01-22","premarket","2018-02-02","2018-02-01","376.11","2018-02-01",1.09,0.93
"NOV",-0.04,-0.02,-0.07,"2018-01-23","after_hours","2018-02-05","2018-02-02","36.8","2018-02-01",1.25,0.05
"APC",0.03,0.13,-0.13,"2018-01-23","after_hours","2018-02-06","2018-02-02","60.58","2018-02-01",8.67,0.26
"GILD",1.65,1.94,1.22,"2018-01-23","after_hours","2018-02-06","2018-02-02","83.2","2018-02-01",0.44,0.72
"PXD",0.75,0.91,0.49,"2018-01-23","after_hours","2018-02-06","2018-02-02","183.3","2018-02-01",0.56,0.42
"TTWO",0.84,1.07,0.67,"2018-01-23","after_hours","2018-02-07","2018-02-02","126.85","2018-02-01",0.48,0.4
"YELP",0.05,0.09,0.01,"2018-01-23","after_hours","2018-02-07","2018-02-02","43.84","2018-02-01",1.6,0.08
"GRUB",0.24,0.3,0.19,"2018-01-22","premarket","2018-02-08","2018-02-01","71.87","2018-02-01",0.46,0.11
"TWTR",0.06,0.15,0,"2018-01-22","premarket","2018-02-08","2018-02-01","25.52","2018-02-01",2.5,0.15
"AIG",0.87,1.22,0.6,"2018-01-23","after_hours","2018-02-08","2018-02-02","63.74","2018-02-01",0.71,0.62
"OXY",0.38,0.49,0.31,"2018-01-23","after_hours","2018-02-13","2018-02-02","75.02","2018-02-01",0.47,0.18
"CTL",0.22,0.31,0.12,"2018-01-23","after_hours","2018-02-14","2018-02-02","17.8","2018-02-01",0.86,0.19
"MRO",0.02,0.09,-0.07,"2018-01-23","after_hours","2018-02-14","2018-02-02","30.77","2009-08-13",8.0,0.16
"WMB",0.2,0.24,0.16,"2018-01-23","after_hours","2018-02-14","2018-02-02","31.54","2018-02-01",0.4,0.08
"AVP",0.06,0.09,0.03,"2018-01-22","premarket","2018-02-15","2018-02-01","17.8","2012-01-18",1.0,0.06
"MOS",0.27,0.31,0.17,"2018-01-23","after_hours","2018-02-19","2018-02-02","27.11","2018-02-01",0.52,0.14
"MGM",0.07,0.13,-0.05,"2018-01-22","premarket","2018-02-20","2018-02-01","36.49","2018-02-01",2.57,0.18
"DVN",0.61,0.79,0.52,"2018-01-23","after_hours","2018-02-20","2018-02-02","41.68","2018-02-01",0.44,0.27
"HFC",0.86,1.14,0.73,"2018-01-22","premarket","2018-02-21","2018-02-01","48.03","2018-02-01",0.48,0.41
"CLR",0.25,0.34,0.07,"2018-01-23","after_hours","2018-02-21","2018-02-02","55.6","2018-02-01",1.08,0.27
"WLL",-0.34,-0.04,-0.67,"2018-01-23","after_hours","2018-02-21","2018-02-02","28.84","2018-02-01",1.85,0.63
"APA",0.2,0.39,0,"2018-01-22","premarket","2018-02-22","2018-02-01","45.02","2018-02-01",1.95,0.39
