"Date","VIX / VXV","VIX / CM45","Front Month Roll","Daily Roll","VIX / VXV (smoothed)","VIX / CM45 (smoothed)","Front Month Roll (smoothed)","Daily Roll (smoothed)"
"2017-12-11","0.761","0.769","0.918","-0.071","0.837","0.858","0.9","-0.038"
"2017-12-12","0.795","0.816","0.918","-0.056","0.819","0.84","0.9","-0.052"
"2017-12-13","0.814","0.835","0.927","-0.051","0.786","0.798","0.9","-0.071"
"2017-12-14","0.82","0.867","0.922","-0.04","0.786","0.798","0.9","-0.071"
"2017-12-15","0.78","0.804","0.92","-0.062","0.786","0.798","0.918","-0.071"
"2017-12-18","0.79","0.819","0.925","-0.06","0.795","0.816","0.918","-0.056"
"2017-12-19","0.802","0.863","0.926","-0.044","0.795","0.816","0.92","-0.056"
"2017-12-20","0.786","0.826","0.927","-0.061","0.795","0.819","0.922","-0.056"
"2017-12-21","0.779","0.828","0.914","-0.059","0.795","0.826","0.925","-0.056"
"2017-12-22","0.793","0.839","0.923","-0.058","0.79","0.826","0.925","-0.059"
"2017-12-26","0.812","0.866","0.92","-0.049","0.79","0.828","0.925","-0.059"
"2017-12-27","0.828","0.883","0.92","-0.041","0.79","0.828","0.925","-0.059"
"2017-12-28","0.798","0.862","0.916","-0.053","0.793","0.839","0.923","-0.058"
"2017-12-29","0.843","0.916","0.917","-0.022","0.793","0.839","0.92","-0.058"
"2018-01-02","0.775","0.812","0.908","-0.075","0.798","0.862","0.92","-0.053"
"2018-01-03","0.743","0.769","0.903","-0.111","0.798","0.862","0.92","-0.053"
"2018-01-04","0.753","0.773","0.895","-0.106","0.798","0.862","0.917","-0.053"
"2018-01-05","0.765","0.779","0.894","-0.107","0.798","0.862","0.916","-0.053"
"2018-01-08","0.784","0.806","0.933","-0.058","0.775","0.812","0.908","-0.075"
"2018-01-09","0.812","0.846","0.938","-0.047","0.765","0.779","0.903","-0.106"
"2018-01-10","0.794","0.837","0.931","-0.049","0.765","0.779","0.903","-0.106"
