"_Symbol","consensusEstimate","highEstimate","lowEstimate","LongTradeDate","TimeOfAnnouncement","EarningsDate","ShortTrade","ClosePrice","CloseDate","dispersionScore","delta"
"AAPL",3.82,4.12,3.68,"2018-01-20","after_hours","2018-Feb-01","2018-01-30","170.16","2018-01-29",0.12,0.44
"ABC",1.35,1.39,1.23,"2018-01-19","premarket","2018-Feb-06","2018-01-29","105.14","2018-01-29",0.12,0.16
"ABX",0.22,0.25,0.2,"2018-01-20","after_hours","2018-Feb-14","2018-01-30","N/A","N/A",0.23,0.05
"ADM",0.7,0.74,0.68,"2018-01-19","premarket","2018-Feb-06","2018-01-29","43.38","2018-01-29",0.09,0.06
"ADP",0.89,0.92,0.86,"2018-01-19","premarket","2018-Jan-31","2018-01-29","122.02","2018-01-29",0.07,0.06
"AET",1.18,1.29,1.12,"2018-01-19","premarket","2018-Jan-30","2018-01-29","120.31","2016-08-23",0.14,0.17
"AFL",1.55,1.6,1.5,"2018-01-20","after_hours","2018-Jan-31","2018-01-30","90.78","2018-01-29",0.06,0.1
"AGN",4.74,4.86,4.51,"2018-01-19","premarket","2018-Feb-06","2018-01-29","189.94","2018-01-29",0.07,0.35
"AGNC",0.62,0.64,0.6,"2018-01-20","after_hours","2018-Jan-31","2018-01-30","19.48","2018-01-29",0.06,0.04
"AIG",0.87,1.22,0.6,"2018-01-20","after_hours","2018-Feb-08","2018-01-30","64.64","2018-01-29",0.71,0.62
"AKAM",0.45,0.47,0.43,"2018-01-20","after_hours","2018-Feb-06","2018-01-30","67.39","2018-01-29",0.09,0.04
"AKS",-0.14,-0.07,-0.19,"2018-01-19","premarket","2018-Jan-30","2018-01-29","6.37","2018-01-29",0.86,0.12
"ALGN",0.96,1.1,0.93,"2018-01-20","after_hours","2018-Jan-30","2018-01-30","284.45","2018-01-29",0.18,0.17
"ALXN",1.09,1.34,1,"2018-01-19","premarket","2018-Feb-08","2018-01-29","127.33","2018-01-29",0.31,0.34
"AMD",0.02,0.04,0.01,"2018-01-20","after_hours","2018-Jan-30","2018-01-30","13.13","2018-01-29",1.5,0.03
"AMGN",3.04,3.23,2.9,"2018-01-20","after_hours","2018-Feb-01","2018-01-30","196.21","2018-01-29",0.11,0.33
"AMZN",1.85,2.34,1.21,"2018-01-20","after_hours","2018-Feb-01","2018-01-30","1409.18","2018-01-29",0.61,1.13
"ANDV",1.19,1.28,1.1,"2018-01-20","after_hours","2018-Feb-15","2018-01-30","113.8","2018-01-29",0.15,0.18
"ANTM",1.25,1.3,1.16,"2018-01-19","premarket","2018-Jan-31","2018-01-29","256.69","2018-01-29",0.11,0.14
"APC",0.01,0.37,-0.17,"2018-01-20","after_hours","2018-Feb-06","2018-01-30","61.44","2018-01-29",54.0,0.54
"APRN",-0.27,-0.25,-0.28,"2018-01-19","premarket","2018-Feb-13","2018-01-29","N/A","N/A",0.11,0.03
"ATHN",0.44,0.51,0.41,"2018-01-20","after_hours","2018-Feb-01","2018-01-30","130.81","2018-01-29",0.23,0.1
"ATVI",0.89,1.01,0.76,"2018-01-20","after_hours","2018-Feb-08","2018-01-30","72.5","2018-01-29",0.28,0.25
"AUY",0.03,0.04,0.02,"2018-01-20","after_hours","2018-Feb-15","2018-01-30","N/A","N/A",0.67,0.02
"AVP",0.06,0.09,0.03,"2018-01-19","premarket","2018-Feb-15","2018-01-29","17.8","2012-01-18",1.0,0.06
"AZN",0.44,0.53,0.41,"2018-01-19","premarket","2018-Feb-02","2018-01-29","N/A","N/A",0.27,0.12
"BA",2.91,3.06,2.79,"2018-01-19","premarket","2018-Jan-31","2018-01-29","30.3","2001-09-21",0.09,0.27
"BABA",1.42,1.64,1.26,"2018-01-19","premarket","2018-Feb-01","2018-01-29","N/A","N/A",0.27,0.38
"BAX",0.58,0.6,0.57,"2018-01-19","premarket","2018-Feb-01","2018-01-29","71.87","2018-01-29",0.05,0.03
"BMY",0.67,0.7,0.63,"2018-01-19","premarket","2018-Feb-05","2018-01-29","33.73","2012-01-18",0.1,0.07
"BP",0.66,0.66,0.66,"2018-01-19","premarket","2018-Feb-06","2018-01-29","34.08","2016-08-23",0.0,0.0
"BSX",0.34,0.36,0.31,"2018-01-19","premarket","2018-Feb-01","2018-01-29","28.4","2018-01-29",0.15,0.05
"BX",0.7,0.81,0.65,"2018-01-19","premarket","2018-Feb-01","2018-01-29","N/A","N/A",0.23,0.16
"CAH",1.14,1.21,1.1,"2018-01-19","premarket","2018-Feb-08","2018-01-29","74.72","2018-01-29",0.1,0.11
"CBS",1.16,1.22,1.11,"2018-01-20","after_hours","2018-Feb-15","2018-01-30","59.31","2018-01-29",0.09,0.11
"CC",0.92,1.01,0.82,"2018-01-20","after_hours","2018-Feb-14","2018-01-30","N/A","N/A",0.21,0.19
"CCJ",0.29,0.29,0.29,"2018-01-19","premarket","2018-Feb-09","2018-01-29","N/A","N/A",0.0,0.0
"CHTR",0.85,1.3,0.37,"2018-01-19","premarket","2018-Feb-02","2018-01-29","375.24","2018-01-29",1.09,0.93
"CI",1.87,1.9,1.79,"2018-01-19","premarket","2018-Feb-01","2018-01-29","225.76","2018-01-29",0.06,0.11
"CLX",1.22,1.24,1.19,"2018-01-19","premarket","2018-Feb-02","2018-01-29","142.4","2018-01-29",0.04,0.05
"CME",1.1,1.11,1.09,"2018-01-19","premarket","2018-Feb-01","2018-01-29","155.28","2018-01-29",0.02,0.02
"CMG",1.35,1.53,1.05,"2018-01-20","after_hours","2018-Feb-06","2018-01-30","327.0","2018-01-29",0.36,0.48
"CMI",2.64,3,2.47,"2018-01-19","premarket","2018-Feb-06","2018-01-29","192.05","2018-01-29",0.2,0.53
"COP",0.45,0.77,0.21,"2018-01-19","premarket","2018-Feb-01","2018-01-29","59.92","2018-01-29",1.24,0.56
"COTY",0.24,0.26,0.21,"2018-01-19","premarket","2018-Feb-08","2018-01-29","20.15","2018-01-29",0.21,0.05
"CRUS",1.63,1.63,1.61,"2018-01-20","after_hours","2018-Feb-05","2018-01-30","50.68","2018-01-29",0.01,0.02
"CSCO",0.53,0.54,0.52,"2018-01-20","after_hours","2018-Feb-14","2018-01-30","42.3","2018-01-29",0.04,0.02
"CTL",0.22,0.31,0.12,"2018-01-20","after_hours","2018-Feb-14","2018-01-30","18.1","2018-01-29",0.86,0.19
"CTSH",0.88,0.94,0.86,"2018-01-19","premarket","2018-Feb-07","2018-01-29","78.05","2018-01-29",0.09,0.08
"CVX",1.31,1.58,1.13,"2018-01-19","premarket","2018-Feb-02","2018-01-29","69.06","2009-08-13",0.34,0.45
"CYBR",0.22,0.23,0.2,"2018-01-19","premarket","2018-Feb-15","2018-01-29","N/A","N/A",0.14,0.03
"DATA",-0.45,-0.35,-0.5,"2018-01-20","after_hours","2018-Feb-01","2018-01-30","76.82","2018-01-29",0.33,0.15
"DE",1.13,1.31,0.88,"2018-01-19","premarket","2018-Feb-16","2018-01-29","84.89","2012-01-18",0.38,0.43
"DECK",3.84,4.05,3.7,"2018-01-20","after_hours","2018-Feb-01","2018-01-30","88.93","2018-01-29",0.09,0.35
"DHI",0.64,0.78,0.58,"2018-01-19","premarket","2018-Jan-31","2018-01-29","50.07","2018-01-29",0.31,0.2
"DIS",1.62,1.68,1.54,"2018-01-20","after_hours","2018-Feb-06","2018-01-30","18.2","2001-09-21",0.09,0.14
"DOV",1.04,1.06,1.02,"2018-01-19","premarket","2018-Jan-30","2018-01-29","104.72","2018-01-29",0.04,0.04
"DWDP",0.67,0.69,0.58,"2018-01-19","premarket","2018-Feb-01","2018-01-29","77.02","2018-01-29",0.16,0.11
"EA",2.04,2.17,1.94,"2018-01-20","after_hours","2018-Jan-30","2018-01-30","115.21","2018-01-29",0.11,0.23
"EBAY",0.5,0.51,0.48,"2018-01-20","after_hours","2018-Jan-31","2018-01-30","40.59","2018-01-29",0.06,0.03
"ED",0.78,0.79,0.76,"2018-01-20","after_hours","2018-Feb-15","2018-01-30","40.51","2009-08-13",0.04,0.03
"EMR",0.54,0.58,0.51,"2018-01-19","premarket","2018-Feb-06","2018-01-29","49.25","2012-01-18",0.13,0.07
"EPD",0.35,0.37,0.32,"2018-01-19","premarket","2018-Jan-31","2018-01-29","N/A","N/A",0.14,0.05
"ETN",1.25,1.26,1.22,"2018-01-19","premarket","2018-Feb-01","2018-01-29","48.85","2012-01-18",0.03,0.04
"EW",0.9,0.93,0.89,"2018-01-20","after_hours","2018-Feb-01","2018-01-30","127.74","2018-01-29",0.04,0.04
"EXPE",0.94,1.03,0.79,"2018-01-20","after_hours","2018-Feb-08","2018-01-30","131.6","2018-01-29",0.26,0.24
"FB",1.96,2.1,1.72,"2018-01-20","after_hours","2018-Jan-31","2018-01-30","188.75","2018-01-29",0.19,0.38
"FEYE",-0.2,-0.15,-0.24,"2018-01-20","after_hours","2018-Feb-08","2018-01-30","N/A","N/A",0.45,0.09
"FOXA",0.45,0.53,0.36,"2018-01-20","after_hours","2018-Feb-07","2018-01-30","38.7","2018-01-29",0.38,0.17
"GG",0.13,0.18,0.09,"2018-01-20","after_hours","2018-Feb-14","2018-01-30","N/A","N/A",0.69,0.09
"GILD",1.65,1.94,1.22,"2018-01-20","after_hours","2018-Feb-06","2018-01-30","85.12","2018-01-29",0.44,0.72
"GLW",0.47,0.48,0.45,"2018-01-19","premarket","2018-Jan-30","2018-01-29","34.38","2018-01-29",0.06,0.03
"GM",1.32,1.52,1.11,"2018-01-19","premarket","2018-Feb-06","2018-01-29","43.47","2018-01-29",0.31,0.41
"GNW",0.2,0.21,0.18,"2018-01-20","after_hours","2018-Feb-06","2018-01-30","4.08","2017-04-25",0.15,0.03
"GOOGL",10.12,10.92,9.14,"2018-01-20","after_hours","2018-Feb-01","2018-01-30","1188.0","2018-01-29",0.18,1.78
"GPRO",-0.13,0.07,-0.33,"2018-01-20","after_hours","2018-Feb-01","2018-01-30","N/A","N/A",3.08,0.4
"GRUB",0.24,0.3,0.19,"2018-01-19","premarket","2018-Feb-08","2018-01-29","76.42","2018-01-29",0.46,0.11
"HAS",1.83,1.9,1.72,"2018-01-19","premarket","2018-Feb-07","2018-01-29","93.35","2018-01-29",0.1,0.18
"HCA",1.86,1.95,1.8,"2018-01-19","premarket","2018-Jan-30","2018-01-29","96.76","2018-01-29",0.08,0.15
"HES",-0.9,-0.78,-1.07,"2018-01-19","premarket","2018-Feb-05","2018-01-29","53.15","2018-01-29",0.32,0.29
"HIG",0.74,0.84,0.66,"2018-01-20","after_hours","2018-Feb-08","2018-01-30","59.0","2018-01-29",0.24,0.18
"HIMX",0.15,0.15,0.14,"2018-01-19","premarket","2018-Feb-13","2018-01-29","N/A","N/A",0.07,0.01
"HOG",0.46,0.54,0.34,"2018-01-19","premarket","2018-Jan-30","2018-01-29","55.03","2018-01-29",0.43,0.2
"HSY",1.06,1.08,1.03,"2018-01-19","premarket","2018-Feb-01","2018-01-29","110.75","2018-01-29",0.05,0.05
"HUM",2,2.06,1.95,"2018-01-19","premarket","2018-Feb-07","2018-01-29","288.77","2018-01-29",0.06,0.11
"ILMN",1.22,1.33,1.18,"2018-01-20","after_hours","2018-Jan-30","2018-01-30","244.18","2018-01-29",0.12,0.15
"INFN",-0.21,-0.2,-0.22,"2018-01-20","after_hours","2018-Feb-07","2018-01-30","6.55","2018-01-29",0.1,0.02
"IP",1.19,1.22,1.16,"2018-01-19","premarket","2018-Feb-01","2018-01-29","20.349998","2009-08-13",0.05,0.06
"IRBT",0.25,0.3,0.21,"2018-01-20","after_hours","2018-Feb-07","2018-01-30","94.48","2018-01-29",0.36,0.09
"JNPR",0.42,0.45,0.38,"2018-01-20","after_hours","2018-Jan-30","2018-01-30","28.05","2018-01-29",0.17,0.07
"KGC",0.04,0.06,0.03,"2018-01-20","after_hours","2018-Feb-14","2018-01-30","N/A","N/A",0.75,0.03
"KKR",0.51,0.56,0.47,"2018-01-19","premarket","2018-Feb-08","2018-01-29","N/A","N/A",0.18,0.09
"KO",0.38,0.4,0.37,"2018-01-19","premarket","2018-Feb-16","2018-01-29","47.83","2001-09-21",0.08,0.03
"KORS",1.27,1.35,1.22,"2018-01-19","premarket","2018-Feb-07","2018-01-29","67.68","2018-01-29",0.1,0.13
"LITE",1,1.11,0.93,"2018-01-19","premarket","2018-Feb-06","2018-01-29","N/A","N/A",0.18,0.18
"LLY",1.08,1.09,1.06,"2018-01-19","premarket","2018-Jan-31","2018-01-29","40.06","2012-01-18",0.03,0.03
"LYB",2.5,2.7,2.3,"2018-01-19","premarket","2018-Feb-02","2018-01-29","121.62","2018-01-29",0.16,0.4
"MA",1.12,1.17,1.05,"2018-01-19","premarket","2018-Feb-01","2018-01-29","170.12","2018-01-29",0.11,0.12
"MAR",1,1.03,0.99,"2018-01-20","after_hours","2018-Feb-14","2018-01-30","146.66","2018-01-29",0.04,0.04
"MAT",0.19,0.26,0.08,"2018-01-20","after_hours","2018-Feb-01","2018-01-30","16.38","2018-01-29",0.95,0.18
"MCD",1.59,1.64,1.53,"2018-01-19","premarket","2018-Jan-30","2018-01-29","56.45","2009-08-13",0.07,0.11
"MCK",2.92,3.05,2.84,"2018-01-19","premarket","2018-Feb-01","2018-01-29","176.5","2018-01-29",0.07,0.21
"MDLZ",0.56,0.59,0.52,"2018-01-20","after_hours","2018-Jan-31","2018-01-30","44.96","2018-01-29",0.12,0.07
"MET",1.1,1.12,1.07,"2018-01-20","after_hours","2018-Jan-31","2018-01-30","54.63","2018-01-29",0.05,0.05
"MO",0.8,0.82,0.79,"2018-01-19","premarket","2018-Feb-01","2018-01-29","17.66","2009-08-13",0.04,0.03
"MOS",0.27,0.31,0.17,"2018-01-20","after_hours","2018-Feb-19","2018-01-30","27.53","2018-01-29",0.52,0.14
"MPC",1,1.24,0.92,"2018-01-19","premarket","2018-Feb-01","2018-01-29","71.51","2018-01-29",0.32,0.32
"MRK",0.94,0.96,0.92,"2018-01-19","premarket","2018-Feb-02","2018-01-29","30.73","2009-08-13",0.04,0.04
"MRO",0.02,0.15,-0.07,"2018-01-20","after_hours","2018-Feb-14","2018-01-30","30.77","2009-08-13",11.0,0.22
"MSFT",0.86,0.91,0.84,"2018-01-20","after_hours","2018-Jan-31","2018-01-30","95.14","2018-01-29",0.08,0.07
"MT",0.8,0.8,0.8,"2018-01-19","premarket","2018-Jan-31","2018-01-29","N/A","N/A",0.0,0.0
"NOK",0.11,0.14,0.08,"2018-01-19","premarket","2018-Feb-01","2018-01-29","N/A","N/A",0.55,0.06
"NOV",-0.04,-0.02,-0.07,"2018-01-20","after_hours","2018-Feb-05","2018-01-30","37.36","2018-01-29",1.25,0.05
"NOW",-0.06,-0.01,-0.11,"2018-01-20","after_hours","2018-Jan-31","2018-01-30","149.59","2018-01-29",1.67,0.1
"NTES",1.52,1.55,1.49,"2018-01-20","after_hours","2018-Feb-07","2018-01-30","N/A","N/A",0.04,0.06
"NTR",0.42,0.42,0.42,"2018-01-20","after_hours","2018-Feb-05","2018-01-30","N/A","N/A",0.0,0.0
"NUE",0.55,0.56,0.53,"2018-01-19","premarket","2018-Jan-30","2018-01-29","69.46","2018-01-29",0.05,0.03
"NUS",1.17,1.21,1.1,"2018-01-20","after_hours","2018-Feb-15","2018-01-30","73.38","2018-01-29",0.09,0.11
"NVDA",1.16,1.25,1.1,"2018-01-20","after_hours","2018-Feb-08","2018-01-30","242.74","2018-01-29",0.13,0.15
"NXPI",1.61,1.71,1.59,"2018-01-20","after_hours","2018-Feb-07","2018-01-30","N/A","N/A",0.07,0.12
"OCLR",0.11,0.16,0.09,"2018-01-20","after_hours","2018-Feb-05","2018-01-30","6.07","2018-01-29",0.64,0.07
"OLN",0.42,0.45,0.38,"2018-01-20","after_hours","2018-Feb-06","2018-01-30","37.66","2018-01-29",0.17,0.07
"OXY",0.38,0.49,0.21,"2018-01-20","after_hours","2018-Feb-13","2018-01-30","76.88","2018-01-29",0.74,0.28
"PAA",0.42,0.51,0.32,"2018-01-20","after_hours","2018-Feb-06","2018-01-30","N/A","N/A",0.45,0.19
"PCG",0.69,0.8,0.61,"2018-01-19","premarket","2018-Feb-09","2018-01-29","41.58","2012-01-18",0.28,0.19
"PEP",1.3,1.31,1.29,"2018-01-19","premarket","2018-Feb-13","2018-01-29","64.67","2012-01-18",0.02,0.02
"PFE",0.56,0.57,0.55,"2018-01-19","premarket","2018-Jan-30","2018-01-29","21.95","2012-01-18",0.04,0.02
"PHM",0.84,0.9,0.79,"2018-01-19","premarket","2018-Jan-30","2018-01-29","34.32","2018-01-29",0.13,0.11
"PM",1.36,1.39,1.32,"2018-01-19","premarket","2018-Feb-08","2018-01-29","109.63","2018-01-29",0.05,0.07
"PSX",0.87,0.92,0.8,"2018-01-19","premarket","2018-Feb-02","2018-01-29","106.12","2018-01-29",0.14,0.12
"PXD",0.77,1.16,0.49,"2018-01-20","after_hours","2018-Feb-06","2018-01-30","186.95","2018-01-29",0.87,0.67
"PYPL",0.38,0.42,0.37,"2018-01-20","after_hours","2018-Jan-31","2018-01-30","85.2","2018-01-29",0.13,0.05
"QCOM",0.77,0.78,0.76,"2018-01-20","after_hours","2018-Jan-31","2018-01-30","68.16","2018-01-29",0.03,0.02
"RACE",0.67,0.74,0.6,"2018-01-19","premarket","2018-Feb-01","2018-01-29","N/A","N/A",0.21,0.14
"REGN",4.18,4.38,3.97,"2018-01-19","premarket","2018-Feb-08","2018-01-29","373.5","2018-01-29",0.1,0.41
"RL",1.87,1.95,1.81,"2018-01-19","premarket","2018-Feb-01","2018-01-29","117.76","2018-01-29",0.07,0.14
"S",-0.04,0.02,-0.12,"2018-01-19","premarket","2018-Feb-02","2018-01-29","5.33","2018-01-29",3.5,0.14
"SHOP",-0.12,-0.09,-0.15,"2018-01-19","premarket","2018-Feb-15","2018-01-29","N/A","N/A",0.5,0.06
"SHPG",3.88,3.99,3.72,"2018-01-19","premarket","2018-Feb-14","2018-01-29","N/A","N/A",0.07,0.27
"SIRI",0.05,0.05,0.04,"2018-01-19","premarket","2018-Jan-31","2018-01-29","6.065","2018-01-29",0.2,0.01
"SNAP",-0.33,-0.3,-0.39,"2018-01-20","after_hours","2018-Feb-06","2018-01-30","N/A","N/A",0.27,0.09
"SNE",0.89,0.89,0.89,"2018-01-19","premarket","2018-Feb-02","2018-01-29","N/A","N/A",0.0,0.0
"SPGI",1.63,1.75,1.54,"2018-01-19","premarket","2018-Feb-06","2018-01-29","183.8","2018-01-29",0.13,0.21
"SPWR",-0.09,-0.09,-0.09,"2018-01-20","after_hours","2018-Feb-14","2018-01-30","8.09","2018-01-29",0.0,0.0
"SU",0.55,0.65,0.36,"2018-01-20","after_hours","2018-Feb-07","2018-01-30","N/A","N/A",0.53,0.29
"SWKS",1.78,1.8,1.74,"2018-01-20","after_hours","2018-Feb-05","2018-01-30","96.68","2018-01-29",0.03,0.06
"SYMC",0.29,0.37,0.22,"2018-01-20","after_hours","2018-Jan-31","2018-01-30","27.46","2018-01-29",0.52,0.15
"SYNA",0.69,0.7,0.68,"2018-01-20","after_hours","2018-Feb-07","2018-01-30","45.05","2018-01-29",0.03,0.02
"SYY",0.65,0.66,0.63,"2018-01-19","premarket","2018-Feb-05","2018-01-29","32.03","2012-12-20",0.05,0.03
"T",0.65,0.68,0.62,"2018-01-20","after_hours","2018-Jan-31","2018-01-30","37.13","2018-01-29",0.09,0.06
"TAP",0.56,0.62,0.5,"2018-01-19","premarket","2018-Feb-14","2018-01-29","84.13","2018-01-29",0.21,0.12
"TECK",1.02,1.26,0.81,"2018-01-19","premarket","2018-Feb-14","2018-01-29","N/A","N/A",0.44,0.45
"TEVA",0.77,0.81,0.74,"2018-01-19","premarket","2018-Feb-08","2018-01-29","N/A","N/A",0.09,0.07
"TPR",0.86,0.9,0.85,"2018-01-19","premarket","2018-Feb-06","2018-01-29","47.74","2018-01-29",0.06,0.05
"TSCO",0.87,0.92,0.84,"2018-01-20","after_hours","2018-Jan-31","2018-01-30","78.85","2018-01-29",0.09,0.08
"TSLA",-3.75,-3.75,-3.75,"2018-01-20","after_hours","2018-Feb-07","2018-01-30","339.85","2018-01-29",0.0,0.0
"TSN",1.51,1.54,1.48,"2018-01-19","premarket","2018-Feb-08","2018-01-29","79.86","2018-01-29",0.04,0.06
"TTWO",0.84,1.07,0.67,"2018-01-20","after_hours","2018-Feb-07","2018-01-30","119.0","2018-01-29",0.48,0.4
"TWLO",-0.18,-0.16,-0.21,"2018-01-20","after_hours","2018-Feb-13","2018-01-30","N/A","N/A",0.28,0.05
"TWTR",0.06,0.15,0,"2018-01-19","premarket","2018-Feb-08","2018-01-29","24.4","2018-01-29",2.5,0.15
"TWX",1.45,1.49,1.37,"2018-01-19","premarket","2018-Feb-01","2018-01-29","94.41","2018-01-29",0.08,0.12
"UA",0,0,0,"2018-01-19","premarket","2018-Feb-13","2018-01-29","13.15","2018-01-29",NaN,0.0
"UAA",0.01,0.03,-0.01,"2018-01-19","premarket","2018-Feb-13","2018-01-29","14.42","2018-01-29",4.0,0.04
"UPS",1.65,1.72,1.62,"2018-01-19","premarket","2018-Feb-01","2018-01-29","132.76","2018-01-29",0.06,0.1
"V",0.99,1.05,0.97,"2018-01-20","after_hours","2018-Feb-01","2018-01-30","126.74","2018-01-29",0.08,0.08
"VIAB",0.98,1.08,0.91,"2018-01-19","premarket","2018-Feb-08","2018-01-29","34.09","2018-01-29",0.17,0.17
"VLO",1.11,1.53,0.94,"2018-01-19","premarket","2018-Feb-01","2018-01-29","98.63","2018-01-29",0.53,0.59
"VOD",0,0,0,"2018-01-19","premarket","2018-Feb-01","2018-01-29","32.13","2018-01-29",NaN,0.0
"VRTX",0.29,0.62,0.17,"2018-01-20","after_hours","2018-Jan-31","2018-01-30","169.13","2018-01-29",1.55,0.45
"WFT",-0.21,-0.2,-0.23,"2018-01-19","premarket","2018-Feb-02","2018-01-29","N/A","N/A",0.14,0.03
"WMB",0.2,0.24,0.16,"2018-01-20","after_hours","2018-Feb-14","2018-01-30","32.29","2018-01-29",0.4,0.08
"WY",0.35,0.37,0.33,"2018-01-19","premarket","2018-Feb-02","2018-01-29","27.42","2012-12-17",0.11,0.04
"X",0.68,0.88,0.52,"2018-01-20","after_hours","2018-Jan-31","2018-01-30","40.75","2018-01-29",0.53,0.36
"XOM",1.06,1.17,0.99,"2018-01-19","premarket","2018-Feb-02","2018-01-29","69.22","2009-08-13",0.17,0.18
"YELP",0.05,0.09,0.01,"2018-01-20","after_hours","2018-Feb-07","2018-01-30","44.06","2018-01-29",1.6,0.08
"YUM",0.8,0.85,0.74,"2018-01-19","premarket","2018-Feb-08","2018-01-29","86.09","2018-01-29",0.14,0.11
"ZNGA",0.01,0.02,0,"2018-01-20","after_hours","2018-Feb-07","2018-01-30","3.69","2018-01-29",2.0,0.02
"ZTS",0.66,0.69,0.65,"2018-01-19","premarket","2018-Feb-15","2018-01-29","79.81","2018-01-29",0.06,0.04
