"AA",1.23,1.49,0.98,"2017-12-31","after_hours","2018-Jan-17","2018-01-10","55.0","2018-01-09",0.41,0.51
"FCX",0.44,0.5,0.33,"2017-12-30","premarket","2018-Jan-25","2018-01-09","19.78","2018-01-09",0.39,0.17
"HOG",0.48,0.54,0.38,"2017-12-30","premarket","2018-Jan-30","2018-01-09","51.83","2018-01-09",0.33,0.16
"NUE",0.59,0.76,0.53,"2017-12-30","premarket","2018-Jan-30","2018-01-09","68.23","2018-01-09",0.39,0.23
"UAL",1.02,1.13,0.87,"2017-12-31","after_hours","2018-Jan-23","2018-01-10","68.5","2018-01-09",0.25,0.26
