"CF",-0.11,-0.01,-0.2,"2018-01-30","after_hours","2018-02-14","2018-02-09","39.5","2018-02-08",1.73,0.19
"CTL",0.22,0.31,0.12,"2018-01-30","after_hours","2018-02-14","2018-02-09","17.01","2018-02-08",0.86,0.19
"MRO",0.02,0.09,-0.07,"2018-01-30","after_hours","2018-02-14","2018-02-09","30.77","2009-08-13",8.0,0.16
"WMB",0.2,0.24,0.16,"2018-01-30","after_hours","2018-02-14","2018-02-09","30.04","2018-02-08",0.4,0.08
"AVP",0.06,0.09,0.03,"2018-01-29","premarket","2018-02-15","2018-02-08","17.8","2012-01-18",1.0,0.06
"MOS",0.27,0.31,0.17,"2018-01-30","after_hours","2018-02-19","2018-02-09","25.24","2018-02-08",0.52,0.14
"MGM",0.07,0.13,-0.05,"2018-01-29","premarket","2018-02-20","2018-02-08","34.69","2018-02-08",2.57,0.18
"CBI",0.44,0.55,0.32,"2018-01-30","after_hours","2018-02-20","2018-02-09","19.45","2018-02-08",0.52,0.23
"DVN",0.6,0.79,0.4,"2018-01-30","after_hours","2018-02-20","2018-02-09","36.88","2018-02-08",0.65,0.39
"HFC",0.86,1.14,0.73,"2018-01-29","premarket","2018-02-21","2018-02-08","45.65","2018-02-08",0.48,0.41
"CLR",0.28,0.4,0.07,"2018-01-30","after_hours","2018-02-21","2018-02-09","52.03","2018-02-08",1.18,0.33
"WLL",-0.32,-0.04,-0.65,"2018-01-30","after_hours","2018-02-21","2018-02-09","24.41","2018-02-08",1.91,0.61
"APA",0.21,0.39,0,"2018-01-29","premarket","2018-02-22","2018-02-08","39.68","2018-02-08",1.86,0.39
"FSLR",-0.32,-0.24,-0.41,"2018-01-30","after_hours","2018-02-22","2018-02-09","27.28","2017-04-25",0.53,0.17
"LL",0.09,0.16,0.03,"2018-01-29","premarket","2018-02-27","2018-02-08","26.03","2018-02-08",1.44,0.13
"TOL",0.54,0.7,0.47,"2018-01-29","premarket","2018-02-27","2018-02-08","45.97","2018-02-08",0.43,0.23
"EOG",0.52,0.62,0.33,"2018-01-30","after_hours","2018-02-27","2018-02-09","106.02","2018-02-08",0.56,0.29
"TSRO",-2.41,-1.84,-2.83,"2018-01-30","after_hours","2018-02-27","2018-02-09","58.22","2018-02-08",0.41,0.99
"WDAY",-0.35,-0.28,-0.44,"2018-01-30","after_hours","2018-02-27","2018-02-09","117.71","2018-02-08",0.46,0.16
"VRX",0.98,1.29,0.81,"2018-01-29","premarket","2018-02-28","2018-02-08","17.76","2018-02-08",0.49,0.48
"CRM",0.11,0.14,0.07,"2018-01-30","after_hours","2018-02-28","2018-02-09","110.1","2018-02-08",0.64,0.07
"DDD",-0.04,0,-0.12,"2018-01-30","after_hours","2018-02-28","2018-02-09","10.26","2018-02-08",3.0,0.12
"AMBA",0.08,0.11,0.05,"2018-01-30","after_hours","2018-03-01","2018-02-09","47.61","2018-02-08",0.75,0.06
"SPLK",-0.17,-0.08,-0.24,"2018-01-30","after_hours","2018-03-01","2018-02-09","89.6","2018-02-08",0.94,0.16
