"ADSK",-0.33,-0.32,-0.34,"2017-11-13","after_hours","2017-Nov-28","2017-11-23","128.01","2017-11-22",0.06,0.02
"AEO",0.39,0.4,0.38,"2017-11-12","premarket","2017-Dec-06","2017-11-22","14.8","2017-11-22",0.05,0.02
"AMBA",0.34,0.37,0.32,"2017-11-13","after_hours","2017-Nov-30","2017-11-23","57.0","2017-11-22",0.15,0.05
"AVGO",3.92,3.99,3.85,"2017-11-13","after_hours","2017-Dec-06","2017-11-23","277.02","2017-11-22",0.04,0.14
"AZO",9.81,9.94,9.37,"2017-11-12","premarket","2017-Dec-05","2017-11-22","633.0","2017-11-22",0.06,0.57
"CIEN",0.44,0.48,0.41,"2017-11-12","premarket","2017-Dec-07","2017-11-22","20.58","2017-11-22",0.16,0.07
"DG",0.94,0.97,0.91,"2017-11-12","premarket","2017-Dec-07","2017-11-22","86.69","2017-11-22",0.06,0.06
"KR",0.4,0.43,0.36,"2017-11-12","premarket","2017-Nov-30","2017-11-22","32.58","2016-08-23",0.18,0.07
"MOMO",0.32,0.32,0.32,"2017-11-12","premarket","2017-Nov-28","2017-11-22","N/A","N/A",0.0,0.0
"MRVL",0.28,0.29,0.26,"2017-11-13","after_hours","2017-Nov-28","2017-11-23","23.78","2017-11-22",0.11,0.03
"SDRL",-0.07,-0.02,-0.12,"2017-11-12","premarket","2017-Nov-23","2017-11-22","0.335","2017-11-22",1.43,0.1
"TIF",0.76,0.88,0.71,"2017-11-12","premarket","2017-Nov-29","2017-11-22","93.55","2017-11-22",0.22,0.17
"TOL",1.19,1.24,1.14,"2017-11-12","premarket","2017-Dec-05","2017-11-22","48.06","2017-11-22",0.08,0.1
"ULTA",1.66,1.69,1.59,"2017-11-13","after_hours","2017-Nov-30","2017-11-23","210.16","2017-11-22",0.06,0.1
"VMW",0.95,1.04,0.91,"2017-11-13","after_hours","2017-Nov-30","2017-11-23","125.53","2017-11-22",0.14,0.13
"VNET",-2.06,-2.06,-2.06,"2017-11-13","after_hours","2017-Dec-05","2017-11-23","N/A","N/A",0.0,0.0
"WDAY",-0.42,-0.33,-0.48,"2017-11-13","after_hours","2017-Nov-29","2017-11-23","115.4","2017-11-22",0.36,0.15
