"_Symbol","consensusEstimate","highEstimate","lowEstimate","LongTradeDate","TimeOfAnnouncement","EarningsDate","ShortTrade","ClosePrice","CloseDate","dispersionScore","delta"
"AAPL",3.82,4.12,3.68,"2018-01-21","after_hours","2018-Feb-01","2018-01-31","165.525","2018-01-30",0.12,0.44
"ABC",1.35,1.39,1.23,"2018-01-20","premarket","2018-Feb-06","2018-01-30","102.0","2018-01-30",0.12,0.16
"ABX",0.22,0.24,0.2,"2018-01-21","after_hours","2018-Feb-14","2018-01-31","N/A","N/A",0.18,0.04
"ADM",0.7,0.74,0.68,"2018-01-20","premarket","2018-Feb-06","2018-01-30","42.84","2018-01-30",0.09,0.06
"ADP",0.89,0.92,0.86,"2018-01-20","premarket","2018-Jan-31","2018-01-30","121.11","2018-01-30",0.07,0.06
"AFL",1.55,1.6,1.5,"2018-01-21","after_hours","2018-Jan-31","2018-01-31","89.1","2018-01-30",0.06,0.1
"AGN",4.74,4.86,4.51,"2018-01-20","premarket","2018-Feb-06","2018-01-30","184.15","2018-01-30",0.07,0.35
"AGNC",0.62,0.64,0.6,"2018-01-21","after_hours","2018-Jan-31","2018-01-31","18.98","2018-01-30",0.06,0.04
"AIG",0.87,1.22,0.6,"2018-01-21","after_hours","2018-Feb-08","2018-01-31","63.57","2018-01-30",0.71,0.62
"AKAM",0.45,0.47,0.43,"2018-01-21","after_hours","2018-Feb-06","2018-01-31","66.56","2018-01-30",0.09,0.04
"ALXN",1.09,1.34,1,"2018-01-20","premarket","2018-Feb-08","2018-01-30","126.19","2018-01-30",0.31,0.34
"AMGN",3.04,3.23,2.9,"2018-01-21","after_hours","2018-Feb-01","2018-01-31","196.18","2018-01-30",0.11,0.33
"AMZN",1.85,2.34,1.21,"2018-01-21","after_hours","2018-Feb-01","2018-01-31","1403.17","2018-01-30",0.61,1.13
"ANDV",1.2,1.32,1.1,"2018-01-21","after_hours","2018-Feb-15","2018-01-31","109.79","2018-01-30",0.18,0.22
"ANTM",1.25,1.3,1.16,"2018-01-20","premarket","2018-Jan-31","2018-01-30","243.81","2018-01-30",0.11,0.14
"APC",0.01,0.37,-0.17,"2018-01-21","after_hours","2018-Feb-06","2018-01-31","60.18","2018-01-30",54.0,0.54
"APRN",-0.27,-0.25,-0.28,"2018-01-20","premarket","2018-Feb-13","2018-01-30","N/A","N/A",0.11,0.03
"ATHN",0.44,0.51,0.41,"2018-01-21","after_hours","2018-Feb-01","2018-01-31","128.64","2018-01-30",0.23,0.1
"ATVI",0.89,1.01,0.76,"2018-01-21","after_hours","2018-Feb-08","2018-01-31","71.435","2018-01-30",0.28,0.25
"AUY",0.03,0.04,0.02,"2018-01-21","after_hours","2018-Feb-15","2018-01-31","N/A","N/A",0.67,0.02
"AVP",0.06,0.09,0.03,"2018-01-20","premarket","2018-Feb-15","2018-01-30","17.8","2012-01-18",1.0,0.06
"AZN",0.44,0.53,0.41,"2018-01-20","premarket","2018-Feb-02","2018-01-30","N/A","N/A",0.27,0.12
"BA",2.91,3.06,2.79,"2018-01-20","premarket","2018-Jan-31","2018-01-30","30.3","2001-09-21",0.09,0.27
"BABA",1.42,1.57,1.26,"2018-01-20","premarket","2018-Feb-01","2018-01-30","N/A","N/A",0.22,0.31
"BAX",0.58,0.6,0.57,"2018-01-20","premarket","2018-Feb-01","2018-01-30","71.53","2018-01-30",0.05,0.03
"BMY",0.67,0.7,0.63,"2018-01-20","premarket","2018-Feb-05","2018-01-30","33.73","2012-01-18",0.1,0.07
"BP",0.66,0.66,0.66,"2018-01-20","premarket","2018-Feb-06","2018-01-30","34.08","2016-08-23",0.0,0.0
"BSX",0.34,0.36,0.31,"2018-01-20","premarket","2018-Feb-01","2018-01-30","28.11","2018-01-30",0.15,0.05
"BX",0.7,0.81,0.65,"2018-01-20","premarket","2018-Feb-01","2018-01-30","N/A","N/A",0.23,0.16
"CAH",1.14,1.21,1.1,"2018-01-20","premarket","2018-Feb-08","2018-01-30","71.94","2018-01-30",0.1,0.11
"CBS",1.16,1.22,1.11,"2018-01-21","after_hours","2018-Feb-15","2018-01-31","58.54","2018-01-30",0.09,0.11
"CC",0.92,1.01,0.82,"2018-01-21","after_hours","2018-Feb-14","2018-01-31","N/A","N/A",0.21,0.19
"CCJ",0.29,0.29,0.29,"2018-01-20","premarket","2018-Feb-09","2018-01-30","N/A","N/A",0.0,0.0
"CHTR",0.85,1.3,0.37,"2018-01-20","premarket","2018-Feb-02","2018-01-30","376.37","2018-01-30",1.09,0.93
"CI",1.87,1.9,1.79,"2018-01-20","premarket","2018-Feb-01","2018-01-30","211.59","2018-01-30",0.06,0.11
"CLX",1.22,1.24,1.19,"2018-01-20","premarket","2018-Feb-02","2018-01-30","141.0","2018-01-30",0.04,0.05
"CME",1.1,1.11,1.09,"2018-01-20","premarket","2018-Feb-01","2018-01-30","153.0","2018-01-30",0.02,0.02
"CMG",1.34,1.53,1.05,"2018-01-21","after_hours","2018-Feb-06","2018-01-31","329.69","2018-01-30",0.36,0.48
"CMI",2.64,3,2.47,"2018-01-20","premarket","2018-Feb-06","2018-01-30","189.22","2018-01-30",0.2,0.53
"COP",0.45,0.77,0.21,"2018-01-20","premarket","2018-Feb-01","2018-01-30","58.94","2018-01-30",1.24,0.56
"COTY",0.24,0.26,0.21,"2018-01-20","premarket","2018-Feb-08","2018-01-30","19.67","2018-01-30",0.21,0.05
"CRUS",1.63,1.63,1.61,"2018-01-21","after_hours","2018-Feb-05","2018-01-31","50.5","2018-01-30",0.01,0.02
"CSCO",0.53,0.54,0.52,"2018-01-21","after_hours","2018-Feb-14","2018-01-31","42.685","2018-01-30",0.04,0.02
"CTL",0.22,0.31,0.12,"2018-01-21","after_hours","2018-Feb-14","2018-01-31","17.98","2018-01-30",0.86,0.19
"CTSH",0.88,0.94,0.86,"2018-01-20","premarket","2018-Feb-07","2018-01-30","78.17","2018-01-30",0.09,0.08
"CVS",1.88,1.91,1.88,"2018-01-20","premarket","2018-Feb-08","2018-01-30","78.49","2018-01-30",0.02,0.03
"CVX",1.29,1.56,1.13,"2018-01-20","premarket","2018-Feb-02","2018-01-30","69.06","2009-08-13",0.33,0.43
"CYBR",0.22,0.23,0.2,"2018-01-20","premarket","2018-Feb-15","2018-01-30","N/A","N/A",0.14,0.03
"DATA",-0.45,-0.35,-0.5,"2018-01-21","after_hours","2018-Feb-01","2018-01-31","76.02","2018-01-30",0.33,0.15
"DE",1.13,1.31,0.88,"2018-01-20","premarket","2018-Feb-16","2018-01-30","84.89","2012-01-18",0.38,0.43
"DECK",3.84,4.05,3.7,"2018-01-21","after_hours","2018-Feb-01","2018-01-31","88.14","2018-01-30",0.09,0.35
"DHI",0.64,0.78,0.58,"2018-01-20","premarket","2018-Jan-31","2018-01-30","47.79","2018-01-30",0.31,0.2
"DIS",1.62,1.68,1.54,"2018-01-21","after_hours","2018-Feb-06","2018-01-31","18.2","2001-09-21",0.09,0.14
"DVN",0.63,0.79,0.52,"2018-01-21","after_hours","2018-Feb-20","2018-01-31","42.92","2018-01-30",0.43,0.27
"DWDP",0.67,0.71,0.58,"2018-01-20","premarket","2018-Feb-01","2018-01-30","75.49","2018-01-30",0.19,0.13
"EBAY",0.5,0.51,0.48,"2018-01-21","after_hours","2018-Jan-31","2018-01-31","40.72","2018-01-30",0.06,0.03
"ED",0.78,0.79,0.76,"2018-01-21","after_hours","2018-Feb-15","2018-01-31","40.51","2009-08-13",0.04,0.03
"EMR",0.54,0.58,0.51,"2018-01-20","premarket","2018-Feb-06","2018-01-30","49.25","2012-01-18",0.13,0.07
"EPD",0.35,0.37,0.32,"2018-01-20","premarket","2018-Jan-31","2018-01-30","N/A","N/A",0.14,0.05
"ETN",1.25,1.26,1.22,"2018-01-20","premarket","2018-Feb-01","2018-01-30","48.85","2012-01-18",0.03,0.04
"EW",0.9,0.93,0.89,"2018-01-21","after_hours","2018-Feb-01","2018-01-31","125.4","2018-01-30",0.04,0.04
"EXPE",0.94,1.03,0.79,"2018-01-21","after_hours","2018-Feb-08","2018-01-31","130.0","2018-01-30",0.26,0.24
"FB",1.96,2.1,1.72,"2018-01-21","after_hours","2018-Jan-31","2018-01-31","183.01","2018-01-30",0.19,0.38
"FEYE",-0.2,-0.15,-0.24,"2018-01-21","after_hours","2018-Feb-08","2018-01-31","N/A","N/A",0.45,0.09
"FLR",0.63,0.69,0.6,"2018-01-21","after_hours","2018-Feb-20","2018-01-31","61.18","2018-01-30",0.14,0.09
"FOXA",0.43,0.53,0.36,"2018-01-21","after_hours","2018-Feb-07","2018-01-31","38.94","2018-01-30",0.4,0.17
"GG",0.13,0.18,0.1,"2018-01-21","after_hours","2018-Feb-14","2018-01-31","N/A","N/A",0.62,0.08
"GILD",1.65,1.94,1.22,"2018-01-21","after_hours","2018-Feb-06","2018-01-31","88.02","2018-01-30",0.44,0.72
"GM",1.32,1.52,1.11,"2018-01-20","premarket","2018-Feb-06","2018-01-30","42.83","2018-01-30",0.31,0.41
"GNW",0.2,0.21,0.18,"2018-01-21","after_hours","2018-Feb-06","2018-01-31","4.08","2017-04-25",0.15,0.03
"GOOGL",10.12,10.92,9.14,"2018-01-21","after_hours","2018-Feb-01","2018-01-31","1177.72","2018-01-30",0.18,1.78
"GPC",1.09,1.14,1.04,"2018-01-20","premarket","2018-Feb-20","2018-01-30","106.69","2018-01-30",0.09,0.1
"GPRO",-0.13,0.07,-0.33,"2018-01-21","after_hours","2018-Feb-01","2018-01-31","N/A","N/A",3.08,0.4
"GRUB",0.24,0.3,0.19,"2018-01-20","premarket","2018-Feb-08","2018-01-30","71.88","2018-01-30",0.46,0.11
"GT",0.75,0.84,0.71,"2018-01-20","premarket","2018-Feb-08","2018-01-30","18.41","2009-08-13",0.17,0.13
"HAS",1.82,1.9,1.72,"2018-01-20","premarket","2018-Feb-07","2018-01-30","94.02","2018-01-30",0.1,0.18
"HD",1.61,1.77,1.42,"2018-01-20","premarket","2018-Feb-20","2018-01-30","201.47","2018-01-30",0.22,0.35
"HES",-0.92,-0.78,-1.07,"2018-01-20","premarket","2018-Feb-05","2018-01-30","51.66","2018-01-30",0.32,0.29
"HIG",0.74,0.84,0.66,"2018-01-21","after_hours","2018-Feb-08","2018-01-31","58.09","2018-01-30",0.24,0.18
"HIMX",0.15,0.15,0.14,"2018-01-20","premarket","2018-Feb-13","2018-01-30","N/A","N/A",0.07,0.01
"HSY",1.06,1.08,1.03,"2018-01-20","premarket","2018-Feb-01","2018-01-30","109.25","2018-01-30",0.05,0.05
"HUM",2,2.06,1.95,"2018-01-20","premarket","2018-Feb-07","2018-01-30","277.47","2018-01-30",0.06,0.11
"INFN",-0.21,-0.2,-0.22,"2018-01-21","after_hours","2018-Feb-07","2018-01-31","6.4","2018-01-30",0.1,0.02
"IP",1.19,1.22,1.16,"2018-01-20","premarket","2018-Feb-01","2018-01-30","20.349998","2009-08-13",0.05,0.06
"IRBT",0.25,0.3,0.21,"2018-01-21","after_hours","2018-Feb-07","2018-01-31","91.7","2018-01-30",0.36,0.09
"KGC",0.04,0.06,0.03,"2018-01-21","after_hours","2018-Feb-14","2018-01-31","N/A","N/A",0.75,0.03
"KKR",0.51,0.56,0.47,"2018-01-20","premarket","2018-Feb-08","2018-01-30","N/A","N/A",0.18,0.09
"KO",0.38,0.4,0.37,"2018-01-20","premarket","2018-Feb-16","2018-01-30","47.83","2001-09-21",0.08,0.03
"KORS",1.28,1.4,1.22,"2018-01-20","premarket","2018-Feb-07","2018-01-30","67.02","2018-01-30",0.14,0.18
"LITE",1,1.11,0.93,"2018-01-20","premarket","2018-Feb-06","2018-01-30","N/A","N/A",0.18,0.18
"LLY",1.08,1.09,1.06,"2018-01-20","premarket","2018-Jan-31","2018-01-30","40.06","2012-01-18",0.03,0.03
"LYB",2.5,2.7,2.3,"2018-01-20","premarket","2018-Feb-02","2018-01-30","119.91","2018-01-30",0.16,0.4
"MA",1.12,1.17,1.05,"2018-01-20","premarket","2018-Feb-01","2018-01-30","167.41","2018-01-30",0.11,0.12
"MAR",1,1.03,0.99,"2018-01-21","after_hours","2018-Feb-14","2018-01-31","148.22","2018-01-30",0.04,0.04
"MAT",0.19,0.26,0.08,"2018-01-21","after_hours","2018-Feb-01","2018-01-31","16.03","2018-01-30",0.95,0.18
"MCK",2.92,3.05,2.84,"2018-01-20","premarket","2018-Feb-01","2018-01-30","170.81","2018-01-30",0.07,0.21
"MDLZ",0.56,0.59,0.52,"2018-01-21","after_hours","2018-Jan-31","2018-01-31","44.58","2018-01-30",0.12,0.07
"MDT",1.16,1.18,1.15,"2018-01-20","premarket","2018-Feb-20","2018-01-30","85.93","2018-01-30",0.03,0.03
"MET",0.64,0.66,0.61,"2018-01-21","after_hours","2018-Feb-13","2018-01-31","50.25","2018-01-30",0.08,0.05
"MGM",0.07,0.13,-0.05,"2018-01-20","premarket","2018-Feb-20","2018-01-30","37.65","2018-01-30",2.57,0.18
"MO",0.8,0.82,0.79,"2018-01-20","premarket","2018-Feb-01","2018-01-30","17.66","2009-08-13",0.04,0.03
"MOS",0.27,0.31,0.17,"2018-01-21","after_hours","2018-Feb-19","2018-01-31","27.46","2018-01-30",0.52,0.14
"MPC",1,1.24,0.92,"2018-01-20","premarket","2018-Feb-01","2018-01-30","69.05","2018-01-30",0.32,0.32
"MRK",0.94,0.96,0.92,"2018-01-20","premarket","2018-Feb-02","2018-01-30","30.73","2009-08-13",0.04,0.04
"MRO",0.02,0.15,-0.07,"2018-01-21","after_hours","2018-Feb-14","2018-01-31","30.77","2009-08-13",11.0,0.22
"MSFT",0.86,0.91,0.84,"2018-01-21","after_hours","2018-Jan-31","2018-01-31","93.3","2018-01-30",0.08,0.07
"MT",0.8,0.8,0.8,"2018-01-20","premarket","2018-Jan-31","2018-01-30","N/A","N/A",0.0,0.0
"NOK",0.11,0.14,0.08,"2018-01-20","premarket","2018-Feb-01","2018-01-30","N/A","N/A",0.55,0.06
"NOV",-0.04,-0.02,-0.07,"2018-01-21","after_hours","2018-Feb-05","2018-01-31","36.34","2018-01-30",1.25,0.05
"NOW",-0.06,-0.01,-0.11,"2018-01-21","after_hours","2018-Jan-31","2018-01-31","146.07","2018-01-30",1.67,0.1
"NTES",1.52,1.55,1.49,"2018-01-21","after_hours","2018-Feb-07","2018-01-31","N/A","N/A",0.04,0.06
"NTR",0.42,0.42,0.42,"2018-01-21","after_hours","2018-Feb-05","2018-01-31","N/A","N/A",0.0,0.0
"NUS",1.17,1.21,1.1,"2018-01-21","after_hours","2018-Feb-15","2018-01-31","73.13","2018-01-30",0.09,0.11
"NVDA",1.16,1.25,1.1,"2018-01-21","after_hours","2018-Feb-08","2018-01-31","241.11","2018-01-30",0.13,0.15
"NXPI",1.61,1.71,1.59,"2018-01-21","after_hours","2018-Feb-07","2018-01-31","N/A","N/A",0.07,0.12
"OCLR",0.11,0.16,0.09,"2018-01-21","after_hours","2018-Feb-05","2018-01-31","6.07","2018-01-30",0.64,0.07
"OLN",0.42,0.45,0.38,"2018-01-21","after_hours","2018-Feb-06","2018-01-31","37.27","2018-01-30",0.17,0.07
"OXY",0.38,0.49,0.21,"2018-01-21","after_hours","2018-Feb-13","2018-01-31","75.48","2018-01-30",0.74,0.28
"PAA",0.42,0.51,0.32,"2018-01-21","after_hours","2018-Feb-06","2018-01-31","N/A","N/A",0.45,0.19
"PCG",0.69,0.8,0.61,"2018-01-20","premarket","2018-Feb-09","2018-01-30","41.58","2012-01-18",0.28,0.19
"PEP",1.3,1.31,1.29,"2018-01-20","premarket","2018-Feb-13","2018-01-30","64.67","2012-01-18",0.02,0.02
"PM",1.36,1.39,1.32,"2018-01-20","premarket","2018-Feb-08","2018-01-30","108.2","2018-01-30",0.05,0.07
"PSX",0.86,0.92,0.8,"2018-01-20","premarket","2018-Feb-02","2018-01-30","103.05","2018-01-30",0.14,0.12
"PXD",0.77,1.16,0.49,"2018-01-21","after_hours","2018-Feb-06","2018-01-31","185.01","2018-01-30",0.87,0.67
"PYPL",0.38,0.42,0.37,"2018-01-21","after_hours","2018-Jan-31","2018-01-31","83.0","2018-01-30",0.13,0.05
"QCOM",0.77,0.78,0.76,"2018-01-21","after_hours","2018-Jan-31","2018-01-31","67.43","2018-01-30",0.03,0.02
"RACE",0.79,0.87,0.7,"2018-01-20","premarket","2018-Feb-01","2018-01-30","N/A","N/A",0.22,0.17
"REGN",4.18,4.38,3.97,"2018-01-20","premarket","2018-Feb-08","2018-01-30","382.8","2018-01-30",0.1,0.41
"RIG",-0.26,-0.14,-0.41,"2018-01-21","after_hours","2018-Feb-20","2018-01-31","8.66","2017-07-25",1.04,0.27
"RL",1.87,1.95,1.81,"2018-01-20","premarket","2018-Feb-01","2018-01-30","116.74","2018-01-30",0.07,0.14
"S",-0.04,0.02,-0.12,"2018-01-20","premarket","2018-Feb-02","2018-01-30","5.26","2018-01-30",3.5,0.14
"SHOP",-0.12,-0.09,-0.15,"2018-01-20","premarket","2018-Feb-15","2018-01-30","N/A","N/A",0.5,0.06
"SHPG",3.88,3.99,3.72,"2018-01-20","premarket","2018-Feb-14","2018-01-30","N/A","N/A",0.07,0.27
"SIRI",0.05,0.05,0.04,"2018-01-20","premarket","2018-Jan-31","2018-01-30","5.99","2018-01-30",0.2,0.01
"SNAP",-0.33,-0.3,-0.39,"2018-01-21","after_hours","2018-Feb-06","2018-01-31","N/A","N/A",0.27,0.09
"SNE",0.89,0.89,0.89,"2018-01-20","premarket","2018-Feb-02","2018-01-30","N/A","N/A",0.0,0.0
"SPGI",1.63,1.75,1.54,"2018-01-20","premarket","2018-Feb-06","2018-01-30","180.79","2018-01-30",0.13,0.21
"SPWR",-0.09,-0.09,-0.09,"2018-01-21","after_hours","2018-Feb-14","2018-01-31","7.97","2018-01-30",0.0,0.0
"SU",0.59,0.65,0.53,"2018-01-21","after_hours","2018-Feb-07","2018-01-31","N/A","N/A",0.2,0.12
"SWKS",1.78,1.8,1.74,"2018-01-21","after_hours","2018-Feb-05","2018-01-31","96.01","2018-01-30",0.03,0.06
"SYMC",0.29,0.37,0.22,"2018-01-21","after_hours","2018-Jan-31","2018-01-31","27.06","2018-01-30",0.52,0.15
"SYNA",0.69,0.7,0.68,"2018-01-21","after_hours","2018-Feb-07","2018-01-31","44.56","2018-01-30",0.03,0.02
"SYY",0.65,0.66,0.63,"2018-01-20","premarket","2018-Feb-05","2018-01-30","32.03","2012-12-20",0.05,0.03
"T",0.65,0.68,0.62,"2018-01-21","after_hours","2018-Jan-31","2018-01-31","37.36","2018-01-30",0.09,0.06
"TAP",0.56,0.62,0.5,"2018-01-20","premarket","2018-Feb-14","2018-01-30","83.45","2018-01-30",0.21,0.12
"TECK",1.02,1.26,0.81,"2018-01-20","premarket","2018-Feb-14","2018-01-30","N/A","N/A",0.44,0.45
"TEVA",0.77,0.81,0.74,"2018-01-20","premarket","2018-Feb-08","2018-01-30","N/A","N/A",0.09,0.07
"TPR",0.86,0.9,0.85,"2018-01-20","premarket","2018-Feb-06","2018-01-30","47.98","2018-01-30",0.06,0.05
"TSCO",0.87,0.92,0.84,"2018-01-21","after_hours","2018-Jan-31","2018-01-31","78.51","2018-01-30",0.09,0.08
"TSLA",-3.75,-3.75,-3.75,"2018-01-21","after_hours","2018-Feb-07","2018-01-31","345.14","2018-01-30",0.0,0.0
"TSN",1.51,1.54,1.48,"2018-01-20","premarket","2018-Feb-08","2018-01-30","78.73","2018-01-30",0.04,0.06
"TTWO",0.84,1.07,0.67,"2018-01-21","after_hours","2018-Feb-07","2018-01-31","117.5","2018-01-30",0.48,0.4
"TWLO",-0.18,-0.16,-0.21,"2018-01-21","after_hours","2018-Feb-13","2018-01-31","N/A","N/A",0.28,0.05
"TWTR",0.06,0.15,0,"2018-01-20","premarket","2018-Feb-08","2018-01-30","24.83","2018-01-30",2.5,0.15
"TWX",1.45,1.49,1.37,"2018-01-20","premarket","2018-Feb-01","2018-01-30","94.39","2018-01-30",0.08,0.12
"UA",0,0,0,"2018-01-20","premarket","2018-Feb-13","2018-01-30","13.08","2018-01-30",NaN,0.0
"UAA",0.01,0.03,-0.01,"2018-01-20","premarket","2018-Feb-13","2018-01-30","14.3","2018-01-30",4.0,0.04
"UPS",1.65,1.72,1.62,"2018-01-20","premarket","2018-Feb-01","2018-01-30","130.37","2018-01-30",0.06,0.1
"V",0.98,1.04,0.95,"2018-01-21","after_hours","2018-Feb-01","2018-01-31","123.82","2018-01-30",0.09,0.09
"VIAB",0.98,1.08,0.91,"2018-01-20","premarket","2018-Feb-08","2018-01-30","33.56","2018-01-30",0.17,0.17
"VLO",1.05,1.1,0.94,"2018-01-20","premarket","2018-Feb-01","2018-01-30","95.82","2018-01-30",0.15,0.16
"VOD",0,0,0,"2018-01-20","premarket","2018-Feb-01","2018-01-30","32.14","2018-01-30",NaN,0.0
"VRTX",0.29,0.62,0.17,"2018-01-21","after_hours","2018-Jan-31","2018-01-31","166.37","2018-01-30",1.55,0.45
"WFT",-0.21,-0.2,-0.23,"2018-01-20","premarket","2018-Feb-02","2018-01-30","N/A","N/A",0.14,0.03
"WMB",0.2,0.24,0.16,"2018-01-21","after_hours","2018-Feb-14","2018-01-31","31.69","2018-01-30",0.4,0.08
"WMT",1.36,1.45,1.25,"2018-01-20","premarket","2018-Feb-20","2018-01-30","60.0","2012-04-13",0.15,0.2
"WY",0.35,0.37,0.33,"2018-01-20","premarket","2018-Feb-02","2018-01-30","27.42","2012-12-17",0.11,0.04
"X",0.68,0.88,0.52,"2018-01-21","after_hours","2018-Jan-31","2018-01-31","40.67","2018-01-30",0.53,0.36
"XOM",1.07,1.22,0.99,"2018-01-20","premarket","2018-Feb-02","2018-01-30","69.22","2009-08-13",0.21,0.23
"YELP",0.05,0.09,0.01,"2018-01-21","after_hours","2018-Feb-07","2018-01-31","44.04","2018-01-30",1.6,0.08
"YUM",0.8,0.85,0.74,"2018-01-20","premarket","2018-Feb-08","2018-01-30","85.0","2018-01-30",0.14,0.11
"ZNGA",0.01,0.02,0,"2018-01-21","after_hours","2018-Feb-07","2018-01-31","3.62","2018-01-30",2.0,0.02
"ZTS",0.66,0.69,0.65,"2018-01-20","premarket","2018-Feb-15","2018-01-30","78.44","2018-01-30",0.06,0.04
