"AIG",0.87,1.22,0.6,"2018-01-09","after_hours","2018-Feb-08","2018-01-19","61.56","2018-01-18",0.71,0.62
"APC",-0.04,0.37,-0.21,"2018-01-09","after_hours","2018-Feb-06","2018-01-19","58.73","2018-01-18",14.5,0.58
"ATHN",0.46,0.6,0.41,"2018-01-09","after_hours","2018-Feb-01","2018-01-19","126.19","2018-01-18",0.41,0.19
"CHTR",0.89,1.3,0.37,"2018-01-08","premarket","2018-Feb-02","2018-01-18","356.49","2018-01-18",1.04,0.93
"CMG",1.35,1.53,1.05,"2018-01-09","after_hours","2018-Feb-06","2018-01-19","334.51","2018-01-18",0.36,0.48
"COP",0.42,0.77,0.17,"2018-01-08","premarket","2018-Feb-01","2018-01-18","59.62","2018-01-18",1.43,0.6
"CVX",1.27,1.58,1.13,"2018-01-08","premarket","2018-Feb-02","2018-01-18","69.06","2009-08-13",0.35,0.45
"DATA",-0.44,-0.35,-0.49,"2018-01-09","after_hours","2018-Feb-01","2018-01-19","73.94","2018-01-18",0.32,0.14
"DHI",0.63,0.78,0.58,"2018-01-08","premarket","2018-Jan-31","2018-01-18","52.26","2018-01-18",0.32,0.2
"FCX",0.49,0.57,0.41,"2018-01-08","premarket","2018-Jan-25","2018-01-18","19.7","2018-01-18",0.33,0.16
"FOXA",0.46,0.53,0.37,"2018-01-09","after_hours","2018-Feb-07","2018-01-19","36.91","2018-01-18",0.35,0.16
"GILD",1.6,1.91,1.22,"2018-01-09","after_hours","2018-Feb-06","2018-01-19","81.47","2018-01-18",0.43,0.69
"GRUB",0.24,0.3,0.19,"2018-01-08","premarket","2018-Feb-08","2018-01-18","70.9","2018-01-18",0.46,0.11
"HES",-1.03,-0.86,-1.49,"2018-01-08","premarket","2018-Feb-05","2018-01-18","53.84","2018-01-18",0.61,0.63
"HOG",0.46,0.54,0.34,"2018-01-08","premarket","2018-Jan-30","2018-01-18","52.05","2018-01-18",0.43,0.2
"IRBT",0.25,0.3,0.21,"2018-01-09","after_hours","2018-Feb-07","2018-01-19","88.0","2018-01-18",0.36,0.09
"MAT",0.21,0.26,0.13,"2018-01-09","after_hours","2018-Feb-01","2018-01-19","15.13","2018-01-18",0.62,0.13
"MPC",1,1.24,0.92,"2018-01-08","premarket","2018-Feb-01","2018-01-18","71.78","2018-01-18",0.32,0.32
"NOV",-0.04,-0.02,-0.07,"2018-01-09","after_hours","2018-Feb-05","2018-01-19","38.72","2018-01-18",1.25,0.05
"NOW",-0.06,-0.01,-0.11,"2018-01-09","after_hours","2018-Jan-31","2018-01-19","140.75","2018-01-18",1.67,0.1
"PSX",1.05,1.63,0.8,"2018-01-08","premarket","2018-Feb-02","2018-01-18","106.43","2018-01-18",0.79,0.83
"PXD",0.76,1.16,0.49,"2018-01-09","after_hours","2018-Feb-06","2018-01-19","184.5","2018-01-18",0.88,0.67
"SYMC",0.29,0.37,0.22,"2018-01-09","after_hours","2018-Jan-31","2018-01-19","26.49","2018-01-18",0.52,0.15
"TTWO",0.84,1.07,0.67,"2018-01-09","after_hours","2018-Feb-07","2018-01-19","115.78","2018-01-18",0.48,0.4
"TWTR",0.06,0.15,0,"2018-01-08","premarket","2018-Feb-08","2018-01-18","24.5","2018-01-18",2.5,0.15
"VLO",1.16,1.53,0.94,"2018-01-08","premarket","2018-Feb-01","2018-01-18","97.11","2018-01-18",0.51,0.59
"VRTX",0.29,0.62,0.17,"2018-01-09","after_hours","2018-Jan-31","2018-01-19","156.36","2018-01-18",1.55,0.45
"X",0.68,0.88,0.52,"2018-01-09","after_hours","2018-Jan-31","2018-01-19","39.16","2018-01-18",0.53,0.36
"XOM",1.04,1.17,0.9,"2018-01-08","premarket","2018-Feb-02","2018-01-18","69.22","2009-08-13",0.26,0.27
