"AA",1.23,1.49,0.98,"2018-01-01","after_hours","2018-Jan-17","2018-01-11","54.37","2018-01-10",0.41,0.51
"NOW",-0.06,-0.01,-0.11,"2018-01-01","after_hours","2018-Jan-31","2018-01-11","134.96","2018-01-10",1.67,0.1
"NUE",0.58,0.76,0.53,"2017-12-31","premarket","2018-Jan-30","2018-01-10","67.77","2018-01-10",0.4,0.23
"VRTX",0.28,0.62,0.17,"2018-01-01","after_hours","2018-Jan-31","2018-01-11","156.0","2018-01-10",1.61,0.45
"X",0.63,0.79,0.52,"2018-01-01","after_hours","2018-Jan-31","2018-01-11","38.08","2018-01-10",0.43,0.27
