"HOG",0.46,0.54,0.34,"2018-01-15","premarket","2018-01-30","2018-01-25","56.02","2018-01-25",0.43,0.2
"NOW",-0.06,-0.01,-0.11,"2018-01-16","after_hours","2018-01-31","2018-01-26","146.89","2018-01-25",1.67,0.1
"SYMC",0.29,0.37,0.22,"2018-01-16","after_hours","2018-01-31","2018-01-26","26.99","2018-01-25",0.52,0.15
"VRTX",0.29,0.62,0.17,"2018-01-16","after_hours","2018-01-31","2018-01-26","168.69","2018-01-25",1.55,0.45
"X",0.68,0.88,0.52,"2018-01-16","after_hours","2018-01-31","2018-01-26","40.41","2018-01-25",0.53,0.36
"COP",0.45,0.77,0.21,"2018-01-15","premarket","2018-02-01","2018-01-25","60.75","2018-01-25",1.24,0.56
"VLO",1.11,1.53,0.94,"2018-01-15","premarket","2018-02-01","2018-01-25","98.19","2018-01-25",0.53,0.59
"AMZN",1.85,2.33,1.21,"2018-01-16","after_hours","2018-02-01","2018-01-26","1368.0","2018-01-25",0.61,1.12
"ATHN",0.46,0.6,0.41,"2018-01-16","after_hours","2018-02-01","2018-01-26","128.55","2018-01-25",0.41,0.19
"MAT",0.2,0.26,0.12,"2018-01-16","after_hours","2018-02-01","2018-01-26","17.19","2018-01-25",0.7,0.14
"CHTR",0.85,1.3,0.37,"2018-01-15","premarket","2018-02-02","2018-01-25","376.23","2018-01-25",1.09,0.93
"NOV",-0.04,-0.02,-0.07,"2018-01-16","after_hours","2018-02-05","2018-01-26","38.62","2018-01-25",1.25,0.05
"APC",-0.01,0.37,-0.17,"2018-01-16","after_hours","2018-02-06","2018-01-26","61.48","2018-01-25",54.0,0.54
"GILD",1.65,1.94,1.22,"2018-01-16","after_hours","2018-02-06","2018-01-26","81.58","2018-01-25",0.44,0.72
"PXD",0.78,1.16,0.49,"2018-01-16","after_hours","2018-02-06","2018-01-26","189.0","2018-01-25",0.86,0.67
"TTWO",0.84,1.07,0.67,"2018-01-16","after_hours","2018-02-07","2018-01-26","116.74","2018-01-25",0.48,0.4
"YELP",0.05,0.09,0.01,"2018-01-16","after_hours","2018-02-07","2018-01-26","42.58","2018-01-25",1.6,0.08
"GRUB",0.24,0.3,0.19,"2018-01-15","premarket","2018-02-08","2018-01-25","72.58","2018-01-25",0.46,0.11
"TWTR",0.06,0.15,0,"2018-01-15","premarket","2018-02-08","2018-01-25","22.5","2018-01-25",2.5,0.15
"AIG",0.87,1.22,0.6,"2018-01-16","after_hours","2018-02-08","2018-01-26","64.35","2018-01-25",0.71,0.62
"OXY",0.37,0.49,0.21,"2018-01-16","after_hours","2018-02-13","2018-01-26","77.58","2018-01-25",0.76,0.28
"CTL",0.22,0.31,0.12,"2018-01-16","after_hours","2018-02-14","2018-01-26","17.92","2018-01-25",0.86,0.19
"MRO",0.02,0.15,-0.07,"2018-01-16","after_hours","2018-02-14","2018-01-26","30.77","2009-08-13",11.0,0.22
"WMB",0.2,0.24,0.16,"2018-01-16","after_hours","2018-02-14","2018-01-26","32.7","2018-01-25",0.4,0.08
"AVP",0.06,0.09,0.03,"2018-01-15","premarket","2018-02-15","2018-01-25","17.8","2012-01-18",1.0,0.06
