"_Symbol","consensusEstimate","highEstimate","lowEstimate","LongTradeDate","TimeOfAnnouncement","EarningsDate","ShortTrade","ClosePrice","CloseDate","dispersionScore","delta"
"AAL",0.92,0.95,0.89,"2018-01-11","premarket","2018-Jan-25","2018-01-21","58.59","2018-01-19",0.07,0.06
"AAPL",3.77,3.88,3.68,"2018-01-12","after_hours","2018-Feb-01","2018-01-22","178.61","2018-01-19",0.05,0.2
"ABBV",1.44,1.51,1.42,"2018-01-11","premarket","2018-Jan-26","2018-01-21","104.33","2018-01-19",0.06,0.09
"ABC",1.35,1.39,1.23,"2018-01-11","premarket","2018-Feb-06","2018-01-21","100.87","2018-01-19",0.12,0.16
"ABT",0.73,0.74,0.71,"2018-01-11","premarket","2018-Jan-24","2018-01-21","59.23","2018-01-19",0.04,0.03
"ADM",0.71,0.75,0.68,"2018-01-11","premarket","2018-Feb-06","2018-01-21","40.51","2018-01-19",0.1,0.07
"ADP",0.89,0.92,0.86,"2018-01-11","premarket","2018-Jan-31","2018-01-21","121.19","2018-01-19",0.07,0.06
"AET",1.18,1.29,1.12,"2018-01-11","premarket","2018-Jan-30","2018-01-21","120.31","2016-08-23",0.14,0.17
"AFL",1.55,1.6,1.5,"2018-01-12","after_hours","2018-Jan-31","2018-01-22","86.41","2018-01-19",0.06,0.1
"AGN",4.73,4.86,4.51,"2018-01-11","premarket","2018-Feb-06","2018-01-21","180.87","2018-01-19",0.07,0.35
"AGNC",0.62,0.64,0.6,"2018-01-12","after_hours","2018-Jan-31","2018-01-22","19.28","2018-01-19",0.06,0.04
"AIG",0.87,1.22,0.6,"2018-01-12","after_hours","2018-Feb-08","2018-01-22","61.67","2018-01-19",0.71,0.62
"AKAM",0.45,0.47,0.43,"2018-01-12","after_hours","2018-Feb-06","2018-01-22","65.3","2018-01-19",0.09,0.04
"AKS",-0.14,-0.07,-0.19,"2018-01-11","premarket","2018-Jan-30","2018-01-21","6.54","2018-01-19",0.86,0.12
"ALGN",0.96,1.1,0.93,"2018-01-12","after_hours","2018-Jan-30","2018-01-22","268.1","2018-01-19",0.18,0.17
"ALXN",1.09,1.34,1,"2018-01-11","premarket","2018-Feb-08","2018-01-21","120.6","2018-01-19",0.31,0.34
"AMD",0.02,0.04,0.01,"2018-01-12","after_hours","2018-Jan-30","2018-01-22","12.56","2018-01-19",1.5,0.03
"AMGN",3.02,3.18,2.9,"2018-01-12","after_hours","2018-Feb-01","2018-01-22","188.36","2018-01-19",0.09,0.28
"AMTD",0.51,0.53,0.48,"2018-01-12","after_hours","2018-Jan-22","2018-01-22","55.1","2018-01-19",0.1,0.05
"AMZN",1.94,3.32,1.21,"2018-01-12","after_hours","2018-Feb-01","2018-01-22","1312.0","2018-01-19",1.09,2.11
"ANTM",1.25,1.3,1.16,"2018-01-11","premarket","2018-Jan-31","2018-01-21","250.65","2018-01-19",0.11,0.14
"APC",-0.04,0.37,-0.21,"2018-01-12","after_hours","2018-Feb-06","2018-01-22","58.03","2018-01-19",14.5,0.58
"ATHN",0.46,0.6,0.41,"2018-01-12","after_hours","2018-Feb-01","2018-01-22","126.02","2018-01-19",0.41,0.19
"ATVI",0.88,0.97,0.76,"2018-01-12","after_hours","2018-Feb-08","2018-01-22","70.22","2018-01-19",0.24,0.21
"AZN",0.44,0.53,0.38,"2018-01-11","premarket","2018-Feb-02","2018-01-21","N/A","N/A",0.34,0.15
"BA",2.91,3.06,2.79,"2018-01-11","premarket","2018-Jan-31","2018-01-21","30.3","2001-09-21",0.09,0.27
"BABA",1.45,1.64,1.26,"2018-01-11","premarket","2018-Feb-01","2018-01-21","N/A","N/A",0.26,0.38
"BAX",0.58,0.6,0.57,"2018-01-11","premarket","2018-Feb-01","2018-01-21","69.36","2018-01-19",0.05,0.03
"BIIB",5.45,6.08,4.82,"2018-01-11","premarket","2018-Jan-25","2018-01-21","347.57","2018-01-19",0.23,1.26
"BMY",0.67,0.7,0.63,"2018-01-11","premarket","2018-Feb-05","2018-01-21","33.73","2012-01-18",0.1,0.07
"BP",0.66,0.66,0.66,"2018-01-11","premarket","2018-Feb-06","2018-01-21","34.08","2016-08-23",0.0,0.0
"BSX",0.34,0.36,0.31,"2018-01-11","premarket","2018-Feb-01","2018-01-21","27.54","2018-01-19",0.15,0.05
"BX",0.69,0.78,0.65,"2018-01-11","premarket","2018-Feb-01","2018-01-21","N/A","N/A",0.19,0.13
"CAH",1.13,1.21,1.01,"2018-01-11","premarket","2018-Feb-08","2018-01-21","72.03","2018-01-19",0.18,0.2
"CAT",1.77,1.92,1.53,"2018-01-11","premarket","2018-Jan-25","2018-01-21","44.1","2001-09-21",0.22,0.39
"CELG",1.77,1.85,1.72,"2018-01-11","premarket","2018-Jan-25","2018-01-21","102.0","2018-01-19",0.07,0.13
"CHTR",0.85,1.3,0.37,"2018-01-11","premarket","2018-Feb-02","2018-01-21","366.73","2018-01-19",1.09,0.93
"CI",1.87,1.9,1.79,"2018-01-11","premarket","2018-Feb-01","2018-01-21","220.66","2018-01-19",0.06,0.11
"CL",0.75,0.76,0.74,"2018-01-11","premarket","2018-Jan-26","2018-01-21","74.48","2016-08-23",0.03,0.02
"CLF",0.15,0.17,0.14,"2018-01-11","premarket","2018-Jan-25","2018-01-21","8.29","2018-01-19",0.2,0.03
"CMCSA",0.47,0.49,0.45,"2018-01-11","premarket","2018-Jan-24","2018-01-21","41.95","2018-01-19",0.09,0.04
"CME",1.1,1.11,1.09,"2018-01-11","premarket","2018-Feb-01","2018-01-21","153.01","2018-01-19",0.02,0.02
"CMG",1.35,1.53,1.05,"2018-01-12","after_hours","2018-Feb-06","2018-01-22","339.25","2018-01-19",0.36,0.48
"CMI",2.64,3,2.47,"2018-01-11","premarket","2018-Feb-06","2018-01-21","187.16","2018-01-19",0.2,0.53
"COF",1.85,1.96,1.76,"2018-01-12","after_hours","2018-Jan-23","2018-01-22","102.7","2018-01-19",0.11,0.2
"COP",0.42,0.77,0.17,"2018-01-11","premarket","2018-Feb-01","2018-01-21","59.68","2018-01-19",1.43,0.6
"CREE",-0.1,-0.1,-0.1,"2018-01-12","after_hours","2018-Jan-23","2018-01-22","36.17","2018-01-19",0.0,0.0
"CRUS",1.63,1.63,1.61,"2018-01-12","after_hours","2018-Feb-05","2018-01-22","54.9","2018-01-19",0.01,0.02
"CTSH",0.88,0.94,0.86,"2018-01-11","premarket","2018-Feb-07","2018-01-21","76.99","2018-01-19",0.09,0.08
"CVX",1.27,1.58,1.13,"2018-01-11","premarket","2018-Feb-02","2018-01-21","69.06","2009-08-13",0.35,0.45
"DATA",-0.45,-0.35,-0.5,"2018-01-12","after_hours","2018-Feb-01","2018-01-22","73.14","2018-01-19",0.33,0.15
"DFS",1.53,1.56,1.46,"2018-01-12","after_hours","2018-Jan-24","2018-01-22","78.18","2018-01-19",0.07,0.1
"DHI",0.63,0.78,0.58,"2018-01-11","premarket","2018-Jan-31","2018-01-21","51.21","2018-01-19",0.32,0.2
"DIS",1.62,1.68,1.54,"2018-01-12","after_hours","2018-Feb-06","2018-01-22","18.2","2001-09-21",0.09,0.14
"DWDP",0.67,0.69,0.58,"2018-01-11","premarket","2018-Feb-01","2018-01-21","76.49","2018-01-19",0.16,0.11
"EA",2.07,2.17,1.98,"2018-01-12","after_hours","2018-Jan-30","2018-01-22","115.35","2018-01-19",0.09,0.19
"EBAY",0.5,0.51,0.48,"2018-01-12","after_hours","2018-Jan-31","2018-01-22","38.75","2018-01-19",0.06,0.03
"EMR",0.54,0.58,0.51,"2018-01-11","premarket","2018-Feb-06","2018-01-21","49.25","2012-01-18",0.13,0.07
"EPD",0.35,0.37,0.32,"2018-01-11","premarket","2018-Jan-31","2018-01-21","N/A","N/A",0.14,0.05
"ETFC",0.62,0.64,0.6,"2018-01-12","after_hours","2018-Jan-25","2018-01-22","53.76","2018-01-19",0.06,0.04
"ETN",1.23,1.26,1.04,"2018-01-11","premarket","2018-Feb-01","2018-01-21","48.85","2012-01-18",0.18,0.22
"EW",0.9,0.93,0.89,"2018-01-12","after_hours","2018-Feb-01","2018-01-22","122.05","2018-01-19",0.04,0.04
"F",0.44,0.46,0.41,"2018-01-12","after_hours","2018-Jan-24","2018-01-22","12.03","2012-01-18",0.11,0.05
"FB",1.94,2.1,1.66,"2018-01-12","after_hours","2018-Jan-31","2018-01-22","180.85","2018-01-19",0.23,0.44
"FCX",0.49,0.57,0.41,"2018-01-11","premarket","2018-Jan-25","2018-01-21","19.48","2018-01-19",0.33,0.16
"FEYE",-0.2,-0.15,-0.24,"2018-01-12","after_hours","2018-Feb-08","2018-01-22","N/A","N/A",0.45,0.09
"FFIV",1.56,1.65,1.48,"2018-01-12","after_hours","2018-Jan-24","2018-01-22","138.7","2018-01-19",0.11,0.17
"FLEX",0.23,0.24,0.23,"2018-01-12","after_hours","2018-Jan-25","2018-01-22","N/A","N/A",0.04,0.01
"FOXA",0.44,0.53,0.35,"2018-01-12","after_hours","2018-Feb-07","2018-01-22","36.03","2018-01-19",0.41,0.18
"GD",2.36,2.41,2.32,"2018-01-11","premarket","2018-Jan-24","2018-01-21","153.0","2016-08-23",0.04,0.09
"GE",0.28,0.32,0.27,"2018-01-11","premarket","2018-Jan-24","2018-01-21","29.0","2001-09-21",0.18,0.05
"GILD",1.65,1.94,1.22,"2018-01-12","after_hours","2018-Feb-06","2018-01-22","81.3","2018-01-19",0.44,0.72
"GLW",0.47,0.48,0.45,"2018-01-11","premarket","2018-Jan-30","2018-01-21","35.05","2018-01-19",0.06,0.03
"GM",1.29,1.41,1.11,"2018-01-11","premarket","2018-Feb-06","2018-01-21","44.05","2018-01-19",0.23,0.3
"GOOGL",10.12,10.92,9.14,"2018-01-12","after_hours","2018-Feb-01","2018-01-22","1138.03","2018-01-19",0.18,1.78
"GPRO",-0.22,0.07,-0.4,"2018-01-12","after_hours","2018-Feb-01","2018-01-22","N/A","N/A",2.14,0.47
"GRUB",0.24,0.3,0.19,"2018-01-11","premarket","2018-Feb-08","2018-01-21","70.48","2018-01-19",0.46,0.11
"GWW",2.18,2.33,2.04,"2018-01-11","premarket","2018-Jan-24","2018-01-21","228.48","2018-01-19",0.13,0.29
"HAL",0.46,0.48,0.44,"2018-01-11","premarket","2018-Jan-22","2018-01-21","33.91","2012-01-18",0.09,0.04
"HCA",1.87,1.95,1.8,"2018-01-11","premarket","2018-Jan-30","2018-01-21","90.32","2018-01-19",0.08,0.15
"HES",-1.03,-0.86,-1.49,"2018-01-11","premarket","2018-Feb-05","2018-01-21","53.08","2018-01-19",0.61,0.63
"HIG",0.74,0.84,0.66,"2018-01-12","after_hours","2018-Feb-08","2018-01-22","56.16","2018-01-19",0.24,0.18
"HOG",0.46,0.54,0.34,"2018-01-11","premarket","2018-Jan-30","2018-01-21","52.55","2018-01-19",0.43,0.2
"HON",1.84,1.85,1.84,"2018-01-11","premarket","2018-Jan-26","2018-01-21","36.71","2009-08-13",0.01,0.01
"HSY",1.06,1.08,1.03,"2018-01-11","premarket","2018-Feb-01","2018-01-21","108.15","2018-01-19",0.05,0.05
"HUM",2,2.06,1.95,"2018-01-11","premarket","2018-Feb-07","2018-01-21","280.77","2018-01-19",0.06,0.11
"ILMN",1.2,1.28,1.16,"2018-01-12","after_hours","2018-Jan-30","2018-01-22","242.31","2018-01-19",0.1,0.12
"INFN",-0.21,-0.2,-0.22,"2018-01-12","after_hours","2018-Feb-07","2018-01-22","6.81","2018-01-19",0.1,0.02
"INTC",0.86,0.87,0.86,"2018-01-12","after_hours","2018-Jan-25","2018-01-22","44.62","2018-01-19",0.01,0.01
"IP",1.19,1.22,1.17,"2018-01-11","premarket","2018-Feb-01","2018-01-21","20.349998","2009-08-13",0.04,0.05
"IRBT",0.25,0.3,0.21,"2018-01-12","after_hours","2018-Feb-07","2018-01-22","86.86","2018-01-19",0.36,0.09
"ISRG",1.95,1.99,1.9,"2018-01-12","after_hours","2018-Jan-25","2018-01-22","433.96","2018-01-19",0.05,0.09
"ITW",1.62,1.65,1.58,"2018-01-11","premarket","2018-Jan-24","2018-01-21","171.14","2018-01-19",0.04,0.07
"JNJ",1.72,1.74,1.69,"2018-01-11","premarket","2018-Jan-23","2018-01-21","60.69","2009-08-13",0.03,0.05
"JNPR",0.42,0.45,0.38,"2018-01-12","after_hours","2018-Jan-30","2018-01-22","27.73","2018-01-19",0.17,0.07
"KMB",1.54,1.56,1.53,"2018-01-11","premarket","2018-Jan-23","2018-01-21","115.74","2018-01-19",0.02,0.03
"LITE",1,1.06,0.93,"2018-01-11","premarket","2018-Feb-06","2018-01-21","N/A","N/A",0.13,0.13
"LLY",1.08,1.11,1.06,"2018-01-11","premarket","2018-Jan-31","2018-01-21","40.06","2012-01-18",0.05,0.05
"LMT",4.06,4.17,3.93,"2018-01-11","premarket","2018-Jan-29","2018-01-21","255.24","2016-08-23",0.06,0.24
"LRCX",3.67,3.75,3.65,"2018-01-12","after_hours","2018-Jan-24","2018-01-22","205.85","2018-01-19",0.03,0.1
"LUV",0.76,0.86,0.72,"2018-01-11","premarket","2018-Jan-25","2018-01-21","65.4","2018-01-19",0.18,0.14
"LVS",0.77,0.83,0.69,"2018-01-12","after_hours","2018-Jan-24","2018-01-22","73.82","2018-01-19",0.18,0.14
"LYB",2.5,2.7,2.3,"2018-01-11","premarket","2018-Feb-02","2018-01-21","117.39","2018-01-19",0.16,0.4
"MA",1.12,1.17,1.05,"2018-01-11","premarket","2018-Feb-01","2018-01-21","166.3","2018-01-19",0.11,0.12
"MAT",0.21,0.26,0.13,"2018-01-12","after_hours","2018-Feb-01","2018-01-22","15.21","2018-01-19",0.62,0.13
"MCD",1.59,1.64,1.53,"2018-01-11","premarket","2018-Jan-30","2018-01-21","56.45","2009-08-13",0.07,0.11
"MCK",2.89,3.05,2.77,"2018-01-11","premarket","2018-Feb-01","2018-01-21","171.7","2018-01-19",0.1,0.28
"MDLZ",0.56,0.59,0.52,"2018-01-12","after_hours","2018-Jan-31","2018-01-22","43.68","2018-01-19",0.12,0.07
"MET",1.1,1.12,1.07,"2018-01-12","after_hours","2018-Jan-31","2018-01-22","52.93","2018-01-19",0.05,0.05
"MMM",2.03,2.11,1.97,"2018-01-11","premarket","2018-Jan-25","2018-01-21","72.28","2009-08-13",0.07,0.14
"MO",0.81,0.82,0.79,"2018-01-11","premarket","2018-Feb-01","2018-01-21","17.66","2009-08-13",0.04,0.03
"MPC",1,1.24,0.92,"2018-01-11","premarket","2018-Feb-01","2018-01-21","71.66","2018-01-19",0.32,0.32
"MRK",0.94,0.96,0.92,"2018-01-11","premarket","2018-Feb-02","2018-01-21","30.73","2009-08-13",0.04,0.04
"MSFT",0.86,0.91,0.84,"2018-01-12","after_hours","2018-Jan-31","2018-01-22","90.14","2018-01-19",0.08,0.07
"NFLX",0.41,0.43,0.39,"2018-01-12","after_hours","2018-Jan-22","2018-01-22","222.75","2018-01-19",0.1,0.04
"NOC",2.75,2.9,2.52,"2018-01-11","premarket","2018-Jan-25","2018-01-21","316.23","2018-01-19",0.14,0.38
"NOK",0.11,0.14,0.08,"2018-01-11","premarket","2018-Feb-01","2018-01-21","N/A","N/A",0.55,0.06
"NOV",-0.04,-0.02,-0.07,"2018-01-12","after_hours","2018-Feb-05","2018-01-22","37.52","2018-01-19",1.25,0.05
"NOW",-0.06,-0.01,-0.11,"2018-01-12","after_hours","2018-Jan-31","2018-01-22","141.23","2018-01-19",1.67,0.1
"NSC",1.56,1.62,1.44,"2018-01-11","premarket","2018-Jan-24","2018-01-21","153.66","2018-01-19",0.12,0.18
"NTES",1.98,2.41,1.55,"2018-01-12","after_hours","2018-Feb-07","2018-01-22","N/A","N/A",0.43,0.86
"NTR",0.42,0.42,0.42,"2018-01-12","after_hours","2018-Feb-05","2018-01-22","N/A","N/A",0.0,0.0
"NUE",0.55,0.56,0.53,"2018-01-11","premarket","2018-Jan-30","2018-01-21","69.19","2018-01-19",0.05,0.03
"OLN",0.42,0.45,0.38,"2018-01-12","after_hours","2018-Feb-06","2018-01-22","36.82","2018-01-19",0.17,0.07
"PAA",0.41,0.51,0.32,"2018-01-12","after_hours","2018-Feb-06","2018-01-22","N/A","N/A",0.46,0.19
"PCG",0.72,0.8,0.67,"2018-01-11","premarket","2018-Feb-09","2018-01-21","41.58","2012-01-18",0.18,0.13
"PFE",0.56,0.57,0.53,"2018-01-11","premarket","2018-Jan-30","2018-01-21","21.95","2012-01-18",0.07,0.04
"PG",1.14,1.16,1.12,"2018-01-11","premarket","2018-Jan-23","2018-01-21","52.29","2009-08-13",0.04,0.04
"PHM",0.84,0.9,0.79,"2018-01-11","premarket","2018-Jan-30","2018-01-21","34.35","2018-01-19",0.13,0.11
"PM",1.36,1.39,1.32,"2018-01-11","premarket","2018-Feb-08","2018-01-21","105.58","2018-01-19",0.05,0.07
"PSX",1,1.63,0.8,"2018-01-11","premarket","2018-Feb-02","2018-01-21","105.53","2018-01-19",0.83,0.83
"PXD",0.76,1.16,0.49,"2018-01-12","after_hours","2018-Feb-06","2018-01-22","183.86","2018-01-19",0.88,0.67
"PYPL",0.38,0.42,0.37,"2018-01-12","after_hours","2018-Jan-31","2018-01-22","83.23","2018-01-19",0.13,0.05
"QCOM",0.77,0.78,0.76,"2018-01-12","after_hours","2018-Jan-31","2018-01-22","68.04","2018-01-19",0.03,0.02
"RACE",0.67,0.74,0.6,"2018-01-11","premarket","2018-Feb-01","2018-01-21","N/A","N/A",0.21,0.14
"RCL",1.2,1.23,1.17,"2018-01-11","premarket","2018-Jan-24","2018-01-21","130.31","2018-01-19",0.05,0.06
"RL",1.84,1.95,1.74,"2018-01-11","premarket","2018-Feb-01","2018-01-21","110.28","2018-01-19",0.11,0.21
"SBUX",0.57,0.58,0.55,"2018-01-12","after_hours","2018-Jan-25","2018-01-22","61.21","2018-01-19",0.05,0.03
"SIRI",0.05,0.05,0.04,"2018-01-11","premarket","2018-Jan-31","2018-01-21","5.56","2018-01-19",0.2,0.01
"SNAP",-0.32,-0.2,-0.39,"2018-01-12","after_hours","2018-Feb-06","2018-01-22","N/A","N/A",0.59,0.19
"SNE",0.89,0.89,0.89,"2018-01-11","premarket","2018-Feb-02","2018-01-21","N/A","N/A",0.0,0.0
"SPGI",1.62,1.75,1.54,"2018-01-11","premarket","2018-Feb-06","2018-01-21","179.9","2018-01-19",0.13,0.21
"STX",1.39,1.5,1.32,"2018-01-11","premarket","2018-Jan-29","2018-01-21","52.14","2018-01-19",0.13,0.18
"SU",0.54,0.65,0.35,"2018-01-12","after_hours","2018-Feb-07","2018-01-22","N/A","N/A",0.56,0.3
"SWKS",1.78,1.8,1.74,"2018-01-12","after_hours","2018-Feb-05","2018-01-22","102.47","2018-01-19",0.03,0.06
"SYMC",0.29,0.37,0.22,"2018-01-12","after_hours","2018-Jan-31","2018-01-22","27.25","2018-01-19",0.52,0.15
"SYNA",0.69,0.7,0.68,"2018-01-12","after_hours","2018-Feb-07","2018-01-22","44.89","2018-01-19",0.03,0.02
"T",0.65,0.68,0.62,"2018-01-12","after_hours","2018-Jan-31","2018-01-22","37.37","2018-01-19",0.09,0.06
"TEVA",0.77,0.81,0.75,"2018-01-11","premarket","2018-Feb-08","2018-01-21","N/A","N/A",0.08,0.06
"TPR",0.86,0.9,0.85,"2018-01-11","premarket","2018-Feb-06","2018-01-21","47.58","2018-01-19",0.06,0.05
"TSCO",0.87,0.92,0.84,"2018-01-12","after_hours","2018-Jan-31","2018-01-22","81.24","2018-01-19",0.09,0.08
"TSN",1.52,1.54,1.48,"2018-01-11","premarket","2018-Feb-08","2018-01-21","79.5","2018-01-19",0.04,0.06
"TTWO",0.84,1.07,0.67,"2018-01-12","after_hours","2018-Feb-07","2018-01-22","117.71","2018-01-19",0.48,0.4
"TWTR",0.06,0.15,0.01,"2018-01-11","premarket","2018-Feb-08","2018-01-21","24.12","2018-01-19",2.33,0.14
"TWX",1.45,1.49,1.37,"2018-01-11","premarket","2018-Feb-01","2018-01-21","93.07","2018-01-19",0.08,0.12
"TXN",1.09,1.12,1.07,"2018-01-12","after_hours","2018-Jan-23","2018-01-22","31.97","2012-01-18",0.05,0.05
"UAL",1.34,1.4,1.29,"2018-01-12","after_hours","2018-Jan-23","2018-01-22","76.82","2018-01-19",0.08,0.11
"UNP",1.54,1.56,1.5,"2018-01-11","premarket","2018-Jan-25","2018-01-21","141.0","2018-01-19",0.04,0.06
"UPS",1.65,1.72,1.62,"2018-01-11","premarket","2018-Feb-01","2018-01-21","133.86","2018-01-19",0.06,0.1
"URI",3.34,3.54,3.13,"2018-01-12","after_hours","2018-Jan-24","2018-01-22","181.7","2018-01-19",0.12,0.41
"UTX",1.56,1.62,1.54,"2018-01-11","premarket","2018-Jan-24","2018-01-21","58.08","2009-08-13",0.05,0.08
"V",0.97,0.99,0.92,"2018-01-12","after_hours","2018-Feb-01","2018-01-22","123.05","2018-01-19",0.07,0.07
"VIAB",0.97,1.08,0.91,"2018-01-11","premarket","2018-Feb-08","2018-01-21","33.87","2018-01-19",0.18,0.17
"VLO",1.16,1.53,0.94,"2018-01-11","premarket","2018-Feb-01","2018-01-21","96.77","2018-01-19",0.51,0.59
"VRTX",0.29,0.62,0.17,"2018-01-12","after_hours","2018-Jan-31","2018-01-22","157.3","2018-01-19",1.55,0.45
"VZ",0.88,0.97,0.85,"2018-01-11","premarket","2018-Jan-23","2018-01-21","51.74","2018-01-19",0.14,0.12
"WDC",3.44,3.51,3.33,"2018-01-12","after_hours","2018-Jan-25","2018-01-22","86.12","2018-01-19",0.05,0.18
"WFT",-0.21,-0.2,-0.23,"2018-01-11","premarket","2018-Feb-02","2018-01-21","N/A","N/A",0.14,0.03
"WHR",4.01,4.13,3.95,"2018-01-12","after_hours","2018-Jan-24","2018-01-22","167.36","2018-01-19",0.04,0.18
"WY",0.35,0.37,0.33,"2018-01-11","premarket","2018-Feb-02","2018-01-21","27.42","2012-12-17",0.11,0.04
"X",0.68,0.88,0.52,"2018-01-12","after_hours","2018-Jan-31","2018-01-22","39.15","2018-01-19",0.53,0.36
"XLNX",0.63,0.65,0.63,"2018-01-12","after_hours","2018-Jan-24","2018-01-22","77.0","2018-01-19",0.03,0.02
"XOM",1.06,1.17,0.99,"2018-01-11","premarket","2018-Feb-02","2018-01-21","69.22","2009-08-13",0.17,0.18
"YUM",0.8,0.85,0.74,"2018-01-11","premarket","2018-Feb-08","2018-01-21","83.43","2018-01-19",0.14,0.11
"ZNGA",0.01,0.02,0,"2018-01-12","after_hours","2018-Feb-07","2018-01-22","3.77","2018-01-19",2.0,0.02
